<?xml version="1.0" encoding="UTF-8" standalone="no"?>
<!-- Created with Inkscape (http://www.inkscape.org/) -->

<svg
   xmlns:dc="http://purl.org/dc/elements/1.1/"
   xmlns:cc="http://creativecommons.org/ns#"
   xmlns:rdf="http://www.w3.org/1999/02/22-rdf-syntax-ns#"
   xmlns:svg="http://www.w3.org/2000/svg"
   xmlns="http://www.w3.org/2000/svg"
   xmlns:xlink="http://www.w3.org/1999/xlink"
   xmlns:sodipodi="http://sodipodi.sourceforge.net/DTD/sodipodi-0.dtd"
   xmlns:inkscape="http://www.inkscape.org/namespaces/inkscape"
   width="36"
   height="36"
   id="svg2"
   version="1.1"
   inkscape:version="0.48.3.1 r9886"
   sodipodi:docname="about.svg">
  <defs
     id="defs4">
    <linearGradient
       id="linearGradient4328">
      <stop
         style="stop-color:#ff0000;stop-opacity:1;"
         offset="0"
         id="stop4330" />
      <stop
         id="stop4336"
         offset="0.68371868"
         style="stop-color:#ff7f7f;stop-opacity:1;" />
      <stop
         style="stop-color:#ff0000;stop-opacity:1;"
         offset="1"
         id="stop4332" />
    </linearGradient>
    <linearGradient
       id="linearGradient4247">
      <stop
         id="stop4249"
         offset="0"
         style="stop-color:#dcdcdc;stop-opacity:1;" />
      <stop
         style="stop-color:#ffffff;stop-opacity:1;"
         offset="0.47237009"
         id="stop4251" />
      <stop
         id="stop4253"
         offset="1"
         style="stop-color:#dcdcdc;stop-opacity:1;" />
    </linearGradient>
    <linearGradient
       id="linearGradient4169">
      <stop
         style="stop-color:#dcdcdc;stop-opacity:1;"
         offset="0"
         id="stop4171" />
      <stop
         id="stop4177"
         offset="0.62886822"
         style="stop-color:#ffffff;stop-opacity:1;" />
      <stop
         style="stop-color:#dcdcdc;stop-opacity:1;"
         offset="1"
         id="stop4173" />
    </linearGradient>
    <linearGradient
       id="linearGradient6390">
      <stop
         style="stop-color:#808080;stop-opacity:1;"
         offset="0"
         id="stop6392" />
      <stop
         id="stop6398"
         offset="0.5"
         style="stop-color:#ffffff;stop-opacity:1;" />
      <stop
         style="stop-color:#808080;stop-opacity:1;"
         offset="1"
         id="stop6394" />
    </linearGradient>
    <linearGradient
       inkscape:collect="always"
       id="linearGradient6299">
      <stop
         style="stop-color:#000080;stop-opacity:1;"
         offset="0"
         id="stop6301" />
      <stop
         style="stop-color:#000080;stop-opacity:0;"
         offset="1"
         id="stop6303" />
    </linearGradient>
    <linearGradient
       id="linearGradient4208">
      <stop
         style="stop-color:#ffffff;stop-opacity:0.52100843;"
         offset="0"
         id="stop4210" />
      <stop
         style="stop-color:#afdde9;stop-opacity:0.52100843;"
         offset="1"
         id="stop4212" />
    </linearGradient>
    <inkscape:path-effect
       effect="skeletal"
       id="path-effect4202"
       is_visible="true"
       pattern="M 0,0 0,10 10,5 z"
       copytype="single_stretched"
       prop_scale="1"
       scale_y_rel="false"
       spacing="0"
       normal_offset="0"
       tang_offset="0"
       prop_units="false"
       vertical_pattern="false"
       fuse_tolerance="0" />
    <inkscape:path-effect
       effect="skeletal"
       id="path-effect3907"
       is_visible="true"
       pattern="M 0,0 0,10 10,5 z"
       copytype="single_stretched"
       prop_scale="1"
       scale_y_rel="false"
       spacing="0"
       normal_offset="0"
       tang_offset="0"
       prop_units="false"
       vertical_pattern="false"
       fuse_tolerance="0" />
    <inkscape:path-effect
       effect="skeletal"
       id="path-effect3903"
       is_visible="true"
       pattern="M 0,0 0,10 10,5 z"
       copytype="single_stretched"
       prop_scale="1"
       scale_y_rel="false"
       spacing="0"
       normal_offset="0"
       tang_offset="0"
       prop_units="false"
       vertical_pattern="false"
       fuse_tolerance="0" />
    <inkscape:path-effect
       effect="skeletal"
       id="path-effect3899"
       is_visible="true"
       pattern="M 0,0 0,10 10,5 z"
       copytype="single_stretched"
       prop_scale="1"
       scale_y_rel="false"
       spacing="0"
       normal_offset="0"
       tang_offset="0"
       prop_units="false"
       vertical_pattern="false"
       fuse_tolerance="0" />
    <inkscape:path-effect
       effect="skeletal"
       id="path-effect3895"
       is_visible="true"
       pattern="M 0,5 10,10 10,0 z"
       copytype="single_stretched"
       prop_scale="1"
       scale_y_rel="false"
       spacing="0"
       normal_offset="0"
       tang_offset="0"
       prop_units="false"
       vertical_pattern="false"
       fuse_tolerance="0" />
    <inkscape:path-effect
       effect="skeletal"
       id="path-effect3891"
       is_visible="true"
       pattern="M 0,5 10,10 10,0 z"
       copytype="single_stretched"
       prop_scale="1"
       scale_y_rel="false"
       spacing="0"
       normal_offset="0"
       tang_offset="0"
       prop_units="false"
       vertical_pattern="false"
       fuse_tolerance="0" />
    <inkscape:path-effect
       effect="spiro"
       id="path-effect3887"
       is_visible="true" />
    <linearGradient
       inkscape:collect="always"
       id="linearGradient4383-7">
      <stop
         style="stop-color:#000080;stop-opacity:1;"
         offset="0"
         id="stop4385-7" />
      <stop
         style="stop-color:#000080;stop-opacity:0;"
         offset="1"
         id="stop4387-6" />
    </linearGradient>
    <linearGradient
       inkscape:collect="always"
       id="linearGradient4375-1">
      <stop
         style="stop-color:#000080;stop-opacity:1;"
         offset="0"
         id="stop4377-2" />
      <stop
         style="stop-color:#000080;stop-opacity:0;"
         offset="1"
         id="stop4379-5" />
    </linearGradient>
    <linearGradient
       inkscape:collect="always"
       id="linearGradient4359-2">
      <stop
         style="stop-color:#000080;stop-opacity:1;"
         offset="0"
         id="stop4361-5" />
      <stop
         style="stop-color:#000080;stop-opacity:0;"
         offset="1"
         id="stop4363-3" />
    </linearGradient>
    <linearGradient
       inkscape:collect="always"
       id="linearGradient4367-6">
      <stop
         style="stop-color:#000080;stop-opacity:1;"
         offset="0"
         id="stop4369-3" />
      <stop
         style="stop-color:#000080;stop-opacity:0;"
         offset="1"
         id="stop4371-2" />
    </linearGradient>
    <linearGradient
       inkscape:collect="always"
       id="linearGradient4391-1">
      <stop
         style="stop-color:#000080;stop-opacity:1;"
         offset="0"
         id="stop4393-2" />
      <stop
         style="stop-color:#000080;stop-opacity:0;"
         offset="1"
         id="stop4395-5" />
    </linearGradient>
    <linearGradient
       inkscape:collect="always"
       id="linearGradient4399-5">
      <stop
         style="stop-color:#000080;stop-opacity:1;"
         offset="0"
         id="stop4401-8" />
      <stop
         style="stop-color:#000080;stop-opacity:0;"
         offset="1"
         id="stop4403-7" />
    </linearGradient>
    <linearGradient
       inkscape:collect="always"
       id="linearGradient4415-9">
      <stop
         style="stop-color:#000080;stop-opacity:1;"
         offset="0"
         id="stop4417-1" />
      <stop
         style="stop-color:#000080;stop-opacity:0;"
         offset="1"
         id="stop4419-4" />
    </linearGradient>
    <linearGradient
       inkscape:collect="always"
       id="linearGradient4407-7">
      <stop
         style="stop-color:#000080;stop-opacity:1;"
         offset="0"
         id="stop4409-1" />
      <stop
         style="stop-color:#000080;stop-opacity:0;"
         offset="1"
         id="stop4411-3" />
    </linearGradient>
    <radialGradient
       inkscape:collect="always"
       xlink:href="#linearGradient4208-0"
       id="radialGradient4357-7"
       cx="57.99107"
       cy="24.035715"
       fx="57.99107"
       fy="24.035715"
       r="14.026786"
       gradientTransform="matrix(1,0,0,1.0159134,0,-0.38249046)"
       gradientUnits="userSpaceOnUse" />
    <linearGradient
       id="linearGradient4208-0">
      <stop
         style="stop-color:#ffffff;stop-opacity:0.52100843;"
         offset="0"
         id="stop4210-0" />
      <stop
         style="stop-color:#afdde9;stop-opacity:0.52100843;"
         offset="1"
         id="stop4212-7" />
    </linearGradient>
    <linearGradient
       inkscape:collect="always"
       xlink:href="#linearGradient4345-2"
       id="linearGradient4353-3"
       x1="43.964283"
       y1="24.035715"
       x2="72.017853"
       y2="24.035715"
       gradientUnits="userSpaceOnUse" />
    <linearGradient
       inkscape:collect="always"
       id="linearGradient4345-2">
      <stop
         style="stop-color:#000080;stop-opacity:1;"
         offset="0"
         id="stop4347-4" />
      <stop
         style="stop-color:#000080;stop-opacity:0;"
         offset="1"
         id="stop4349-0" />
    </linearGradient>
    <linearGradient
       inkscape:collect="always"
       xlink:href="#linearGradient4407-7"
       id="linearGradient4603"
       gradientUnits="userSpaceOnUse"
       x1="41.48632"
       y1="20.419643"
       x2="73.335106"
       y2="20.419643" />
    <linearGradient
       inkscape:collect="always"
       xlink:href="#linearGradient4415-9"
       id="linearGradient4605"
       gradientUnits="userSpaceOnUse"
       x1="41.516159"
       y1="20.419643"
       x2="73.305267"
       y2="20.419643" />
    <linearGradient
       inkscape:collect="always"
       xlink:href="#linearGradient4399-5"
       id="linearGradient4607"
       gradientUnits="userSpaceOnUse"
       x1="41.43578"
       y1="20.419643"
       x2="73.385651"
       y2="20.419643" />
    <linearGradient
       inkscape:collect="always"
       xlink:href="#linearGradient4391-1"
       id="linearGradient4609"
       gradientUnits="userSpaceOnUse"
       x1="41.277515"
       y1="20.419643"
       x2="73.543915"
       y2="20.419643" />
    <linearGradient
       inkscape:collect="always"
       xlink:href="#linearGradient4367-6"
       id="linearGradient4611"
       gradientUnits="userSpaceOnUse"
       x1="41.48632"
       y1="20.419643"
       x2="73.335106"
       y2="20.419643" />
    <linearGradient
       inkscape:collect="always"
       xlink:href="#linearGradient4359-2"
       id="linearGradient4613"
       gradientUnits="userSpaceOnUse"
       x1="41.516159"
       y1="20.419643"
       x2="73.305267"
       y2="20.419643" />
    <linearGradient
       inkscape:collect="always"
       xlink:href="#linearGradient4375-1"
       id="linearGradient4615"
       gradientUnits="userSpaceOnUse"
       x1="41.43578"
       y1="20.419643"
       x2="73.385651"
       y2="20.419643" />
    <linearGradient
       inkscape:collect="always"
       xlink:href="#linearGradient4383-7"
       id="linearGradient4617"
       gradientUnits="userSpaceOnUse"
       x1="41.277515"
       y1="20.419643"
       x2="73.543915"
       y2="20.419643" />
    <linearGradient
       inkscape:collect="always"
       xlink:href="#linearGradient4383-7-4"
       id="linearGradient4617-1"
       gradientUnits="userSpaceOnUse"
       x1="41.277515"
       y1="20.419643"
       x2="73.543915"
       y2="20.419643" />
    <linearGradient
       inkscape:collect="always"
       id="linearGradient4383-7-4">
      <stop
         style="stop-color:#000080;stop-opacity:1;"
         offset="0"
         id="stop4385-7-1" />
      <stop
         style="stop-color:#000080;stop-opacity:0;"
         offset="1"
         id="stop4387-6-0" />
    </linearGradient>
    <linearGradient
       inkscape:collect="always"
       xlink:href="#linearGradient4383-7-2"
       id="linearGradient4617-0"
       gradientUnits="userSpaceOnUse"
       x1="41.277515"
       y1="20.419643"
       x2="73.543915"
       y2="20.419643" />
    <linearGradient
       inkscape:collect="always"
       id="linearGradient4383-7-2">
      <stop
         style="stop-color:#000080;stop-opacity:1;"
         offset="0"
         id="stop4385-7-5" />
      <stop
         style="stop-color:#000080;stop-opacity:0;"
         offset="1"
         id="stop4387-6-7" />
    </linearGradient>
    <inkscape:path-effect
       effect="bend_path"
       id="path-effect8103"
       is_visible="true"
       bendpath="m -39.442661,103.46459 c 10.495661,-5.107347 20.199909,-3.26873 29.7412117,0"
       prop_scale="1"
       scale_y_rel="false"
       vertical="false"
       bendpath-nodetypes="cc" />
    <inkscape:path-effect
       effect="bend_path"
       id="path-effect8043"
       is_visible="true"
       bendpath="m -903.47306,535.80658 c 10.14288,-7.94293 21.69213,-6.91896 34.16596,0"
       prop_scale="1"
       scale_y_rel="false"
       vertical="false"
       bendpath-nodetypes="cc" />
    <linearGradient
       id="linearGradient4162-64-7-5-7-7">
      <stop
         id="stop4164-172-9-8-1-6"
         offset="0"
         style="stop-color:#ababab;stop-opacity:1;" />
      <stop
         style="stop-color:#ababab;stop-opacity:0;"
         offset="0.5"
         id="stop4170-13-0-2-8-9" />
      <stop
         id="stop4166-590-2-7-9-1"
         offset="1"
         style="stop-color:#ababab;stop-opacity:1;" />
    </linearGradient>
    <linearGradient
       id="linearGradient4162-9-9-6-5-14-58">
      <stop
         id="stop4164-1-52-1-3-7-4"
         offset="0"
         style="stop-color:#ababab;stop-opacity:1;" />
      <stop
         style="stop-color:#ababab;stop-opacity:0;"
         offset="0.5"
         id="stop4170-2-7-2-0-7-4" />
      <stop
         id="stop4166-9-6-3-3-35-0"
         offset="1"
         style="stop-color:#ababab;stop-opacity:1;" />
    </linearGradient>
    <linearGradient
       id="linearGradient4162-4-2-7-1-4-7">
      <stop
         id="stop4164-3-9-0-2-6-0"
         offset="0"
         style="stop-color:#ababab;stop-opacity:1;" />
      <stop
         style="stop-color:#ababab;stop-opacity:0;"
         offset="0.5"
         id="stop4170-7-4-8-9-2-6" />
      <stop
         id="stop4166-5-1-2-7-7-1"
         offset="1"
         style="stop-color:#ababab;stop-opacity:1;" />
    </linearGradient>
    <linearGradient
       id="linearGradient4162-1-9-3-5-1-9">
      <stop
         id="stop4164-17-2-9-4-3-8"
         offset="0"
         style="stop-color:#ababab;stop-opacity:1;" />
      <stop
         style="stop-color:#ababab;stop-opacity:0;"
         offset="0.5"
         id="stop4170-1-6-2-9-7-5" />
      <stop
         id="stop4166-4-42-9-9-7-9"
         offset="1"
         style="stop-color:#ababab;stop-opacity:1;" />
    </linearGradient>
    <linearGradient
       id="linearGradient4162-19-0-9-2-7-6">
      <stop
         id="stop4164-2-7-7-5-6-9"
         offset="0"
         style="stop-color:#ababab;stop-opacity:1;" />
      <stop
         style="stop-color:#ababab;stop-opacity:0;"
         offset="0.5"
         id="stop4170-26-2-1-2-8-6" />
      <stop
         id="stop4166-24-1-0-5-9-8"
         offset="1"
         style="stop-color:#ababab;stop-opacity:1;" />
    </linearGradient>
    <linearGradient
       id="linearGradient4162-49-67-2-8-2-3">
      <stop
         id="stop4164-98-32-9-0-8-9"
         offset="0"
         style="stop-color:#ababab;stop-opacity:1;" />
      <stop
         style="stop-color:#ababab;stop-opacity:0;"
         offset="0.5"
         id="stop4170-23-11-1-7-9-6" />
      <stop
         id="stop4166-0-5-0-5-6-6"
         offset="1"
         style="stop-color:#ababab;stop-opacity:1;" />
    </linearGradient>
    <linearGradient
       id="linearGradient4162-94-2-6-6-2-8">
      <stop
         id="stop4164-14-87-5-3-7-5"
         offset="0"
         style="stop-color:#ababab;stop-opacity:1;" />
      <stop
         style="stop-color:#ababab;stop-opacity:0;"
         offset="0.5"
         id="stop4170-63-8-1-9-5-3" />
      <stop
         id="stop4166-40-3-4-6-18-01"
         offset="1"
         style="stop-color:#ababab;stop-opacity:1;" />
    </linearGradient>
    <linearGradient
       id="linearGradient4162-09-5-8-5-6-5">
      <stop
         id="stop4164-15-4-7-8-4-4"
         offset="0"
         style="stop-color:#ababab;stop-opacity:1;" />
      <stop
         style="stop-color:#ababab;stop-opacity:0;"
         offset="0.5"
         id="stop4170-0-70-4-6-5-1" />
      <stop
         id="stop4166-1-48-3-6-4-53"
         offset="1"
         style="stop-color:#ababab;stop-opacity:1;" />
    </linearGradient>
    <linearGradient
       id="linearGradient4162-3-80-6-6-7-6">
      <stop
         id="stop4164-6-4-2-3-7-3"
         offset="0"
         style="stop-color:#ababab;stop-opacity:1;" />
      <stop
         style="stop-color:#ababab;stop-opacity:0;"
         offset="0.5"
         id="stop4170-74-4-4-6-8-1" />
      <stop
         id="stop4166-3-0-9-9-3-34"
         offset="1"
         style="stop-color:#ababab;stop-opacity:1;" />
    </linearGradient>
    <linearGradient
       id="linearGradient4162-5-1-5-4-4-9">
      <stop
         id="stop4164-5-36-7-7-9-3"
         offset="0"
         style="stop-color:#ababab;stop-opacity:1;" />
      <stop
         style="stop-color:#ababab;stop-opacity:0;"
         offset="0.5"
         id="stop4170-5-6-0-6-6-18" />
      <stop
         id="stop4166-91-5-2-4-2-1"
         offset="1"
         style="stop-color:#ababab;stop-opacity:1;" />
    </linearGradient>
    <linearGradient
       id="linearGradient4162-64-7-5-7-2">
      <stop
         id="stop4164-172-9-8-1-1"
         offset="0"
         style="stop-color:#ababab;stop-opacity:1;" />
      <stop
         style="stop-color:#ababab;stop-opacity:0;"
         offset="0.5"
         id="stop4170-13-0-2-8-5" />
      <stop
         id="stop4166-590-2-7-9-8"
         offset="1"
         style="stop-color:#ababab;stop-opacity:1;" />
    </linearGradient>
    <linearGradient
       id="linearGradient4162-9-9-6-5-14-5">
      <stop
         id="stop4164-1-52-1-3-7-5"
         offset="0"
         style="stop-color:#ababab;stop-opacity:1;" />
      <stop
         style="stop-color:#ababab;stop-opacity:0;"
         offset="0.5"
         id="stop4170-2-7-2-0-7-6" />
      <stop
         id="stop4166-9-6-3-3-35-6"
         offset="1"
         style="stop-color:#ababab;stop-opacity:1;" />
    </linearGradient>
    <linearGradient
       id="linearGradient4162-4-2-7-1-4-6">
      <stop
         id="stop4164-3-9-0-2-6-1"
         offset="0"
         style="stop-color:#ababab;stop-opacity:1;" />
      <stop
         style="stop-color:#ababab;stop-opacity:0;"
         offset="0.5"
         id="stop4170-7-4-8-9-2-4" />
      <stop
         id="stop4166-5-1-2-7-7-5"
         offset="1"
         style="stop-color:#ababab;stop-opacity:1;" />
    </linearGradient>
    <linearGradient
       id="linearGradient4162-1-9-3-5-1-2">
      <stop
         id="stop4164-17-2-9-4-3-7"
         offset="0"
         style="stop-color:#ababab;stop-opacity:1;" />
      <stop
         style="stop-color:#ababab;stop-opacity:0;"
         offset="0.5"
         id="stop4170-1-6-2-9-7-3" />
      <stop
         id="stop4166-4-42-9-9-7-6"
         offset="1"
         style="stop-color:#ababab;stop-opacity:1;" />
    </linearGradient>
    <linearGradient
       id="linearGradient4162-19-0-9-2-7-9">
      <stop
         id="stop4164-2-7-7-5-6-7"
         offset="0"
         style="stop-color:#ababab;stop-opacity:1;" />
      <stop
         style="stop-color:#ababab;stop-opacity:0;"
         offset="0.5"
         id="stop4170-26-2-1-2-8-4" />
      <stop
         id="stop4166-24-1-0-5-9-9"
         offset="1"
         style="stop-color:#ababab;stop-opacity:1;" />
    </linearGradient>
    <linearGradient
       id="linearGradient4162-49-67-2-8-2-1">
      <stop
         id="stop4164-98-32-9-0-8-0"
         offset="0"
         style="stop-color:#ababab;stop-opacity:1;" />
      <stop
         style="stop-color:#ababab;stop-opacity:0;"
         offset="0.5"
         id="stop4170-23-11-1-7-9-4" />
      <stop
         id="stop4166-0-5-0-5-6-2"
         offset="1"
         style="stop-color:#ababab;stop-opacity:1;" />
    </linearGradient>
    <linearGradient
       id="linearGradient4162-94-2-6-6-2-0">
      <stop
         id="stop4164-14-87-5-3-7-3"
         offset="0"
         style="stop-color:#ababab;stop-opacity:1;" />
      <stop
         style="stop-color:#ababab;stop-opacity:0;"
         offset="0.5"
         id="stop4170-63-8-1-9-5-8" />
      <stop
         id="stop4166-40-3-4-6-18-0"
         offset="1"
         style="stop-color:#ababab;stop-opacity:1;" />
    </linearGradient>
    <linearGradient
       id="linearGradient4162-09-5-8-5-6-4">
      <stop
         id="stop4164-15-4-7-8-4-0"
         offset="0"
         style="stop-color:#ababab;stop-opacity:1;" />
      <stop
         style="stop-color:#ababab;stop-opacity:0;"
         offset="0.5"
         id="stop4170-0-70-4-6-5-2" />
      <stop
         id="stop4166-1-48-3-6-4-5"
         offset="1"
         style="stop-color:#ababab;stop-opacity:1;" />
    </linearGradient>
    <linearGradient
       id="linearGradient4162-3-80-6-6-7-4">
      <stop
         id="stop4164-6-4-2-3-7-6"
         offset="0"
         style="stop-color:#ababab;stop-opacity:1;" />
      <stop
         style="stop-color:#ababab;stop-opacity:0;"
         offset="0.5"
         id="stop4170-74-4-4-6-8-0" />
      <stop
         id="stop4166-3-0-9-9-3-3"
         offset="1"
         style="stop-color:#ababab;stop-opacity:1;" />
    </linearGradient>
    <linearGradient
       id="linearGradient4162-5-1-5-4-4-8">
      <stop
         id="stop4164-5-36-7-7-9-0"
         offset="0"
         style="stop-color:#ababab;stop-opacity:1;" />
      <stop
         style="stop-color:#ababab;stop-opacity:0;"
         offset="0.5"
         id="stop4170-5-6-0-6-6-1" />
      <stop
         id="stop4166-91-5-2-4-2-3"
         offset="1"
         style="stop-color:#ababab;stop-opacity:1;" />
    </linearGradient>
    <linearGradient
       id="linearGradient4162-64-7-5-7-3">
      <stop
         id="stop4164-172-9-8-1-7"
         offset="0"
         style="stop-color:#ababab;stop-opacity:1;" />
      <stop
         style="stop-color:#ababab;stop-opacity:0;"
         offset="0.5"
         id="stop4170-13-0-2-8-8" />
      <stop
         id="stop4166-590-2-7-9-7"
         offset="1"
         style="stop-color:#ababab;stop-opacity:1;" />
    </linearGradient>
    <linearGradient
       id="linearGradient4162-9-9-6-5-14-7">
      <stop
         id="stop4164-1-52-1-3-7-9"
         offset="0"
         style="stop-color:#ababab;stop-opacity:1;" />
      <stop
         style="stop-color:#ababab;stop-opacity:0;"
         offset="0.5"
         id="stop4170-2-7-2-0-7-1" />
      <stop
         id="stop4166-9-6-3-3-35-8"
         offset="1"
         style="stop-color:#ababab;stop-opacity:1;" />
    </linearGradient>
    <linearGradient
       id="linearGradient4162-4-2-7-1-4-8">
      <stop
         id="stop4164-3-9-0-2-6-8"
         offset="0"
         style="stop-color:#ababab;stop-opacity:1;" />
      <stop
         style="stop-color:#ababab;stop-opacity:0;"
         offset="0.5"
         id="stop4170-7-4-8-9-2-8" />
      <stop
         id="stop4166-5-1-2-7-7-0"
         offset="1"
         style="stop-color:#ababab;stop-opacity:1;" />
    </linearGradient>
    <linearGradient
       id="linearGradient4162-1-9-3-5-1-7">
      <stop
         id="stop4164-17-2-9-4-3-88"
         offset="0"
         style="stop-color:#ababab;stop-opacity:1;" />
      <stop
         style="stop-color:#ababab;stop-opacity:0;"
         offset="0.5"
         id="stop4170-1-6-2-9-7-7" />
      <stop
         id="stop4166-4-42-9-9-7-68"
         offset="1"
         style="stop-color:#ababab;stop-opacity:1;" />
    </linearGradient>
    <linearGradient
       id="linearGradient4162-19-0-9-2-7-5">
      <stop
         id="stop4164-2-7-7-5-6-73"
         offset="0"
         style="stop-color:#ababab;stop-opacity:1;" />
      <stop
         style="stop-color:#ababab;stop-opacity:0;"
         offset="0.5"
         id="stop4170-26-2-1-2-8-8" />
      <stop
         id="stop4166-24-1-0-5-9-7"
         offset="1"
         style="stop-color:#ababab;stop-opacity:1;" />
    </linearGradient>
    <linearGradient
       id="linearGradient4162-49-67-2-8-2-6">
      <stop
         id="stop4164-98-32-9-0-8-5"
         offset="0"
         style="stop-color:#ababab;stop-opacity:1;" />
      <stop
         style="stop-color:#ababab;stop-opacity:0;"
         offset="0.5"
         id="stop4170-23-11-1-7-9-5" />
      <stop
         id="stop4166-0-5-0-5-6-7"
         offset="1"
         style="stop-color:#ababab;stop-opacity:1;" />
    </linearGradient>
    <linearGradient
       id="linearGradient4162-94-2-6-6-2-1">
      <stop
         id="stop4164-14-87-5-3-7-9"
         offset="0"
         style="stop-color:#ababab;stop-opacity:1;" />
      <stop
         style="stop-color:#ababab;stop-opacity:0;"
         offset="0.5"
         id="stop4170-63-8-1-9-5-0" />
      <stop
         id="stop4166-40-3-4-6-18-6"
         offset="1"
         style="stop-color:#ababab;stop-opacity:1;" />
    </linearGradient>
    <linearGradient
       id="linearGradient4162-09-5-8-5-6-2">
      <stop
         id="stop4164-15-4-7-8-4-9"
         offset="0"
         style="stop-color:#ababab;stop-opacity:1;" />
      <stop
         style="stop-color:#ababab;stop-opacity:0;"
         offset="0.5"
         id="stop4170-0-70-4-6-5-4" />
      <stop
         id="stop4166-1-48-3-6-4-58"
         offset="1"
         style="stop-color:#ababab;stop-opacity:1;" />
    </linearGradient>
    <linearGradient
       id="linearGradient4162-3-80-6-6-7-9">
      <stop
         id="stop4164-6-4-2-3-7-1"
         offset="0"
         style="stop-color:#ababab;stop-opacity:1;" />
      <stop
         style="stop-color:#ababab;stop-opacity:0;"
         offset="0.5"
         id="stop4170-74-4-4-6-8-02" />
      <stop
         id="stop4166-3-0-9-9-3-8"
         offset="1"
         style="stop-color:#ababab;stop-opacity:1;" />
    </linearGradient>
    <linearGradient
       id="linearGradient4162-5-1-5-4-4-5">
      <stop
         id="stop4164-5-36-7-7-9-7"
         offset="0"
         style="stop-color:#ababab;stop-opacity:1;" />
      <stop
         style="stop-color:#ababab;stop-opacity:0;"
         offset="0.5"
         id="stop4170-5-6-0-6-6-4" />
      <stop
         id="stop4166-91-5-2-4-2-8"
         offset="1"
         style="stop-color:#ababab;stop-opacity:1;" />
    </linearGradient>
    <linearGradient
       inkscape:collect="always"
       xlink:href="#linearGradient6299"
       id="linearGradient6305"
       x1="13.602793"
       y1="1031.3342"
       x2="26.935738"
       y2="1051.4388"
       gradientUnits="userSpaceOnUse"
       gradientTransform="translate(0,-1016.3622)" />
    <radialGradient
       inkscape:collect="always"
       xlink:href="#linearGradient6390"
       id="radialGradient6396"
       cx="7.9473156"
       cy="3.3742623"
       fx="7.9473156"
       fy="3.3742623"
       r="1.3935489"
       gradientTransform="matrix(1,0,0,1.9290017,0,-3.1346955)"
       gradientUnits="userSpaceOnUse" />
    <radialGradient
       inkscape:collect="always"
       xlink:href="#linearGradient6390-3"
       id="radialGradient6396-5"
       cx="7.9473157"
       cy="3.3742623"
       fx="7.9473157"
       fy="3.3742623"
       r="1.3935488"
       gradientTransform="matrix(1,0,0,1.9290017,0,-3.1346955)"
       gradientUnits="userSpaceOnUse" />
    <linearGradient
       id="linearGradient6390-3">
      <stop
         style="stop-color:#808080;stop-opacity:1;"
         offset="0"
         id="stop6392-0" />
      <stop
         id="stop6398-1"
         offset="0.5"
         style="stop-color:#ffffff;stop-opacity:1;" />
      <stop
         style="stop-color:#808080;stop-opacity:1;"
         offset="1"
         id="stop6394-0" />
    </linearGradient>
    <radialGradient
       inkscape:collect="always"
       xlink:href="#linearGradient6390-5"
       id="radialGradient6396-7"
       cx="7.9473157"
       cy="3.3742623"
       fx="7.9473157"
       fy="3.3742623"
       r="1.3935488"
       gradientTransform="matrix(1,0,0,1.9290017,0,-3.1346955)"
       gradientUnits="userSpaceOnUse" />
    <linearGradient
       id="linearGradient6390-5">
      <stop
         style="stop-color:#808080;stop-opacity:1;"
         offset="0"
         id="stop6392-4" />
      <stop
         id="stop6398-9"
         offset="0.5"
         style="stop-color:#ffffff;stop-opacity:1;" />
      <stop
         style="stop-color:#808080;stop-opacity:1;"
         offset="1"
         id="stop6394-5" />
    </linearGradient>
    <radialGradient
       inkscape:collect="always"
       xlink:href="#linearGradient6390-0"
       id="radialGradient6396-1"
       cx="7.9473157"
       cy="3.3742623"
       fx="7.9473157"
       fy="3.3742623"
       r="1.3935488"
       gradientTransform="matrix(1,0,0,1.9290017,0,-3.1346955)"
       gradientUnits="userSpaceOnUse" />
    <linearGradient
       id="linearGradient6390-0">
      <stop
         style="stop-color:#808080;stop-opacity:1;"
         offset="0"
         id="stop6392-3" />
      <stop
         id="stop6398-0"
         offset="0.5"
         style="stop-color:#ffffff;stop-opacity:1;" />
      <stop
         style="stop-color:#808080;stop-opacity:1;"
         offset="1"
         id="stop6394-7" />
    </linearGradient>
    <radialGradient
       inkscape:collect="always"
       xlink:href="#linearGradient6390-4"
       id="radialGradient6396-11"
       cx="7.9473157"
       cy="3.3742623"
       fx="7.9473157"
       fy="3.3742623"
       r="1.3935488"
       gradientTransform="matrix(1,0,0,1.9290017,0,-3.1346955)"
       gradientUnits="userSpaceOnUse" />
    <linearGradient
       id="linearGradient6390-4">
      <stop
         style="stop-color:#808080;stop-opacity:1;"
         offset="0"
         id="stop6392-5" />
      <stop
         id="stop6398-2"
         offset="0.5"
         style="stop-color:#ffffff;stop-opacity:1;" />
      <stop
         style="stop-color:#808080;stop-opacity:1;"
         offset="1"
         id="stop6394-59" />
    </linearGradient>
    <radialGradient
       inkscape:collect="always"
       xlink:href="#linearGradient6390-1"
       id="radialGradient6396-9"
       cx="7.9473157"
       cy="3.3742623"
       fx="7.9473157"
       fy="3.3742623"
       r="1.3935488"
       gradientTransform="matrix(1,0,0,1.9290017,0,-3.1346955)"
       gradientUnits="userSpaceOnUse" />
    <linearGradient
       id="linearGradient6390-1">
      <stop
         style="stop-color:#808080;stop-opacity:1;"
         offset="0"
         id="stop6392-2" />
      <stop
         id="stop6398-8"
         offset="0.5"
         style="stop-color:#ffffff;stop-opacity:1;" />
      <stop
         style="stop-color:#808080;stop-opacity:1;"
         offset="1"
         id="stop6394-2" />
    </linearGradient>
    <radialGradient
       inkscape:collect="always"
       xlink:href="#linearGradient6390-8"
       id="radialGradient6396-8"
       cx="7.9473157"
       cy="3.3742623"
       fx="7.9473157"
       fy="3.3742623"
       r="1.3935488"
       gradientTransform="matrix(1,0,0,1.9290017,0,-3.1346955)"
       gradientUnits="userSpaceOnUse" />
    <linearGradient
       id="linearGradient6390-8">
      <stop
         style="stop-color:#808080;stop-opacity:1;"
         offset="0"
         id="stop6392-57" />
      <stop
         id="stop6398-91"
         offset="0.5"
         style="stop-color:#ffffff;stop-opacity:1;" />
      <stop
         style="stop-color:#808080;stop-opacity:1;"
         offset="1"
         id="stop6394-8" />
    </linearGradient>
    <radialGradient
       inkscape:collect="always"
       xlink:href="#linearGradient6390-56"
       id="radialGradient6396-17"
       cx="7.9473157"
       cy="3.3742623"
       fx="7.9473157"
       fy="3.3742623"
       r="1.3935488"
       gradientTransform="matrix(1,0,0,1.9290017,0,-3.1346955)"
       gradientUnits="userSpaceOnUse" />
    <linearGradient
       id="linearGradient6390-56">
      <stop
         style="stop-color:#808080;stop-opacity:1;"
         offset="0"
         id="stop6392-7" />
      <stop
         id="stop6398-4"
         offset="0.5"
         style="stop-color:#ffffff;stop-opacity:1;" />
      <stop
         style="stop-color:#808080;stop-opacity:1;"
         offset="1"
         id="stop6394-77" />
    </linearGradient>
    <radialGradient
       inkscape:collect="always"
       xlink:href="#linearGradient6390"
       id="radialGradient6571"
       gradientUnits="userSpaceOnUse"
       gradientTransform="matrix(1,0,0,1.9290017,0,-3.1346955)"
       cx="7.9473156"
       cy="3.3742623"
       fx="7.9473156"
       fy="3.3742623"
       r="1.3935489" />
    <radialGradient
       inkscape:collect="always"
       xlink:href="#linearGradient6390"
       id="radialGradient6599"
       gradientUnits="userSpaceOnUse"
       gradientTransform="matrix(1,0,0,1.9290017,0,-3.1346955)"
       cx="7.9473156"
       cy="3.3742623"
       fx="7.9473156"
       fy="3.3742623"
       r="1.3935489" />
    <radialGradient
       inkscape:collect="always"
       xlink:href="#linearGradient6390-3"
       id="radialGradient6601"
       gradientUnits="userSpaceOnUse"
       gradientTransform="matrix(1,0,0,1.9290017,0,-3.1346955)"
       cx="7.9473157"
       cy="3.3742623"
       fx="7.9473157"
       fy="3.3742623"
       r="1.3935488" />
    <radialGradient
       inkscape:collect="always"
       xlink:href="#linearGradient6390-5"
       id="radialGradient6603"
       gradientUnits="userSpaceOnUse"
       gradientTransform="matrix(1,0,0,1.9290017,0,-3.1346955)"
       cx="7.9473157"
       cy="3.3742623"
       fx="7.9473157"
       fy="3.3742623"
       r="1.3935488" />
    <radialGradient
       inkscape:collect="always"
       xlink:href="#linearGradient6390-0"
       id="radialGradient6605"
       gradientUnits="userSpaceOnUse"
       gradientTransform="matrix(1,0,0,1.9290017,0,-3.1346955)"
       cx="7.9473157"
       cy="3.3742623"
       fx="7.9473157"
       fy="3.3742623"
       r="1.3935488" />
    <radialGradient
       inkscape:collect="always"
       xlink:href="#linearGradient6390-4"
       id="radialGradient6607"
       gradientUnits="userSpaceOnUse"
       gradientTransform="matrix(1,0,0,1.9290017,0,-3.1346955)"
       cx="7.9473157"
       cy="3.3742623"
       fx="7.9473157"
       fy="3.3742623"
       r="1.3935488" />
    <radialGradient
       inkscape:collect="always"
       xlink:href="#linearGradient6390-1"
       id="radialGradient6609"
       gradientUnits="userSpaceOnUse"
       gradientTransform="matrix(1,0,0,1.9290017,0,-3.1346955)"
       cx="7.9473157"
       cy="3.3742623"
       fx="7.9473157"
       fy="3.3742623"
       r="1.3935488" />
    <radialGradient
       inkscape:collect="always"
       xlink:href="#linearGradient6390-8"
       id="radialGradient6611"
       gradientUnits="userSpaceOnUse"
       gradientTransform="matrix(1,0,0,1.9290017,0,-3.1346955)"
       cx="7.9473157"
       cy="3.3742623"
       fx="7.9473157"
       fy="3.3742623"
       r="1.3935488" />
    <radialGradient
       inkscape:collect="always"
       xlink:href="#linearGradient6390-56"
       id="radialGradient6613"
       gradientUnits="userSpaceOnUse"
       gradientTransform="matrix(1,0,0,1.9290017,0,-3.1346955)"
       cx="7.9473157"
       cy="3.3742623"
       fx="7.9473157"
       fy="3.3742623"
       r="1.3935488" />
    <linearGradient
       inkscape:collect="always"
       xlink:href="#linearGradient6299"
       id="linearGradient6615"
       gradientUnits="userSpaceOnUse"
       gradientTransform="translate(0,-1016.3622)"
       x1="18.695129"
       y1="1045.0552"
       x2="6.424932"
       y2="1020.0361" />
    <linearGradient
       inkscape:collect="always"
       xlink:href="#linearGradient6299"
       id="linearGradient6650"
       gradientUnits="userSpaceOnUse"
       gradientTransform="translate(0,-1016.3622)"
       x1="18.695129"
       y1="1045.0552"
       x2="6.424932"
       y2="1020.0361" />
    <radialGradient
       inkscape:collect="always"
       xlink:href="#linearGradient6390"
       id="radialGradient6652"
       gradientUnits="userSpaceOnUse"
       gradientTransform="matrix(1,0,0,1.9290017,0,-3.1346955)"
       cx="7.9473156"
       cy="3.3742623"
       fx="7.9473156"
       fy="3.3742623"
       r="1.3935489" />
    <radialGradient
       inkscape:collect="always"
       xlink:href="#linearGradient6390-3"
       id="radialGradient6654"
       gradientUnits="userSpaceOnUse"
       gradientTransform="matrix(1,0,0,1.9290017,0,-3.1346955)"
       cx="7.9473157"
       cy="3.3742623"
       fx="7.9473157"
       fy="3.3742623"
       r="1.3935488" />
    <radialGradient
       inkscape:collect="always"
       xlink:href="#linearGradient6390-5"
       id="radialGradient6656"
       gradientUnits="userSpaceOnUse"
       gradientTransform="matrix(1,0,0,1.9290017,0,-3.1346955)"
       cx="7.9473157"
       cy="3.3742623"
       fx="7.9473157"
       fy="3.3742623"
       r="1.3935488" />
    <radialGradient
       inkscape:collect="always"
       xlink:href="#linearGradient6390-0"
       id="radialGradient6658"
       gradientUnits="userSpaceOnUse"
       gradientTransform="matrix(1,0,0,1.9290017,0,-3.1346955)"
       cx="7.9473157"
       cy="3.3742623"
       fx="7.9473157"
       fy="3.3742623"
       r="1.3935488" />
    <radialGradient
       inkscape:collect="always"
       xlink:href="#linearGradient6390-4"
       id="radialGradient6660"
       gradientUnits="userSpaceOnUse"
       gradientTransform="matrix(1,0,0,1.9290017,0,-3.1346955)"
       cx="7.9473157"
       cy="3.3742623"
       fx="7.9473157"
       fy="3.3742623"
       r="1.3935488" />
    <radialGradient
       inkscape:collect="always"
       xlink:href="#linearGradient6390-1"
       id="radialGradient6662"
       gradientUnits="userSpaceOnUse"
       gradientTransform="matrix(1,0,0,1.9290017,0,-3.1346955)"
       cx="7.9473157"
       cy="3.3742623"
       fx="7.9473157"
       fy="3.3742623"
       r="1.3935488" />
    <radialGradient
       inkscape:collect="always"
       xlink:href="#linearGradient6390-8"
       id="radialGradient6664"
       gradientUnits="userSpaceOnUse"
       gradientTransform="matrix(1,0,0,1.9290017,0,-3.1346955)"
       cx="7.9473157"
       cy="3.3742623"
       fx="7.9473157"
       fy="3.3742623"
       r="1.3935488" />
    <radialGradient
       inkscape:collect="always"
       xlink:href="#linearGradient6390-56"
       id="radialGradient6666"
       gradientUnits="userSpaceOnUse"
       gradientTransform="matrix(1,0,0,1.9290017,0,-3.1346955)"
       cx="7.9473157"
       cy="3.3742623"
       fx="7.9473157"
       fy="3.3742623"
       r="1.3935488" />
    <linearGradient
       inkscape:collect="always"
       xlink:href="#linearGradient4169"
       id="linearGradient4175"
       x1="23.771692"
       y1="1031.3661"
       x2="33.353649"
       y2="1022.4122"
       gradientUnits="userSpaceOnUse" />
    <filter
       id="filter4231"
       inkscape:label="Glow"
       inkscape:menu="Shadows and Glows"
       inkscape:menu-tooltip="Glow of object's own color at the edges"
       color-interpolation-filters="sRGB">
      <feGaussianBlur
         id="feGaussianBlur4233"
         stdDeviation="5"
         result="result91" />
      <feComposite
         id="feComposite4235"
         in2="result91"
         in="SourceGraphic"
         operator="over" />
    </filter>
    <linearGradient
       inkscape:collect="always"
       xlink:href="#linearGradient4247"
       id="linearGradient4245"
       x1="3.4761102"
       y1="1056.6825"
       x2="39.145603"
       y2="1016.4429"
       gradientUnits="userSpaceOnUse" />
    <linearGradient
       inkscape:collect="always"
       xlink:href="#linearGradient4247"
       id="linearGradient4260"
       gradientUnits="userSpaceOnUse"
       x1="3.4761105"
       y1="1055.5103"
       x2="39.145603"
       y2="1016.4429" />
    <linearGradient
       inkscape:collect="always"
       xlink:href="#linearGradient4169"
       id="linearGradient4262"
       gradientUnits="userSpaceOnUse"
       x1="23.771692"
       y1="1031.3661"
       x2="33.353649"
       y2="1022.4122" />
    <linearGradient
       inkscape:collect="always"
       xlink:href="#linearGradient4247-0"
       id="linearGradient4260-7"
       gradientUnits="userSpaceOnUse"
       x1="3.4761105"
       y1="1055.5103"
       x2="39.145603"
       y2="1016.4429" />
    <linearGradient
       id="linearGradient4247-0">
      <stop
         id="stop4249-1"
         offset="0"
         style="stop-color:#dcdcdc;stop-opacity:1;" />
      <stop
         style="stop-color:#ffffff;stop-opacity:1;"
         offset="0.47237009"
         id="stop4251-4" />
      <stop
         id="stop4253-1"
         offset="1"
         style="stop-color:#dcdcdc;stop-opacity:1;" />
    </linearGradient>
    <filter
       id="filter4231-2"
       inkscape:label="Glow"
       inkscape:menu="Shadows and Glows"
       inkscape:menu-tooltip="Glow of object's own color at the edges"
       color-interpolation-filters="sRGB">
      <feGaussianBlur
         id="feGaussianBlur4233-3"
         stdDeviation="5"
         result="result91" />
      <feComposite
         id="feComposite4235-5"
         in2="result91"
         in="SourceGraphic"
         operator="over" />
    </filter>
    <linearGradient
       inkscape:collect="always"
       xlink:href="#linearGradient4169-5"
       id="linearGradient4262-7"
       gradientUnits="userSpaceOnUse"
       x1="23.771692"
       y1="1031.3661"
       x2="33.353649"
       y2="1022.4122" />
    <linearGradient
       id="linearGradient4169-5">
      <stop
         style="stop-color:#dcdcdc;stop-opacity:1;"
         offset="0"
         id="stop4171-5" />
      <stop
         id="stop4177-7"
         offset="0.62886822"
         style="stop-color:#ffffff;stop-opacity:1;" />
      <stop
         style="stop-color:#dcdcdc;stop-opacity:1;"
         offset="1"
         id="stop4173-8" />
    </linearGradient>
    <linearGradient
       y2="1022.4122"
       x2="33.353649"
       y1="1031.3661"
       x1="23.771692"
       gradientUnits="userSpaceOnUse"
       id="linearGradient4291"
       xlink:href="#linearGradient4169-5"
       inkscape:collect="always" />
    <linearGradient
       inkscape:collect="always"
       xlink:href="#linearGradient4169-5"
       id="linearGradient4335"
       gradientUnits="userSpaceOnUse"
       x1="23.771692"
       y1="1031.3661"
       x2="33.353649"
       y2="1022.4122"
       gradientTransform="translate(-3.5166297,1.1722357)" />
    <linearGradient
       inkscape:collect="always"
       xlink:href="#linearGradient4247-0"
       id="linearGradient4339"
       gradientUnits="userSpaceOnUse"
       x1="3.4761105"
       y1="1055.5103"
       x2="39.145603"
       y2="1016.4429"
       gradientTransform="translate(-3.5166297,1.1722357)" />
    <linearGradient
       inkscape:collect="always"
       xlink:href="#linearGradient4169"
       id="linearGradient3276"
       gradientUnits="userSpaceOnUse"
       x1="25.592285"
       y1="1030.6659"
       x2="33.353649"
       y2="1022.4122"
       gradientTransform="matrix(0.83721231,0,0,0.83721231,4.1032513,165.67847)" />
    <linearGradient
       inkscape:collect="always"
       xlink:href="#linearGradient4247"
       id="linearGradient3280"
       gradientUnits="userSpaceOnUse"
       x1="3.4761105"
       y1="1055.5103"
       x2="39.145603"
       y2="1016.4429"
       gradientTransform="translate(-2.2845428,0.24875605)" />
    <linearGradient
       id="linearGradient4247-5">
      <stop
         id="stop4249-0"
         offset="0"
         style="stop-color:#dcdcdc;stop-opacity:1;" />
      <stop
         style="stop-color:#ffffff;stop-opacity:1;"
         offset="0.47237009"
         id="stop4251-6" />
      <stop
         id="stop4253-2"
         offset="1"
         style="stop-color:#dcdcdc;stop-opacity:1;" />
    </linearGradient>
    <linearGradient
       inkscape:collect="always"
       xlink:href="#linearGradient4169-2"
       id="linearGradient3276-1"
       gradientUnits="userSpaceOnUse"
       x1="25.592285"
       y1="1030.6659"
       x2="33.353649"
       y2="1022.4122"
       gradientTransform="matrix(0.83721231,0,0,0.83721231,4.1032513,165.67847)" />
    <linearGradient
       id="linearGradient4169-2">
      <stop
         style="stop-color:#dcdcdc;stop-opacity:1;"
         offset="0"
         id="stop4171-59" />
      <stop
         id="stop4177-5"
         offset="0.62886822"
         style="stop-color:#ffffff;stop-opacity:1;" />
      <stop
         style="stop-color:#dcdcdc;stop-opacity:1;"
         offset="1"
         id="stop4173-5" />
    </linearGradient>
    <linearGradient
       inkscape:collect="always"
       xlink:href="#linearGradient4247"
       id="linearGradient4118"
       gradientUnits="userSpaceOnUse"
       gradientTransform="translate(-2.2845428,0.24875605)"
       x1="3.4761105"
       y1="1055.5103"
       x2="39.145603"
       y2="1016.4429" />
    <linearGradient
       inkscape:collect="always"
       xlink:href="#linearGradient4169"
       id="linearGradient4120"
       gradientUnits="userSpaceOnUse"
       gradientTransform="matrix(0.83721231,0,0,0.83721231,4.1032513,165.67847)"
       x1="25.592285"
       y1="1030.6659"
       x2="33.353649"
       y2="1022.4122" />
    <radialGradient
       inkscape:collect="always"
       xlink:href="#linearGradient4328"
       id="radialGradient4334"
       cx="64.340787"
       cy="1040.4597"
       fx="64.340787"
       fy="1040.4597"
       r="17.421916"
       gradientTransform="translate(-46.810746,-6.6005166)"
       gradientUnits="userSpaceOnUse" />
    <linearGradient
       id="linearGradient4328-9">
      <stop
         style="stop-color:#ff0000;stop-opacity:1;"
         offset="0"
         id="stop4330-5" />
      <stop
         id="stop4336-9"
         offset="0.68371868"
         style="stop-color:#ff7f7f;stop-opacity:1;" />
      <stop
         style="stop-color:#ff0000;stop-opacity:1;"
         offset="1"
         id="stop4332-5" />
    </linearGradient>
  </defs>
  <sodipodi:namedview
     id="base"
     pagecolor="#ffffff"
     bordercolor="#666666"
     borderopacity="1.0"
     inkscape:pageopacity="0.0"
     inkscape:pageshadow="2"
     inkscape:zoom="2.4994261"
     inkscape:cx="50.750271"
     inkscape:cy="27.096431"
     inkscape:document-units="px"
     inkscape:current-layer="layer1"
     showgrid="false"
     inkscape:window-width="1301"
     inkscape:window-height="744"
     inkscape:window-x="65"
     inkscape:window-y="24"
     inkscape:window-maximized="1"
     showguides="true"
     inkscape:guide-bbox="true">
    <inkscape:grid
       type="xygrid"
       id="grid2985"
       empspacing="5"
       visible="true"
       enabled="true"
       snapvisiblegridlinesonly="true" />
  </sodipodi:namedview>
  <metadata
     id="metadata7">
    <rdf:RDF>
      <cc:Work
         rdf:about="">
        <dc:format>image/svg+xml</dc:format>
        <dc:type
           rdf:resource="http://purl.org/dc/dcmitype/StillImage" />
        <dc:title></dc:title>
      </cc:Work>
    </rdf:RDF>
  </metadata>
  <g
     inkscape:label="Layer 1"
     inkscape:groupmode="layer"
     id="layer1"
     transform="translate(0,-1016.3622)">
    <text
       xml:space="preserve"
       style="font-size:40px;font-style:normal;font-weight:normal;line-height:125%;letter-spacing:0px;word-spacing:0px;fill:#000000;fill-opacity:1;stroke:none;font-family:Sans"
       x="0.65125102"
       y="1041.2595"
       id="text3770-0-37"
       sodipodi:linespacing="125%"><tspan
         sodipodi:role="line"
         id="tspan3772-8-2"
         x="0.65125102"
         y="1041.2595"
         style="font-size:6px;font-weight:bold;fill:#000000;-inkscape-font-specification:Sans Bold" /></text>
    <text
       xml:space="preserve"
       style="font-size:40px;font-style:normal;font-weight:normal;line-height:125%;letter-spacing:0px;word-spacing:0px;fill:#000000;fill-opacity:1;stroke:none;font-family:Sans"
       x="0.25567266"
       y="1040.9467"
       id="text3770-09"
       sodipodi:linespacing="125%"><tspan
         sodipodi:role="line"
         id="tspan3772-3"
         x="0.25567266"
         y="1040.9467"
         style="font-size:6px;font-weight:bold;-inkscape-font-specification:Sans Bold" /></text>
    <path
       inkscape:connector-curvature="0"
       id="path3309-3"
       d="m 18.919965,1018.5365 c -9.3511288,0 -16.9374999,7.5934 -16.9374999,16.9376 0,9.3442 7.5863711,16.9063 16.9374999,16.9063 9.351129,0 16.90625,-7.5621 16.90625,-16.9063 0,-9.3442 -7.555121,-16.9376 -16.90625,-16.9376 z m 0,7.3751 c 5.28689,0 9.5625,4.2796 9.5625,9.5625 0,5.2829 -4.27561,9.5625 -9.5625,9.5625 -5.28689,0 -9.5937499,-4.2796 -9.5937499,-9.5625 0,-5.2829 4.3068599,-9.5625 9.5937499,-9.5625 z"
       style="fill:#b3b3b3;fill-opacity:0.69863018;stroke:none" />
    <path
       inkscape:connector-curvature="0"
       id="path3309"
       d="m 17.545666,1016.9363 c -9.3511293,0 -16.93750005,7.5934 -16.93750005,16.9376 0,9.3442 7.58637075,16.9063 16.93750005,16.9063 9.351129,0 16.90625,-7.5621 16.90625,-16.9063 0,-9.3442 -7.555121,-16.9376 -16.90625,-16.9376 z m 0,7.3751 c 5.28689,0 9.5625,4.2796 9.5625,9.5625 0,5.2829 -4.27561,9.5625 -9.5625,9.5625 -5.28689,0 -9.59375,-4.2796 -9.59375,-9.5625 0,-5.2829 4.30686,-9.5625 9.59375,-9.5625 z"
       style="fill:#ffffff;stroke:#000000;stroke-width:1;stroke-linecap:round;stroke-linejoin:round;stroke-miterlimit:4;stroke-dasharray:none" />
    <path
       inkscape:connector-curvature="0"
       id="path3309-4-1"
       d="m 17.514457,1016.9364 0,7.3751 c 0.0106,0 0.0206,0 0.0312,0 2.67566,0 5.07802,1.1075 6.8125,2.875 l 5.15625,-5.2812 c -3.05767,-3.0664 -7.29319,-4.9688 -11.96875,-4.9688 -0.0106,0 -0.0206,0 -0.0312,0 z m -12.0937543,5.0939 c -2.974939,3.0532 -4.81250005,7.2504 -4.81250005,11.8437 0,0.032 -1.75e-4,0.062 0,0.094 l 7.34375005,0 c -3.12e-4,-0.032 0,-0.062 0,-0.094 0,-2.5944 1.035394,-4.965 2.7187543,-6.6875 l -5.2500043,-5.1562 z m 21.6875043,11.9375 c -0.0249,2.5556 -1.06467,4.861 -2.71875,6.5625 l 5.25,5.1563 c 2.95579,-3.0263 4.78742,-7.1553 4.8125,-11.7188 l -7.34375,0 z m -16.125,6.8437 -5.1562543,5.2501 c 3.04476,2.9209 7.1634043,4.7185 11.7187543,4.7185 l 0,-7.3435 c -2.54103,0 -4.84362,-1.0116 -6.5625,-2.6251 z"
       style="fill:url(#radialGradient4334);fill-opacity:1;stroke:#000000;stroke-width:1;stroke-linecap:round;stroke-linejoin:round;stroke-miterlimit:4;stroke-dasharray:none" />
  </g>
</svg>
