<?xml version="1.0" encoding="UTF-8" standalone="no"?>
<!-- Created with Inkscape (http://www.inkscape.org/) -->

<svg
   xmlns:dc="http://purl.org/dc/elements/1.1/"
   xmlns:cc="http://creativecommons.org/ns#"
   xmlns:rdf="http://www.w3.org/1999/02/22-rdf-syntax-ns#"
   xmlns:svg="http://www.w3.org/2000/svg"
   xmlns="http://www.w3.org/2000/svg"
   xmlns:sodipodi="http://sodipodi.sourceforge.net/DTD/sodipodi-0.dtd"
   xmlns:inkscape="http://www.inkscape.org/namespaces/inkscape"
   width="744.09448819"
   height="1052.3622047"
   id="svg2"
   version="1.1"
   inkscape:version="0.47 r22583"
   sodipodi:docname="CFG_colour.svg">
  <defs
     id="defs4">
    <inkscape:perspective
       sodipodi:type="inkscape:persp3d"
       inkscape:vp_x="0 : 526.18109 : 1"
       inkscape:vp_y="0 : 1000 : 0"
       inkscape:vp_z="744.09448 : 526.18109 : 1"
       inkscape:persp3d-origin="372.04724 : 350.78739 : 1"
       id="perspective10" />
    <inkscape:perspective
       id="perspective2828"
       inkscape:persp3d-origin="0.5 : 0.33333333 : 1"
       inkscape:vp_z="1 : 0.5 : 1"
       inkscape:vp_y="0 : 1000 : 0"
       inkscape:vp_x="0 : 0.5 : 1"
       sodipodi:type="inkscape:persp3d" />
    <inkscape:perspective
       id="perspective2850"
       inkscape:persp3d-origin="0.5 : 0.33333333 : 1"
       inkscape:vp_z="1 : 0.5 : 1"
       inkscape:vp_y="0 : 1000 : 0"
       inkscape:vp_x="0 : 0.5 : 1"
       sodipodi:type="inkscape:persp3d" />
    <inkscape:perspective
       id="perspective2872"
       inkscape:persp3d-origin="0.5 : 0.33333333 : 1"
       inkscape:vp_z="1 : 0.5 : 1"
       inkscape:vp_y="0 : 1000 : 0"
       inkscape:vp_x="0 : 0.5 : 1"
       sodipodi:type="inkscape:persp3d" />
    <inkscape:perspective
       id="perspective2894"
       inkscape:persp3d-origin="0.5 : 0.33333333 : 1"
       inkscape:vp_z="1 : 0.5 : 1"
       inkscape:vp_y="0 : 1000 : 0"
       inkscape:vp_x="0 : 0.5 : 1"
       sodipodi:type="inkscape:persp3d" />
    <inkscape:perspective
       id="perspective2916"
       inkscape:persp3d-origin="0.5 : 0.33333333 : 1"
       inkscape:vp_z="1 : 0.5 : 1"
       inkscape:vp_y="0 : 1000 : 0"
       inkscape:vp_x="0 : 0.5 : 1"
       sodipodi:type="inkscape:persp3d" />
    <inkscape:perspective
       id="perspective2938"
       inkscape:persp3d-origin="0.5 : 0.33333333 : 1"
       inkscape:vp_z="1 : 0.5 : 1"
       inkscape:vp_y="0 : 1000 : 0"
       inkscape:vp_x="0 : 0.5 : 1"
       sodipodi:type="inkscape:persp3d" />
    <inkscape:perspective
       id="perspective2976"
       inkscape:persp3d-origin="0.5 : 0.33333333 : 1"
       inkscape:vp_z="1 : 0.5 : 1"
       inkscape:vp_y="0 : 1000 : 0"
       inkscape:vp_x="0 : 0.5 : 1"
       sodipodi:type="inkscape:persp3d" />
    <inkscape:perspective
       id="perspective2998"
       inkscape:persp3d-origin="0.5 : 0.33333333 : 1"
       inkscape:vp_z="1 : 0.5 : 1"
       inkscape:vp_y="0 : 1000 : 0"
       inkscape:vp_x="0 : 0.5 : 1"
       sodipodi:type="inkscape:persp3d" />
    <filter
       id="filter3030"
       inkscape:menu-tooltip="In and out glow with a possible offset and colorizable flood"
       inkscape:menu="Shadows and Glows"
       inkscape:label="Cutout Glow"
       color-interpolation-filters="sRGB">
      <feOffset
         id="feOffset3032"
         dy="3"
         dx="3" />
      <feGaussianBlur
         id="feGaussianBlur3034"
         result="result8"
         stdDeviation="3" />
      <feFlood
         id="feFlood3036"
         flood-color="rgb(0,0,0)"
         flood-opacity="1"
         in="result8"
         result="result10" />
      <feComposite
         id="feComposite3038"
         in2="SourceGraphic"
         operator="in"
         in="result10"
         result="result9" />
      <feBlend
         id="feBlend3040"
         in2="result9"
         mode="normal"
         in="result8" />
    </filter>
    <filter
       id="filter3042"
       inkscape:menu-tooltip="In and out glow with a possible offset and colorizable flood"
       inkscape:menu="Shadows and Glows"
       inkscape:label="Cutout Glow"
       color-interpolation-filters="sRGB">
      <feOffset
         id="feOffset3044"
         dy="3"
         dx="3" />
      <feGaussianBlur
         id="feGaussianBlur3046"
         result="result8"
         stdDeviation="3" />
      <feFlood
         id="feFlood3048"
         flood-color="rgb(0,0,0)"
         flood-opacity="1"
         in="result8"
         result="result10" />
      <feComposite
         id="feComposite3050"
         in2="SourceGraphic"
         operator="in"
         in="result10"
         result="result9" />
      <feBlend
         id="feBlend3052"
         in2="result9"
         mode="normal"
         in="result8" />
    </filter>
    <filter
       id="filter3054"
       inkscape:menu-tooltip="In and out glow with a possible offset and colorizable flood"
       inkscape:menu="Shadows and Glows"
       inkscape:label="Cutout Glow"
       color-interpolation-filters="sRGB">
      <feOffset
         id="feOffset3056"
         dy="3"
         dx="3" />
      <feGaussianBlur
         id="feGaussianBlur3058"
         result="result8"
         stdDeviation="3" />
      <feFlood
         id="feFlood3060"
         flood-color="rgb(0,0,0)"
         flood-opacity="1"
         in="result8"
         result="result10" />
      <feComposite
         id="feComposite3062"
         in2="SourceGraphic"
         operator="in"
         in="result10"
         result="result9" />
      <feBlend
         id="feBlend3064"
         in2="result9"
         mode="normal"
         in="result8" />
    </filter>
    <filter
       id="filter3066"
       inkscape:menu-tooltip="In and out glow with a possible offset and colorizable flood"
       inkscape:menu="Shadows and Glows"
       inkscape:label="Cutout Glow"
       color-interpolation-filters="sRGB">
      <feOffset
         id="feOffset3068"
         dy="3"
         dx="3" />
      <feGaussianBlur
         id="feGaussianBlur3070"
         result="result8"
         stdDeviation="3" />
      <feFlood
         id="feFlood3072"
         flood-color="rgb(0,0,0)"
         flood-opacity="1"
         in="result8"
         result="result10" />
      <feComposite
         id="feComposite3074"
         in2="SourceGraphic"
         operator="in"
         in="result10"
         result="result9" />
      <feBlend
         id="feBlend3076"
         in2="result9"
         mode="normal"
         in="result8" />
    </filter>
    <filter
       id="filter3078"
       inkscape:menu-tooltip="In and out glow with a possible offset and colorizable flood"
       inkscape:menu="Shadows and Glows"
       inkscape:label="Cutout Glow"
       color-interpolation-filters="sRGB">
      <feOffset
         id="feOffset3080"
         dy="3"
         dx="3" />
      <feGaussianBlur
         id="feGaussianBlur3082"
         result="result8"
         stdDeviation="3" />
      <feFlood
         id="feFlood3084"
         flood-color="rgb(0,0,0)"
         flood-opacity="1"
         in="result8"
         result="result10" />
      <feComposite
         id="feComposite3086"
         in2="SourceGraphic"
         operator="in"
         in="result10"
         result="result9" />
      <feBlend
         id="feBlend3088"
         in2="result9"
         mode="normal"
         in="result8" />
    </filter>
    <filter
       id="filter3090"
       inkscape:menu-tooltip="In and out glow with a possible offset and colorizable flood"
       inkscape:menu="Shadows and Glows"
       inkscape:label="Cutout Glow"
       color-interpolation-filters="sRGB">
      <feOffset
         id="feOffset3092"
         dy="3"
         dx="3" />
      <feGaussianBlur
         id="feGaussianBlur3094"
         result="result8"
         stdDeviation="3" />
      <feFlood
         id="feFlood3096"
         flood-color="rgb(0,0,0)"
         flood-opacity="1"
         in="result8"
         result="result10" />
      <feComposite
         id="feComposite3098"
         in2="SourceGraphic"
         operator="in"
         in="result10"
         result="result9" />
      <feBlend
         id="feBlend3100"
         in2="result9"
         mode="normal"
         in="result8" />
    </filter>
    <filter
       id="filter3102"
       inkscape:menu-tooltip="In and out glow with a possible offset and colorizable flood"
       inkscape:menu="Shadows and Glows"
       inkscape:label="Cutout Glow"
       color-interpolation-filters="sRGB">
      <feOffset
         id="feOffset3104"
         dy="3"
         dx="3" />
      <feGaussianBlur
         id="feGaussianBlur3106"
         result="result8"
         stdDeviation="3" />
      <feFlood
         id="feFlood3108"
         flood-color="rgb(0,0,0)"
         flood-opacity="1"
         in="result8"
         result="result10" />
      <feComposite
         id="feComposite3110"
         in2="SourceGraphic"
         operator="in"
         in="result10"
         result="result9" />
      <feBlend
         id="feBlend3112"
         in2="result9"
         mode="normal"
         in="result8" />
    </filter>
    <filter
       id="filter3886"
       inkscape:menu-tooltip="In and out glow with a possible offset and colorizable flood"
       inkscape:menu="Shadows and Glows"
       inkscape:label="Cutout Glow"
       color-interpolation-filters="sRGB">
      <feOffset
         id="feOffset3888"
         dy="3"
         dx="3" />
      <feGaussianBlur
         id="feGaussianBlur3890"
         result="result8"
         stdDeviation="3" />
      <feFlood
         id="feFlood3892"
         flood-color="rgb(0,0,0)"
         flood-opacity="1"
         in="result8"
         result="result10" />
      <feComposite
         id="feComposite3894"
         in2="SourceGraphic"
         operator="in"
         in="result10"
         result="result9" />
      <feBlend
         id="feBlend3896"
         in2="result9"
         mode="normal"
         in="result8" />
    </filter>
    <inkscape:perspective
       id="perspective3906"
       inkscape:persp3d-origin="0.5 : 0.33333333 : 1"
       inkscape:vp_z="1 : 0.5 : 1"
       inkscape:vp_y="0 : 1000 : 0"
       inkscape:vp_x="0 : 0.5 : 1"
       sodipodi:type="inkscape:persp3d" />
    <filter
       id="filter3102-1"
       inkscape:menu-tooltip="In and out glow with a possible offset and colorizable flood"
       inkscape:menu="Shadows and Glows"
       inkscape:label="Cutout Glow"
       color-interpolation-filters="sRGB">
      <feOffset
         id="feOffset3104-5"
         dy="3"
         dx="3" />
      <feGaussianBlur
         id="feGaussianBlur3106-2"
         result="result8"
         stdDeviation="3" />
      <feFlood
         id="feFlood3108-7"
         flood-color="rgb(0,0,0)"
         flood-opacity="1"
         in="result8"
         result="result10" />
      <feComposite
         id="feComposite3110-6"
         in2="SourceGraphic"
         operator="in"
         in="result10"
         result="result9" />
      <feBlend
         id="feBlend3112-1"
         in2="result9"
         mode="normal"
         in="result8" />
    </filter>
    <filter
       id="filter3090-4"
       inkscape:menu-tooltip="In and out glow with a possible offset and colorizable flood"
       inkscape:menu="Shadows and Glows"
       inkscape:label="Cutout Glow"
       color-interpolation-filters="sRGB">
      <feOffset
         id="feOffset3092-2"
         dy="3"
         dx="3" />
      <feGaussianBlur
         id="feGaussianBlur3094-3"
         result="result8"
         stdDeviation="3" />
      <feFlood
         id="feFlood3096-2"
         flood-color="rgb(0,0,0)"
         flood-opacity="1"
         in="result8"
         result="result10" />
      <feComposite
         id="feComposite3098-2"
         in2="SourceGraphic"
         operator="in"
         in="result10"
         result="result9" />
      <feBlend
         id="feBlend3100-1"
         in2="result9"
         mode="normal"
         in="result8" />
    </filter>
    <filter
       id="filter3078-6"
       inkscape:menu-tooltip="In and out glow with a possible offset and colorizable flood"
       inkscape:menu="Shadows and Glows"
       inkscape:label="Cutout Glow"
       color-interpolation-filters="sRGB">
      <feOffset
         id="feOffset3080-8"
         dy="3"
         dx="3" />
      <feGaussianBlur
         id="feGaussianBlur3082-5"
         result="result8"
         stdDeviation="3" />
      <feFlood
         id="feFlood3084-7"
         flood-color="rgb(0,0,0)"
         flood-opacity="1"
         in="result8"
         result="result10" />
      <feComposite
         id="feComposite3086-6"
         in2="SourceGraphic"
         operator="in"
         in="result10"
         result="result9" />
      <feBlend
         id="feBlend3088-1"
         in2="result9"
         mode="normal"
         in="result8" />
    </filter>
    <filter
       id="filter3066-8"
       inkscape:menu-tooltip="In and out glow with a possible offset and colorizable flood"
       inkscape:menu="Shadows and Glows"
       inkscape:label="Cutout Glow"
       color-interpolation-filters="sRGB">
      <feOffset
         id="feOffset3068-9"
         dy="3"
         dx="3" />
      <feGaussianBlur
         id="feGaussianBlur3070-2"
         result="result8"
         stdDeviation="3" />
      <feFlood
         id="feFlood3072-7"
         flood-color="rgb(0,0,0)"
         flood-opacity="1"
         in="result8"
         result="result10" />
      <feComposite
         id="feComposite3074-9"
         in2="SourceGraphic"
         operator="in"
         in="result10"
         result="result9" />
      <feBlend
         id="feBlend3076-5"
         in2="result9"
         mode="normal"
         in="result8" />
    </filter>
    <filter
       id="filter3054-4"
       inkscape:menu-tooltip="In and out glow with a possible offset and colorizable flood"
       inkscape:menu="Shadows and Glows"
       inkscape:label="Cutout Glow"
       color-interpolation-filters="sRGB">
      <feOffset
         id="feOffset3056-3"
         dy="3"
         dx="3" />
      <feGaussianBlur
         id="feGaussianBlur3058-1"
         result="result8"
         stdDeviation="3" />
      <feFlood
         id="feFlood3060-2"
         flood-color="rgb(0,0,0)"
         flood-opacity="1"
         in="result8"
         result="result10" />
      <feComposite
         id="feComposite3062-3"
         in2="SourceGraphic"
         operator="in"
         in="result10"
         result="result9" />
      <feBlend
         id="feBlend3064-3"
         in2="result9"
         mode="normal"
         in="result8" />
    </filter>
    <filter
       id="filter3042-4"
       inkscape:menu-tooltip="In and out glow with a possible offset and colorizable flood"
       inkscape:menu="Shadows and Glows"
       inkscape:label="Cutout Glow"
       color-interpolation-filters="sRGB">
      <feOffset
         id="feOffset3044-1"
         dy="3"
         dx="3" />
      <feGaussianBlur
         id="feGaussianBlur3046-1"
         result="result8"
         stdDeviation="3" />
      <feFlood
         id="feFlood3048-3"
         flood-color="rgb(0,0,0)"
         flood-opacity="1"
         in="result8"
         result="result10" />
      <feComposite
         id="feComposite3050-8"
         in2="SourceGraphic"
         operator="in"
         in="result10"
         result="result9" />
      <feBlend
         id="feBlend3052-7"
         in2="result9"
         mode="normal"
         in="result8" />
    </filter>
    <filter
       id="filter3030-4"
       inkscape:menu-tooltip="In and out glow with a possible offset and colorizable flood"
       inkscape:menu="Shadows and Glows"
       inkscape:label="Cutout Glow"
       color-interpolation-filters="sRGB">
      <feOffset
         id="feOffset3032-2"
         dy="3"
         dx="3" />
      <feGaussianBlur
         id="feGaussianBlur3034-7"
         result="result8"
         stdDeviation="3" />
      <feFlood
         id="feFlood3036-7"
         flood-color="rgb(0,0,0)"
         flood-opacity="1"
         in="result8"
         result="result10" />
      <feComposite
         id="feComposite3038-9"
         in2="SourceGraphic"
         operator="in"
         in="result10"
         result="result9" />
      <feBlend
         id="feBlend3040-3"
         in2="result9"
         mode="normal"
         in="result8" />
    </filter>
    <filter
       id="filter3886-1"
       inkscape:menu-tooltip="In and out glow with a possible offset and colorizable flood"
       inkscape:menu="Shadows and Glows"
       inkscape:label="Cutout Glow"
       color-interpolation-filters="sRGB">
      <feOffset
         id="feOffset3888-9"
         dy="3"
         dx="3" />
      <feGaussianBlur
         id="feGaussianBlur3890-8"
         result="result8"
         stdDeviation="3" />
      <feFlood
         id="feFlood3892-6"
         flood-color="rgb(0,0,0)"
         flood-opacity="1"
         in="result8"
         result="result10" />
      <feComposite
         id="feComposite3894-5"
         in2="SourceGraphic"
         operator="in"
         in="result10"
         result="result9" />
      <feBlend
         id="feBlend3896-0"
         in2="result9"
         mode="normal"
         in="result8" />
    </filter>
    <inkscape:perspective
       id="perspective4099"
       inkscape:persp3d-origin="0.5 : 0.33333333 : 1"
       inkscape:vp_z="1 : 0.5 : 1"
       inkscape:vp_y="0 : 1000 : 0"
       inkscape:vp_x="0 : 0.5 : 1"
       sodipodi:type="inkscape:persp3d" />
    <inkscape:perspective
       id="perspective4125"
       inkscape:persp3d-origin="0.5 : 0.33333333 : 1"
       inkscape:vp_z="1 : 0.5 : 1"
       inkscape:vp_y="0 : 1000 : 0"
       inkscape:vp_x="0 : 0.5 : 1"
       sodipodi:type="inkscape:persp3d" />
    <filter
       id="filter3042-4-0"
       inkscape:menu-tooltip="In and out glow with a possible offset and colorizable flood"
       inkscape:menu="Shadows and Glows"
       inkscape:label="Cutout Glow"
       color-interpolation-filters="sRGB">
      <feOffset
         id="feOffset3044-1-9"
         dy="3"
         dx="3" />
      <feGaussianBlur
         id="feGaussianBlur3046-1-0"
         result="result8"
         stdDeviation="3" />
      <feFlood
         id="feFlood3048-3-0"
         flood-color="rgb(0,0,0)"
         flood-opacity="1"
         in="result8"
         result="result10" />
      <feComposite
         id="feComposite3050-8-6"
         in2="SourceGraphic"
         operator="in"
         in="result10"
         result="result9" />
      <feBlend
         id="feBlend3052-7-1"
         in2="result9"
         mode="normal"
         in="result8" />
    </filter>
    <inkscape:perspective
       id="perspective4165"
       inkscape:persp3d-origin="0.5 : 0.33333333 : 1"
       inkscape:vp_z="1 : 0.5 : 1"
       inkscape:vp_y="0 : 1000 : 0"
       inkscape:vp_x="0 : 0.5 : 1"
       sodipodi:type="inkscape:persp3d" />
    <filter
       id="filter3066-8-8"
       inkscape:menu-tooltip="In and out glow with a possible offset and colorizable flood"
       inkscape:menu="Shadows and Glows"
       inkscape:label="Cutout Glow"
       color-interpolation-filters="sRGB">
      <feOffset
         id="feOffset3068-9-9"
         dy="3"
         dx="3" />
      <feGaussianBlur
         id="feGaussianBlur3070-2-3"
         result="result8"
         stdDeviation="3" />
      <feFlood
         id="feFlood3072-7-4"
         flood-color="rgb(0,0,0)"
         flood-opacity="1"
         in="result8"
         result="result10" />
      <feComposite
         id="feComposite3074-9-4"
         in2="SourceGraphic"
         operator="in"
         in="result10"
         result="result9" />
      <feBlend
         id="feBlend3076-5-6"
         in2="result9"
         mode="normal"
         in="result8" />
    </filter>
    <inkscape:perspective
       id="perspective4165-6"
       inkscape:persp3d-origin="0.5 : 0.33333333 : 1"
       inkscape:vp_z="1 : 0.5 : 1"
       inkscape:vp_y="0 : 1000 : 0"
       inkscape:vp_x="0 : 0.5 : 1"
       sodipodi:type="inkscape:persp3d" />
    <filter
       id="filter3066-8-6"
       inkscape:menu-tooltip="In and out glow with a possible offset and colorizable flood"
       inkscape:menu="Shadows and Glows"
       inkscape:label="Cutout Glow"
       color-interpolation-filters="sRGB">
      <feOffset
         id="feOffset3068-9-1"
         dy="3"
         dx="3" />
      <feGaussianBlur
         id="feGaussianBlur3070-2-8"
         result="result8"
         stdDeviation="3" />
      <feFlood
         id="feFlood3072-7-49"
         flood-color="rgb(0,0,0)"
         flood-opacity="1"
         in="result8"
         result="result10" />
      <feComposite
         id="feComposite3074-9-6"
         in2="SourceGraphic"
         operator="in"
         in="result10"
         result="result9" />
      <feBlend
         id="feBlend3076-5-3"
         in2="result9"
         mode="normal"
         in="result8" />
    </filter>
    <filter
       id="filter4218"
       inkscape:menu-tooltip="In and out glow with a possible offset and colorizable flood"
       inkscape:menu="Shadows and Glows"
       inkscape:label="Cutout Glow"
       color-interpolation-filters="sRGB">
      <feOffset
         id="feOffset4220"
         dy="3"
         dx="3" />
      <feGaussianBlur
         id="feGaussianBlur4222"
         result="result8"
         stdDeviation="3" />
      <feFlood
         id="feFlood4224"
         flood-color="rgb(0,0,0)"
         flood-opacity="1"
         in="result8"
         result="result10" />
      <feComposite
         id="feComposite4226"
         in2="SourceGraphic"
         operator="in"
         in="result10"
         result="result9" />
      <feBlend
         id="feBlend4228"
         in2="result9"
         mode="normal"
         in="result8"
         result="fbSourceGraphic" />
      <feColorMatrix
         result="fbSourceGraphicAlpha"
         in="fbSourceGraphic"
         values="0 0 0 -1 0 0 0 0 -1 0 0 0 0 -1 0 0 0 0 1 0"
         id="feColorMatrix4230" />
      <feOffset
         id="feOffset4232"
         dy="3"
         dx="3"
         in="fbSourceGraphic" />
      <feGaussianBlur
         id="feGaussianBlur4234"
         result="result8"
         stdDeviation="3" />
      <feFlood
         id="feFlood4236"
         flood-color="rgb(0,0,0)"
         flood-opacity="1"
         in="result8"
         result="result10" />
      <feComposite
         id="feComposite4238"
         in2="fbSourceGraphic"
         operator="in"
         in="result10"
         result="result9" />
      <feBlend
         id="feBlend4240"
         in2="result9"
         mode="normal"
         in="result8" />
    </filter>
    <inkscape:perspective
       id="perspective4256"
       inkscape:persp3d-origin="0.5 : 0.33333333 : 1"
       inkscape:vp_z="1 : 0.5 : 1"
       inkscape:vp_y="0 : 1000 : 0"
       inkscape:vp_x="0 : 0.5 : 1"
       sodipodi:type="inkscape:persp3d" />
    <filter
       id="filter3030-8"
       inkscape:menu-tooltip="In and out glow with a possible offset and colorizable flood"
       inkscape:menu="Shadows and Glows"
       inkscape:label="Cutout Glow"
       color-interpolation-filters="sRGB">
      <feOffset
         id="feOffset3032-8"
         dy="3"
         dx="3" />
      <feGaussianBlur
         id="feGaussianBlur3034-2"
         result="result8"
         stdDeviation="3" />
      <feFlood
         id="feFlood3036-9"
         flood-color="rgb(0,0,0)"
         flood-opacity="1"
         in="result8"
         result="result10" />
      <feComposite
         id="feComposite3038-1"
         in2="SourceGraphic"
         operator="in"
         in="result10"
         result="result9" />
      <feBlend
         id="feBlend3040-35"
         in2="result9"
         mode="normal"
         in="result8" />
    </filter>
    <inkscape:perspective
       id="perspective4296"
       inkscape:persp3d-origin="0.5 : 0.33333333 : 1"
       inkscape:vp_z="1 : 0.5 : 1"
       inkscape:vp_y="0 : 1000 : 0"
       inkscape:vp_x="0 : 0.5 : 1"
       sodipodi:type="inkscape:persp3d" />
    <filter
       id="filter3078-6-8"
       inkscape:menu-tooltip="In and out glow with a possible offset and colorizable flood"
       inkscape:menu="Shadows and Glows"
       inkscape:label="Cutout Glow"
       color-interpolation-filters="sRGB">
      <feOffset
         id="feOffset3080-8-4"
         dy="3"
         dx="3" />
      <feGaussianBlur
         id="feGaussianBlur3082-5-0"
         result="result8"
         stdDeviation="3" />
      <feFlood
         id="feFlood3084-7-7"
         flood-color="rgb(0,0,0)"
         flood-opacity="1"
         in="result8"
         result="result10" />
      <feComposite
         id="feComposite3086-6-6"
         in2="SourceGraphic"
         operator="in"
         in="result10"
         result="result9" />
      <feBlend
         id="feBlend3088-1-3"
         in2="result9"
         mode="normal"
         in="result8" />
    </filter>
    <inkscape:perspective
       id="perspective4336"
       inkscape:persp3d-origin="0.5 : 0.33333333 : 1"
       inkscape:vp_z="1 : 0.5 : 1"
       inkscape:vp_y="0 : 1000 : 0"
       inkscape:vp_x="0 : 0.5 : 1"
       sodipodi:type="inkscape:persp3d" />
    <filter
       id="filter3066-8-1"
       inkscape:menu-tooltip="In and out glow with a possible offset and colorizable flood"
       inkscape:menu="Shadows and Glows"
       inkscape:label="Cutout Glow"
       color-interpolation-filters="sRGB">
      <feOffset
         id="feOffset3068-9-5"
         dy="3"
         dx="3" />
      <feGaussianBlur
         id="feGaussianBlur3070-2-4"
         result="result8"
         stdDeviation="3" />
      <feFlood
         id="feFlood3072-7-2"
         flood-color="rgb(0,0,0)"
         flood-opacity="1"
         in="result8"
         result="result10" />
      <feComposite
         id="feComposite3074-9-0"
         in2="SourceGraphic"
         operator="in"
         in="result10"
         result="result9" />
      <feBlend
         id="feBlend3076-5-9"
         in2="result9"
         mode="normal"
         in="result8" />
    </filter>
    <filter
       id="filter4368"
       inkscape:menu-tooltip="In and out glow with a possible offset and colorizable flood"
       inkscape:menu="Shadows and Glows"
       inkscape:label="Cutout Glow"
       color-interpolation-filters="sRGB">
      <feOffset
         id="feOffset4370"
         dy="3"
         dx="3" />
      <feGaussianBlur
         id="feGaussianBlur4372"
         result="result8"
         stdDeviation="3" />
      <feFlood
         id="feFlood4374"
         flood-color="rgb(0,0,0)"
         flood-opacity="1"
         in="result8"
         result="result10" />
      <feComposite
         id="feComposite4376"
         in2="SourceGraphic"
         operator="in"
         in="result10"
         result="result9" />
      <feBlend
         id="feBlend4378"
         in2="result9"
         mode="normal"
         in="result8"
         result="fbSourceGraphic" />
      <feColorMatrix
         result="fbSourceGraphicAlpha"
         in="fbSourceGraphic"
         values="0 0 0 -1 0 0 0 0 -1 0 0 0 0 -1 0 0 0 0 1 0"
         id="feColorMatrix4392" />
      <feOffset
         id="feOffset4394"
         dy="3"
         dx="3"
         in="fbSourceGraphic" />
      <feGaussianBlur
         id="feGaussianBlur4396"
         result="result8"
         stdDeviation="3" />
      <feFlood
         id="feFlood4398"
         flood-color="rgb(0,0,0)"
         flood-opacity="1"
         in="result8"
         result="result10" />
      <feComposite
         id="feComposite4400"
         in2="fbSourceGraphic"
         operator="in"
         in="result10"
         result="result9" />
      <feBlend
         id="feBlend4402"
         in2="result9"
         mode="normal"
         in="result8" />
    </filter>
    <filter
       id="filter4380"
       inkscape:menu-tooltip="In and out glow with a possible offset and colorizable flood"
       inkscape:menu="Shadows and Glows"
       inkscape:label="Cutout Glow"
       color-interpolation-filters="sRGB">
      <feOffset
         id="feOffset4382"
         dy="3"
         dx="3" />
      <feGaussianBlur
         id="feGaussianBlur4384"
         result="result8"
         stdDeviation="3" />
      <feFlood
         id="feFlood4386"
         flood-color="rgb(0,0,0)"
         flood-opacity="1"
         in="result8"
         result="result10" />
      <feComposite
         id="feComposite4388"
         in2="SourceGraphic"
         operator="in"
         in="result10"
         result="result9" />
      <feBlend
         id="feBlend4390"
         in2="result9"
         mode="normal"
         in="result8" />
    </filter>
    <inkscape:perspective
       id="perspective4412"
       inkscape:persp3d-origin="0.5 : 0.33333333 : 1"
       inkscape:vp_z="1 : 0.5 : 1"
       inkscape:vp_y="0 : 1000 : 0"
       inkscape:vp_x="0 : 0.5 : 1"
       sodipodi:type="inkscape:persp3d" />
    <filter
       id="filter3054-7"
       inkscape:menu-tooltip="In and out glow with a possible offset and colorizable flood"
       inkscape:menu="Shadows and Glows"
       inkscape:label="Cutout Glow"
       color-interpolation-filters="sRGB">
      <feOffset
         id="feOffset3056-2"
         dy="3"
         dx="3" />
      <feGaussianBlur
         id="feGaussianBlur3058-6"
         result="result8"
         stdDeviation="3" />
      <feFlood
         id="feFlood3060-0"
         flood-color="rgb(0,0,0)"
         flood-opacity="1"
         in="result8"
         result="result10" />
      <feComposite
         id="feComposite3062-1"
         in2="SourceGraphic"
         operator="in"
         in="result10"
         result="result9" />
      <feBlend
         id="feBlend3064-6"
         in2="result9"
         mode="normal"
         in="result8" />
    </filter>
    <inkscape:perspective
       id="perspective4452"
       inkscape:persp3d-origin="0.5 : 0.33333333 : 1"
       inkscape:vp_z="1 : 0.5 : 1"
       inkscape:vp_y="0 : 1000 : 0"
       inkscape:vp_x="0 : 0.5 : 1"
       sodipodi:type="inkscape:persp3d" />
    <filter
       id="filter3054-7-7"
       inkscape:menu-tooltip="In and out glow with a possible offset and colorizable flood"
       inkscape:menu="Shadows and Glows"
       inkscape:label="Cutout Glow"
       color-interpolation-filters="sRGB">
      <feOffset
         id="feOffset3056-2-5"
         dy="3"
         dx="3" />
      <feGaussianBlur
         id="feGaussianBlur3058-6-4"
         result="result8"
         stdDeviation="3" />
      <feFlood
         id="feFlood3060-0-1"
         flood-color="rgb(0,0,0)"
         flood-opacity="1"
         in="result8"
         result="result10" />
      <feComposite
         id="feComposite3062-1-2"
         in2="SourceGraphic"
         operator="in"
         in="result10"
         result="result9" />
      <feBlend
         id="feBlend3064-6-0"
         in2="result9"
         mode="normal"
         in="result8" />
    </filter>
    <inkscape:perspective
       id="perspective4492"
       inkscape:persp3d-origin="0.5 : 0.33333333 : 1"
       inkscape:vp_z="1 : 0.5 : 1"
       inkscape:vp_y="0 : 1000 : 0"
       inkscape:vp_x="0 : 0.5 : 1"
       sodipodi:type="inkscape:persp3d" />
    <filter
       id="filter3066-8-6-1"
       inkscape:menu-tooltip="In and out glow with a possible offset and colorizable flood"
       inkscape:menu="Shadows and Glows"
       inkscape:label="Cutout Glow"
       color-interpolation-filters="sRGB">
      <feOffset
         id="feOffset3068-9-1-4"
         dy="3"
         dx="3" />
      <feGaussianBlur
         id="feGaussianBlur3070-2-8-6"
         result="result8"
         stdDeviation="3" />
      <feFlood
         id="feFlood3072-7-49-0"
         flood-color="rgb(0,0,0)"
         flood-opacity="1"
         in="result8"
         result="result10" />
      <feComposite
         id="feComposite3074-9-6-7"
         in2="SourceGraphic"
         operator="in"
         in="result10"
         result="result9" />
      <feBlend
         id="feBlend3076-5-3-1"
         in2="result9"
         mode="normal"
         in="result8" />
    </filter>
    <inkscape:perspective
       id="perspective4532"
       inkscape:persp3d-origin="0.5 : 0.33333333 : 1"
       inkscape:vp_z="1 : 0.5 : 1"
       inkscape:vp_y="0 : 1000 : 0"
       inkscape:vp_x="0 : 0.5 : 1"
       sodipodi:type="inkscape:persp3d" />
    <filter
       id="filter3030-7"
       inkscape:menu-tooltip="In and out glow with a possible offset and colorizable flood"
       inkscape:menu="Shadows and Glows"
       inkscape:label="Cutout Glow"
       color-interpolation-filters="sRGB">
      <feOffset
         id="feOffset3032-7"
         dy="3"
         dx="3" />
      <feGaussianBlur
         id="feGaussianBlur3034-73"
         result="result8"
         stdDeviation="3" />
      <feFlood
         id="feFlood3036-3"
         flood-color="rgb(0,0,0)"
         flood-opacity="1"
         in="result8"
         result="result10" />
      <feComposite
         id="feComposite3038-5"
         in2="SourceGraphic"
         operator="in"
         in="result10"
         result="result9" />
      <feBlend
         id="feBlend3040-9"
         in2="result9"
         mode="normal"
         in="result8" />
    </filter>
  </defs>
  <sodipodi:namedview
     id="base"
     pagecolor="#ffffff"
     bordercolor="#666666"
     borderopacity="1.0"
     inkscape:pageopacity="0.0"
     inkscape:pageshadow="2"
     inkscape:zoom="1.4"
     inkscape:cx="260.61867"
     inkscape:cy="509.27582"
     inkscape:document-units="px"
     inkscape:current-layer="layer1"
     showgrid="true"
     inkscape:window-width="1366"
     inkscape:window-height="706"
     inkscape:window-x="-8"
     inkscape:window-y="-8"
     inkscape:window-maximized="1">
    <inkscape:grid
       type="xygrid"
       id="grid2816" />
  </sodipodi:namedview>
  <metadata
     id="metadata7">
    <rdf:RDF>
      <cc:Work
         rdf:about="">
        <dc:format>image/svg+xml</dc:format>
        <dc:type
           rdf:resource="http://purl.org/dc/dcmitype/StillImage" />
        <dc:title></dc:title>
      </cc:Work>
    </rdf:RDF>
  </metadata>
  <g
     inkscape:label="Layer 1"
     inkscape:groupmode="layer"
     id="layer1">
    <path
       style="fill:none;stroke:#000000;stroke-width:2.5;stroke-linecap:butt;stroke-linejoin:miter;stroke-miterlimit:4;stroke-opacity:1;stroke-dasharray:none;filter:url(#filter3886)"
       d="m 169.99998,442.36218 c -140.49139,10 -156.10155,170 0,180"
       id="path2966-8"
       sodipodi:nodetypes="cc" />
    <path
       sodipodi:type="arc"
       style="fill:#000080;fill-opacity:1;fill-rule:evenodd;stroke:none;filter:url(#filter3030)"
       id="path2818-8"
       sodipodi:cx="155"
       sodipodi:cy="442.36218"
       sodipodi:rx="15"
       sodipodi:ry="20"
       d="m 170,442.36218 a 15,20 0 1 1 -0.22387,-3.44249"
       sodipodi:start="0"
       sodipodi:end="6.1101994"
       sodipodi:open="true"
       transform="matrix(0.99999997,0,0,0.75,28.22389,111.17241)" />
    <path
       sodipodi:type="arc"
       style="fill:#008000;fill-opacity:1;fill-rule:evenodd;stroke:none;filter:url(#filter3042)"
       id="path2818-1-2"
       sodipodi:cx="155"
       sodipodi:cy="442.36218"
       sodipodi:rx="15"
       sodipodi:ry="20"
       d="m 170,442.36218 a 15,20 0 1 1 -0.22387,-3.44249"
       sodipodi:start="0"
       sodipodi:end="6.1101994"
       sodipodi:open="true"
       transform="matrix(0.99999997,0,0,0.75,-31.99998,120.59055)" />
    <path
       sodipodi:type="arc"
       style="fill:#ff0000;fill-opacity:1;fill-rule:evenodd;stroke:none;filter:url(#filter3054)"
       id="path2818-1-7-45"
       sodipodi:cx="155"
       sodipodi:cy="442.36218"
       sodipodi:rx="15"
       sodipodi:ry="20"
       d="m 170,442.36218 a 15,20 0 1 1 -0.22387,-3.44249"
       sodipodi:start="0"
       sodipodi:end="6.1101994"
       sodipodi:open="true"
       transform="matrix(0.99999997,0,0,0.75,-77,151.59055)" />
    <path
       sodipodi:type="arc"
       style="fill:#ffff00;fill-opacity:1;fill-rule:evenodd;stroke:none;filter:url(#filter3066)"
       id="path2818-1-7-4-5"
       sodipodi:cx="155"
       sodipodi:cy="442.36218"
       sodipodi:rx="15"
       sodipodi:ry="20"
       d="m 170,442.36218 a 15,20 0 1 1 -0.22387,-3.44249"
       sodipodi:start="0"
       sodipodi:end="6.1101994"
       sodipodi:open="true"
       transform="matrix(0.99999997,0,0,0.75,-97.99999,206.59055)" />
    <path
       sodipodi:type="arc"
       style="fill:#000080;fill-opacity:1;fill-rule:evenodd;stroke:none;filter:url(#filter3078)"
       id="path2818-1-7-4-0-1"
       sodipodi:cx="155"
       sodipodi:cy="442.36218"
       sodipodi:rx="15"
       sodipodi:ry="20"
       d="m 170,442.36218 a 15,20 0 1 1 -0.22387,-3.44249"
       sodipodi:start="0"
       sodipodi:end="6.1101994"
       sodipodi:open="true"
       transform="matrix(0.99999997,0,0,0.75,-75.99999,260.59055)" />
    <path
       sodipodi:type="arc"
       style="fill:#008000;fill-opacity:1;fill-rule:evenodd;stroke:none;filter:url(#filter3090)"
       id="path2818-1-9-7"
       sodipodi:cx="155"
       sodipodi:cy="442.36218"
       sodipodi:rx="15"
       sodipodi:ry="20"
       d="m 170,442.36218 a 15,20 0 1 1 -0.22387,-3.44249"
       sodipodi:start="0"
       sodipodi:end="6.1101994"
       sodipodi:open="true"
       transform="matrix(0.99999997,0,0,0.75,-31.99998,282.59055)" />
    <path
       sodipodi:type="arc"
       style="fill:#ff0000;fill-opacity:1;fill-rule:evenodd;stroke:none;filter:url(#filter3102)"
       id="path2818-4-1"
       sodipodi:cx="155"
       sodipodi:cy="442.36218"
       sodipodi:rx="15"
       sodipodi:ry="20"
       d="m 170,442.36218 a 15,20 0 1 1 -0.22387,-3.44249"
       sodipodi:start="0"
       sodipodi:end="6.1101994"
       sodipodi:open="true"
       transform="matrix(0.99999997,0,0,0.75,28.22389,289.17241)" />
    <path
       style="fill:none;stroke:#000000;stroke-width:2.5;stroke-linecap:butt;stroke-linejoin:miter;stroke-miterlimit:4;stroke-opacity:1;stroke-dasharray:none;filter:url(#filter3886-1)"
       d="m 513.99998,442.36218 c -140.49139,10 -156.10155,170 0,180"
       id="path2966-8-2"
       sodipodi:nodetypes="cc" />
    <path
       sodipodi:type="arc"
       style="fill:#ff0000;fill-opacity:1;fill-rule:evenodd;stroke:none;filter:url(#filter3030-4)"
       id="path2818-8-8"
       sodipodi:cx="155"
       sodipodi:cy="442.36218"
       sodipodi:rx="15"
       sodipodi:ry="20"
       d="m 170,442.36218 a 15,20 0 1 1 -0.22387,-3.44249"
       sodipodi:start="0"
       sodipodi:end="6.1101994"
       sodipodi:open="true"
       transform="matrix(0.99999997,0,0,0.75,372.22389,111.17241)" />
    <path
       sodipodi:type="arc"
       style="fill:#ffff00;fill-opacity:1;fill-rule:evenodd;stroke:none;filter:url(#filter3042-4)"
       id="path2818-1-2-6"
       sodipodi:cx="155"
       sodipodi:cy="442.36218"
       sodipodi:rx="15"
       sodipodi:ry="20"
       d="m 170,442.36218 a 15,20 0 1 1 -0.22387,-3.44249"
       sodipodi:start="0"
       sodipodi:end="6.1101994"
       sodipodi:open="true"
       transform="matrix(0.99999997,0,0,0.75,312.00002,120.59055)" />
    <path
       sodipodi:type="arc"
       style="fill:#000080;fill-opacity:1;fill-rule:evenodd;stroke:none;filter:url(#filter3054-4)"
       id="path2818-1-7-45-0"
       sodipodi:cx="155"
       sodipodi:cy="442.36218"
       sodipodi:rx="15"
       sodipodi:ry="20"
       d="m 170,442.36218 a 15,20 0 1 1 -0.22387,-3.44249"
       sodipodi:start="0"
       sodipodi:end="6.1101994"
       sodipodi:open="true"
       transform="matrix(0.99999997,0,0,0.75,267,151.59055)" />
    <path
       sodipodi:type="arc"
       style="fill:#008000;fill-opacity:1;fill-rule:evenodd;stroke:none;filter:url(#filter3066-8)"
       id="path2818-1-7-4-5-2"
       sodipodi:cx="155"
       sodipodi:cy="442.36218"
       sodipodi:rx="15"
       sodipodi:ry="20"
       d="m 170,442.36218 a 15,20 0 1 1 -0.22387,-3.44249"
       sodipodi:start="0"
       sodipodi:end="6.1101994"
       sodipodi:open="true"
       transform="matrix(0.99999997,0,0,0.75,246.00001,206.59055)" />
    <path
       sodipodi:type="arc"
       style="fill:#ffff00;fill-opacity:1;fill-rule:evenodd;stroke:none;filter:url(#filter3078-6)"
       id="path2818-1-7-4-0-1-4"
       sodipodi:cx="155"
       sodipodi:cy="442.36218"
       sodipodi:rx="15"
       sodipodi:ry="20"
       d="m 170,442.36218 a 15,20 0 1 1 -0.22387,-3.44249"
       sodipodi:start="0"
       sodipodi:end="6.1101994"
       sodipodi:open="true"
       transform="matrix(0.99999997,0,0,0.75,268.00001,260.59055)" />
    <path
       sodipodi:type="arc"
       style="fill:#ff0000;fill-opacity:1;fill-rule:evenodd;stroke:none;filter:url(#filter3090-4)"
       id="path2818-1-9-7-8"
       sodipodi:cx="155"
       sodipodi:cy="442.36218"
       sodipodi:rx="15"
       sodipodi:ry="20"
       d="m 170,442.36218 a 15,20 0 1 1 -0.22387,-3.44249"
       sodipodi:start="0"
       sodipodi:end="6.1101994"
       sodipodi:open="true"
       transform="matrix(0.99999997,0,0,0.75,312.00002,282.59055)" />
    <path
       sodipodi:type="arc"
       style="fill:#000080;fill-opacity:1;fill-rule:evenodd;stroke:none;filter:url(#filter3102-1)"
       id="path2818-4-1-6"
       sodipodi:cx="155"
       sodipodi:cy="442.36218"
       sodipodi:rx="15"
       sodipodi:ry="20"
       d="m 170,442.36218 a 15,20 0 1 1 -0.22387,-3.44249"
       sodipodi:start="0"
       sodipodi:end="6.1101994"
       sodipodi:open="true"
       transform="matrix(0.99999997,0,0,0.75,372.22389,289.17241)" />
    <path
       style="fill:none;stroke:#000000;stroke-width:2.5;stroke-linecap:butt;stroke-linejoin:miter;stroke-miterlimit:4;stroke-opacity:1;stroke-dasharray:none;filter:url(#filter4218)"
       d="m 528,606.36221 0,-34"
       id="path4087" />
    <path
       sodipodi:type="arc"
       style="fill:#008000;fill-opacity:1;fill-rule:evenodd;stroke:none;filter:url(#filter3066-8-6)"
       id="path2818-1-7-4-5-2-7"
       sodipodi:cx="155"
       sodipodi:cy="442.36218"
       sodipodi:rx="15"
       sodipodi:ry="20"
       d="m 170,442.36218 a 15,20 0 1 1 -0.22387,-3.44249"
       sodipodi:start="0"
       sodipodi:end="6.1101994"
       sodipodi:open="true"
       transform="matrix(0.99999997,0,0,0.75,372.00001,230.59055)" />
    <path
       style="fill:none;stroke:#000000;stroke-width:2.5;stroke-linecap:butt;stroke-linejoin:miter;stroke-miterlimit:4;stroke-opacity:1;stroke-dasharray:none;filter:url(#filter4380)"
       d="m 246,622.36218 0,-180 110,0 20,0"
       id="path4242" />
    <path
       style="fill:none;stroke:#000000;stroke-width:2.5;stroke-linecap:butt;stroke-linejoin:miter;stroke-miterlimit:4;stroke-opacity:1;stroke-dasharray:none;filter:url(#filter4368)"
       d="m 246,522.36218 60,0"
       id="path4244" />
    <path
       sodipodi:type="arc"
       style="fill:#000080;fill-opacity:1;fill-rule:evenodd;stroke:none;filter:url(#filter3030-8)"
       id="path2818-8-9"
       sodipodi:cx="155"
       sodipodi:cy="442.36218"
       sodipodi:rx="15"
       sodipodi:ry="20"
       d="m 170,442.36218 a 15,20 0 1 1 -0.22387,-3.44249"
       sodipodi:start="0"
       sodipodi:end="6.1101994"
       sodipodi:open="true"
       transform="matrix(0.99999997,0,0,0.75,92.000005,190.59055)" />
    <path
       sodipodi:type="arc"
       style="fill:#ffff00;fill-opacity:1;fill-rule:evenodd;stroke:none;filter:url(#filter3078-6-8)"
       id="path2818-1-7-4-0-1-4-6"
       sodipodi:cx="155"
       sodipodi:cy="442.36218"
       sodipodi:rx="15"
       sodipodi:ry="20"
       d="m 170,442.36218 a 15,20 0 1 1 -0.22387,-3.44249"
       sodipodi:start="0"
       sodipodi:end="6.1101994"
       sodipodi:open="true"
       transform="matrix(0.99999997,0,0,0.75,154,190.59055)" />
    <path
       sodipodi:type="arc"
       style="fill:#008000;fill-opacity:1;fill-rule:evenodd;stroke:none;filter:url(#filter3066-8-1)"
       id="path2818-1-7-4-5-2-73"
       sodipodi:cx="155"
       sodipodi:cy="442.36218"
       sodipodi:rx="15"
       sodipodi:ry="20"
       d="m 170,442.36218 a 15,20 0 1 1 -0.22387,-3.44249"
       sodipodi:start="0"
       sodipodi:end="6.1101994"
       sodipodi:open="true"
       transform="matrix(0.99999997,0,0,0.75,92.00001,110.59055)" />
    <path
       sodipodi:type="arc"
       style="fill:#ff0000;fill-opacity:1;fill-rule:evenodd;stroke:none;filter:url(#filter3054-7)"
       id="path2818-1-7-45-5"
       sodipodi:cx="155"
       sodipodi:cy="442.36218"
       sodipodi:rx="15"
       sodipodi:ry="20"
       d="m 170,442.36218 a 15,20 0 1 1 -0.22387,-3.44249"
       sodipodi:start="0"
       sodipodi:end="6.1101994"
       sodipodi:open="true"
       transform="matrix(0.99999997,0,0,0.75,153,109.59055)" />
    <path
       sodipodi:type="arc"
       style="fill:#008000;fill-opacity:1;fill-rule:evenodd;stroke:none;filter:url(#filter3066-8-6-1)"
       id="path2818-1-7-4-5-2-7-7"
       sodipodi:cx="155"
       sodipodi:cy="442.36218"
       sodipodi:rx="15"
       sodipodi:ry="20"
       d="m 170,442.36218 a 15,20 0 1 1 -0.22387,-3.44249"
       sodipodi:start="0"
       sodipodi:end="6.1101994"
       sodipodi:open="true"
       transform="matrix(0.99999997,0,0,0.75,90.000004,288.59055)" />
    <path
       sodipodi:type="arc"
       style="fill:#000080;fill-opacity:1;fill-rule:evenodd;stroke:none;filter:url(#filter3030-7)"
       id="path2818-8-98"
       sodipodi:cx="155"
       sodipodi:cy="442.36218"
       sodipodi:rx="15"
       sodipodi:ry="20"
       d="m 170,442.36218 a 15,20 0 1 1 -0.22387,-3.44249"
       sodipodi:start="0"
       sodipodi:end="6.1101994"
       sodipodi:open="true"
       transform="matrix(0.99999997,0,0,0.75,216.00001,110.59055)" />
  </g>
</svg>
