<?xml version="1.0" encoding="UTF-8" standalone="no"?>
<!-- Created with Inkscape (http://www.inkscape.org/) -->

<svg
   xmlns:dc="http://purl.org/dc/elements/1.1/"
   xmlns:cc="http://creativecommons.org/ns#"
   xmlns:rdf="http://www.w3.org/1999/02/22-rdf-syntax-ns#"
   xmlns:svg="http://www.w3.org/2000/svg"
   xmlns="http://www.w3.org/2000/svg"
   xmlns:xlink="http://www.w3.org/1999/xlink"
   xmlns:sodipodi="http://sodipodi.sourceforge.net/DTD/sodipodi-0.dtd"
   xmlns:inkscape="http://www.inkscape.org/namespaces/inkscape"
   id="svg2"
   version="1.1"
   inkscape:version="0.47 r22583"
   width="402"
   height="302"
   sodipodi:docname="glycoworkbench.svg">
  <metadata
     id="metadata8">
    <rdf:RDF>
      <cc:Work
         rdf:about="">
        <dc:format>image/svg+xml</dc:format>
        <dc:type
           rdf:resource="http://purl.org/dc/dcmitype/StillImage" />
      </cc:Work>
    </rdf:RDF>
  </metadata>
  <defs
     id="defs6">
    <linearGradient
       id="linearGradient3719">
      <stop
         style="stop-color:#3232ff;stop-opacity:1;"
         offset="0"
         id="stop3721" />
      <stop
         style="stop-color:#000080;stop-opacity:1;"
         offset="1"
         id="stop3723" />
    </linearGradient>
    <linearGradient
       id="linearGradient3917">
      <stop
         style="stop-color:#ffffff;stop-opacity:1;"
         offset="0"
         id="stop3919" />
      <stop
         id="stop3923"
         offset="1"
         style="stop-color:#00009d;stop-opacity:1;" />
    </linearGradient>
    <linearGradient
       id="linearGradient3718">
      <stop
         id="stop3915"
         offset="0"
         style="stop-color:#ff0000;stop-opacity:1;" />
      <stop
         id="stop3913"
         offset="0.5"
         style="stop-color:#ffff00;stop-opacity:1;" />
      <stop
         style="stop-color:#00009d;stop-opacity:1;"
         offset="1"
         id="stop3722" />
    </linearGradient>
    <linearGradient
       id="linearGradient3688">
      <stop
         style="stop-color:#000080;stop-opacity:1;"
         offset="0"
         id="stop3690" />
      <stop
         style="stop-color:#ffffff;stop-opacity:1;"
         offset="1"
         id="stop3692" />
    </linearGradient>
    <inkscape:perspective
       sodipodi:type="inkscape:persp3d"
       inkscape:vp_x="0 : 0.5 : 1"
       inkscape:vp_y="0 : 1000 : 0"
       inkscape:vp_z="1 : 0.5 : 1"
       inkscape:persp3d-origin="0.5 : 0.33333333 : 1"
       id="perspective10" />
    <inkscape:perspective
       id="perspective2826"
       inkscape:persp3d-origin="0.5 : 0.33333333 : 1"
       inkscape:vp_z="1 : 0.5 : 1"
       inkscape:vp_y="0 : 1000 : 0"
       inkscape:vp_x="0 : 0.5 : 1"
       sodipodi:type="inkscape:persp3d" />
    <inkscape:perspective
       id="perspective2860"
       inkscape:persp3d-origin="0.5 : 0.33333333 : 1"
       inkscape:vp_z="1 : 0.5 : 1"
       inkscape:vp_y="0 : 1000 : 0"
       inkscape:vp_x="0 : 0.5 : 1"
       sodipodi:type="inkscape:persp3d" />
    <filter
       id="filter2890"
       y="-0.25"
       height="1.5"
       inkscape:menu-tooltip="Darkens the edge with an inner blur and adds a flexible glow"
       inkscape:menu="Shadows and Glows"
       inkscape:label="Dark and Glow"
       color-interpolation-filters="sRGB">
      <feGaussianBlur
         id="feGaussianBlur2892"
         stdDeviation="5"
         result="result6" />
      <feComposite
         id="feComposite2894"
         in2="result6"
         result="result8"
         in="SourceGraphic"
         operator="atop" />
      <feComposite
         id="feComposite2896"
         in2="SourceAlpha"
         result="result9"
         operator="over"
         in="result8" />
      <feColorMatrix
         id="feColorMatrix2898"
         values="1 0 0 0 0 0 1 0 0 0 0 0 1 0 0 0 0 0 1 0 "
         result="result10" />
      <feBlend
         id="feBlend2900"
         in2="result6"
         in="result10"
         mode="normal" />
    </filter>
    <filter
       id="filter2902"
       inkscape:menu-tooltip="In and out glow with a possible offset and colorizable flood"
       inkscape:menu="Shadows and Glows"
       inkscape:label="Cutout Glow"
       color-interpolation-filters="sRGB">
      <feOffset
         id="feOffset2904"
         dy="3"
         dx="3" />
      <feGaussianBlur
         id="feGaussianBlur2906"
         result="result8"
         stdDeviation="3" />
      <feFlood
         id="feFlood2908"
         flood-color="rgb(0,0,0)"
         flood-opacity="1"
         in="result8"
         result="result10" />
      <feComposite
         id="feComposite2910"
         in2="SourceGraphic"
         operator="in"
         in="result10"
         result="result9" />
      <feBlend
         id="feBlend2912"
         in2="result9"
         mode="normal"
         in="result8" />
    </filter>
    <inkscape:perspective
       id="perspective3704"
       inkscape:persp3d-origin="0.5 : 0.33333333 : 1"
       inkscape:vp_z="1 : 0.5 : 1"
       inkscape:vp_y="0 : 1000 : 0"
       inkscape:vp_x="0 : 0.5 : 1"
       sodipodi:type="inkscape:persp3d" />
    <inkscape:perspective
       id="perspective3734"
       inkscape:persp3d-origin="0.5 : 0.33333333 : 1"
       inkscape:vp_z="1 : 0.5 : 1"
       inkscape:vp_y="0 : 1000 : 0"
       inkscape:vp_x="0 : 0.5 : 1"
       sodipodi:type="inkscape:persp3d" />
    <filter
       id="filter2902-8"
       inkscape:menu-tooltip="Darkens the edge with an inner blur and adds a flexible glow"
       inkscape:menu="Shadows and Glows"
       inkscape:label="Dark and Glow"
       color-interpolation-filters="sRGB"
       y="-0.25"
       height="1.5">
      <feOffset
         id="feOffset2904-2"
         dy="3"
         dx="3" />
      <feGaussianBlur
         id="feGaussianBlur2906-4"
         result="result8"
         stdDeviation="3" />
      <feFlood
         id="feFlood2908-5"
         flood-color="rgb(0,0,0)"
         flood-opacity="1"
         in="result8"
         result="result10" />
      <feComposite
         id="feComposite2910-5"
         in2="SourceGraphic"
         operator="in"
         in="result10"
         result="result9" />
      <feBlend
         id="feBlend2912-1"
         in2="result9"
         mode="normal"
         in="result8"
         result="fbSourceGraphic" />
      <feColorMatrix
         result="fbSourceGraphicAlpha"
         in="fbSourceGraphic"
         values="0 0 0 -1 0 0 0 0 -1 0 0 0 0 -1 0 0 0 0 1 0"
         id="feColorMatrix3877" />
      <feGaussianBlur
         id="feGaussianBlur3879"
         stdDeviation="5"
         result="result6"
         in="fbSourceGraphic" />
      <feComposite
         id="feComposite3881"
         in2="result6"
         result="result8"
         in="fbSourceGraphic"
         operator="atop" />
      <feComposite
         id="feComposite3883"
         in2="fbSourceGraphicAlpha"
         result="result9"
         operator="over"
         in="result8" />
      <feColorMatrix
         id="feColorMatrix3885"
         values="1 0 0 0 0 0 1 0 0 0 0 0 1 0 0 0 0 0 1 0 "
         result="result10" />
      <feBlend
         id="feBlend3887"
         in2="result6"
         in="result10"
         mode="normal" />
    </filter>
    <inkscape:perspective
       id="perspective3777"
       inkscape:persp3d-origin="0.5 : 0.33333333 : 1"
       inkscape:vp_z="1 : 0.5 : 1"
       inkscape:vp_y="0 : 1000 : 0"
       inkscape:vp_x="0 : 0.5 : 1"
       sodipodi:type="inkscape:persp3d" />
    <inkscape:perspective
       id="perspective3811"
       inkscape:persp3d-origin="0.5 : 0.33333333 : 1"
       inkscape:vp_z="1 : 0.5 : 1"
       inkscape:vp_y="0 : 1000 : 0"
       inkscape:vp_x="0 : 0.5 : 1"
       sodipodi:type="inkscape:persp3d" />
    <linearGradient
       inkscape:collect="always"
       xlink:href="#linearGradient3917"
       id="linearGradient3869"
       gradientUnits="userSpaceOnUse"
       x1="720"
       y1="110.54185"
       x2="786.94574"
       y2="229.02673"
       gradientTransform="matrix(1.025,0,0,1.0066667,-533,-2.0133333)" />
    <filter
       id="filter3897"
       inkscape:menu-tooltip="In and out glow with a possible offset and colorizable flood"
       inkscape:menu="Shadows and Glows"
       inkscape:label="Cutout Glow"
       color-interpolation-filters="sRGB">
      <feOffset
         id="feOffset3899"
         dy="3"
         dx="3" />
      <feGaussianBlur
         id="feGaussianBlur3901"
         result="result8"
         stdDeviation="3" />
      <feFlood
         id="feFlood3903"
         flood-color="rgb(0,0,0)"
         flood-opacity="1"
         in="result8"
         result="result10" />
      <feComposite
         id="feComposite3905"
         in2="SourceGraphic"
         operator="in"
         in="result10"
         result="result9" />
      <feBlend
         id="feBlend3907"
         in2="result9"
         mode="normal"
         in="result8" />
    </filter>
    <inkscape:perspective
       id="perspective3939"
       inkscape:persp3d-origin="0.5 : 0.33333333 : 1"
       inkscape:vp_z="1 : 0.5 : 1"
       inkscape:vp_y="0 : 1000 : 0"
       inkscape:vp_x="0 : 0.5 : 1"
       sodipodi:type="inkscape:persp3d" />
    <inkscape:perspective
       id="perspective3971"
       inkscape:persp3d-origin="0.5 : 0.33333333 : 1"
       inkscape:vp_z="1 : 0.5 : 1"
       inkscape:vp_y="0 : 1000 : 0"
       inkscape:vp_x="0 : 0.5 : 1"
       sodipodi:type="inkscape:persp3d" />
    <inkscape:perspective
       id="perspective3971-6"
       inkscape:persp3d-origin="0.5 : 0.33333333 : 1"
       inkscape:vp_z="1 : 0.5 : 1"
       inkscape:vp_y="0 : 1000 : 0"
       inkscape:vp_x="0 : 0.5 : 1"
       sodipodi:type="inkscape:persp3d" />
    <inkscape:perspective
       id="perspective4002"
       inkscape:persp3d-origin="0.5 : 0.33333333 : 1"
       inkscape:vp_z="1 : 0.5 : 1"
       inkscape:vp_y="0 : 1000 : 0"
       inkscape:vp_x="0 : 0.5 : 1"
       sodipodi:type="inkscape:persp3d" />
    <inkscape:perspective
       id="perspective4024"
       inkscape:persp3d-origin="0.5 : 0.33333333 : 1"
       inkscape:vp_z="1 : 0.5 : 1"
       inkscape:vp_y="0 : 1000 : 0"
       inkscape:vp_x="0 : 0.5 : 1"
       sodipodi:type="inkscape:persp3d" />
    <inkscape:perspective
       id="perspective4046"
       inkscape:persp3d-origin="0.5 : 0.33333333 : 1"
       inkscape:vp_z="1 : 0.5 : 1"
       inkscape:vp_y="0 : 1000 : 0"
       inkscape:vp_x="0 : 0.5 : 1"
       sodipodi:type="inkscape:persp3d" />
    <inkscape:perspective
       id="perspective4046-1"
       inkscape:persp3d-origin="0.5 : 0.33333333 : 1"
       inkscape:vp_z="1 : 0.5 : 1"
       inkscape:vp_y="0 : 1000 : 0"
       inkscape:vp_x="0 : 0.5 : 1"
       sodipodi:type="inkscape:persp3d" />
    <inkscape:perspective
       id="perspective4046-9"
       inkscape:persp3d-origin="0.5 : 0.33333333 : 1"
       inkscape:vp_z="1 : 0.5 : 1"
       inkscape:vp_y="0 : 1000 : 0"
       inkscape:vp_x="0 : 0.5 : 1"
       sodipodi:type="inkscape:persp3d" />
    <inkscape:perspective
       id="perspective4046-7"
       inkscape:persp3d-origin="0.5 : 0.33333333 : 1"
       inkscape:vp_z="1 : 0.5 : 1"
       inkscape:vp_y="0 : 1000 : 0"
       inkscape:vp_x="0 : 0.5 : 1"
       sodipodi:type="inkscape:persp3d" />
    <inkscape:perspective
       id="perspective4046-5"
       inkscape:persp3d-origin="0.5 : 0.33333333 : 1"
       inkscape:vp_z="1 : 0.5 : 1"
       inkscape:vp_y="0 : 1000 : 0"
       inkscape:vp_x="0 : 0.5 : 1"
       sodipodi:type="inkscape:persp3d" />
    <inkscape:perspective
       id="perspective4046-3"
       inkscape:persp3d-origin="0.5 : 0.33333333 : 1"
       inkscape:vp_z="1 : 0.5 : 1"
       inkscape:vp_y="0 : 1000 : 0"
       inkscape:vp_x="0 : 0.5 : 1"
       sodipodi:type="inkscape:persp3d" />
    <inkscape:perspective
       id="perspective4046-2"
       inkscape:persp3d-origin="0.5 : 0.33333333 : 1"
       inkscape:vp_z="1 : 0.5 : 1"
       inkscape:vp_y="0 : 1000 : 0"
       inkscape:vp_x="0 : 0.5 : 1"
       sodipodi:type="inkscape:persp3d" />
    <inkscape:perspective
       id="perspective4122"
       inkscape:persp3d-origin="0.5 : 0.33333333 : 1"
       inkscape:vp_z="1 : 0.5 : 1"
       inkscape:vp_y="0 : 1000 : 0"
       inkscape:vp_x="0 : 0.5 : 1"
       sodipodi:type="inkscape:persp3d" />
    <inkscape:perspective
       id="perspective4222"
       inkscape:persp3d-origin="0.5 : 0.33333333 : 1"
       inkscape:vp_z="1 : 0.5 : 1"
       inkscape:vp_y="0 : 1000 : 0"
       inkscape:vp_x="0 : 0.5 : 1"
       sodipodi:type="inkscape:persp3d" />
    <inkscape:perspective
       id="perspective4244"
       inkscape:persp3d-origin="0.5 : 0.33333333 : 1"
       inkscape:vp_z="1 : 0.5 : 1"
       inkscape:vp_y="0 : 1000 : 0"
       inkscape:vp_x="0 : 0.5 : 1"
       sodipodi:type="inkscape:persp3d" />
    <inkscape:perspective
       id="perspective4326"
       inkscape:persp3d-origin="0.5 : 0.33333333 : 1"
       inkscape:vp_z="1 : 0.5 : 1"
       inkscape:vp_y="0 : 1000 : 0"
       inkscape:vp_x="0 : 0.5 : 1"
       sodipodi:type="inkscape:persp3d" />
    <linearGradient
       inkscape:collect="always"
       xlink:href="#linearGradient3719"
       id="linearGradient3725"
       x1="0.78887939"
       y1="100.18372"
       x2="410.71075"
       y2="100.18372"
       gradientUnits="userSpaceOnUse" />
  </defs>
  <sodipodi:namedview
     pagecolor="#ffffff"
     bordercolor="#666666"
     borderopacity="1"
     objecttolerance="10"
     gridtolerance="10"
     guidetolerance="10"
     inkscape:pageopacity="0"
     inkscape:pageshadow="2"
     inkscape:window-width="1366"
     inkscape:window-height="706"
     id="namedview4"
     showgrid="false"
     inkscape:zoom="1.105147"
     inkscape:cx="232.45716"
     inkscape:cy="147.62664"
     inkscape:window-x="-8"
     inkscape:window-y="-8"
     inkscape:window-maximized="1"
     inkscape:current-layer="svg2"
     inkscape:snap-global="true"
     showguides="false">
    <inkscape:grid
       type="xygrid"
       id="grid2818"
       empspacing="5"
       visible="true"
       enabled="true"
       snapvisiblegridlinesonly="true" />
  </sodipodi:namedview>
  <rect
     style="fill:url(#linearGradient3869);fill-opacity:1;fill-rule:evenodd;stroke:none"
     id="rect2914"
     width="410"
     height="302"
     x="0"
     y="0" />
  <text
     xml:space="preserve"
     style="font-size:40px;font-style:normal;font-weight:normal;fill:url(#linearGradient3725);fill-opacity:1;stroke:none;filter:url(#filter3897);font-family:Bitstream Vera Sans"
     x="33.347473"
     y="111.10169"
     id="text2838-7"><tspan
       sodipodi:role="line"
       id="tspan2840-1"
       x="33.347473"
       y="111.10169"
       style="font-size:40px;font-style:normal;font-variant:normal;font-weight:bold;font-stretch:normal;fill:url(#linearGradient3725);font-family:Microsoft YaHei;-inkscape-font-specification:Microsoft YaHei Bold;fill-opacity:1">GlycoWorkBench</tspan></text>
  <flowRoot
     transform="translate(-166.35156,37.84453)"
     xml:space="preserve"
     id="flowRoot2842-1"
     style="font-size:18px;font-style:normal;font-weight:normal;text-align:center;text-anchor:middle;fill:#00004c;fill-opacity:1;stroke:none;font-family:Bitstream Vera Sans"><flowRegion
       id="flowRegion2844-5"><rect
         id="rect2846-2"
         width="492.03391"
         height="202.18643"
         x="127.9661"
         y="99.81356"
         style="font-size:18px;text-align:center;text-anchor:middle;fill:#00004c;fill-opacity:1" /></flowRegion><flowPara
       style="font-size:18px;font-style:normal;font-variant:normal;font-weight:bold;font-stretch:normal;text-align:center;text-anchor:middle;fill:#00004c;fill-opacity:1;font-family:Microsoft YaHei;-inkscape-font-specification:Microsoft YaHei Bold"
       id="flowPara3911">developed by Alessio Ceroni, Kai Maass</flowPara><flowPara
       style="font-size:18px;font-style:normal;font-variant:normal;font-weight:bold;font-stretch:normal;text-align:center;text-anchor:middle;fill:#00004c;fill-opacity:1;font-family:Microsoft YaHei;-inkscape-font-specification:Microsoft YaHei Bold"
       id="flowPara3729">and David Damerell</flowPara></flowRoot>  <flowRoot
     transform="translate(-118.25,149.84453)"
     xml:space="preserve"
     id="flowRoot2842-7-1"
     style="font-size:40px;font-style:normal;font-weight:normal;fill:#ffffff;fill-opacity:1;stroke:none;font-family:Bitstream Vera Sans"><flowRegion
       id="flowRegion2844-4-4"><rect
         id="rect2846-0-2"
         width="492.03391"
         height="202.18643"
         x="127.9661"
         y="99.81356"
         style="fill:#ffffff;fill-opacity:1" /></flowRegion><flowPara
       style="font-size:16px;font-style:normal;font-variant:normal;font-weight:normal;font-stretch:normal;font-family:Lucida Sans Unicode;-inkscape-font-specification:Lucida Sans Unicode;fill:#ffffff;fill-opacity:1"
       id="flowPara2850-4-3">           www.glycoworkbench.org</flowPara><flowPara
       style="font-size:16px;font-style:normal;font-variant:normal;font-weight:normal;font-stretch:normal;font-family:Lucida Sans Unicode;-inkscape-font-specification:Lucida Sans Unicode;fill:#ffffff;fill-opacity:1"
       id="flowPara2888-2">contact: info@glycoworkbench.org</flowPara></flowRoot>  <rect
     style="fill:#000000;fill-opacity:1;fill-rule:evenodd;stroke:none"
     id="rect3959"
     width="0"
     height="0"
     x="551.51038"
     y="21.494335" />
  <g
     id="g3703"
     transform="translate(-115.76702,232.16315)">
    <rect
       y="6.4238267"
       x="480.10184"
       height="3.4180779"
       width="3.4180777"
       id="rect3961-3"
       style="fill:#ffff00;fill-opacity:1;fill-rule:evenodd;stroke:none" />
    <rect
       y="4.8562455"
       x="486.23065"
       height="3.4180779"
       width="3.4180777"
       id="rect3961-1-8"
       style="fill:#ffff00;fill-opacity:1;fill-rule:evenodd;stroke:none" />
    <rect
       y="6.4238267"
       x="491.57678"
       height="3.4180779"
       width="3.4180777"
       id="rect3961-8-7"
       style="fill:#ffff00;fill-opacity:1;fill-rule:evenodd;stroke:none" />
    <rect
       y="11.087782"
       x="496.38223"
       height="3.4180779"
       width="3.4180777"
       id="rect3961-8-5-4"
       style="fill:#ffff00;fill-opacity:1;fill-rule:evenodd;stroke:none" />
    <rect
       y="16.703192"
       x="496.80655"
       height="3.4180779"
       width="3.4180777"
       id="rect3961-8-5-7-27"
       style="fill:#ffff00;fill-opacity:1;fill-rule:evenodd;stroke:none" />
    <rect
       y="22.806908"
       x="495.6246"
       height="3.4180779"
       width="3.4180777"
       id="rect3961-8-5-7-6-7"
       style="fill:#ffff00;fill-opacity:1;fill-rule:evenodd;stroke:none" />
    <rect
       y="26.932289"
       x="492.06509"
       height="3.4180779"
       width="3.4180777"
       id="rect3961-8-5-7-8-9"
       style="fill:#ffff00;fill-opacity:1;fill-rule:evenodd;stroke:none" />
    <rect
       y="28.153038"
       x="485.96136"
       height="3.4180779"
       width="3.4180777"
       id="rect3961-8-5-7-2-3"
       style="fill:#ffff00;fill-opacity:1;fill-rule:evenodd;stroke:none" />
    <rect
       y="26.932297"
       x="480.59012"
       height="3.4180779"
       width="3.4180777"
       id="rect3961-8-5-7-9-1"
       style="fill:#ffff00;fill-opacity:1;fill-rule:evenodd;stroke:none" />
    <rect
       y="23.270065"
       x="476.68375"
       height="3.4180779"
       width="3.4180777"
       id="rect3961-8-5-7-4-9"
       style="fill:#ffff00;fill-opacity:1;fill-rule:evenodd;stroke:none" />
    <rect
       y="16.433912"
       x="474.24225"
       height="3.4180779"
       width="3.4180777"
       id="rect3961-8-5-7-1-8"
       style="fill:#ffff00;fill-opacity:1;fill-rule:evenodd;stroke:none" />
    <rect
       y="10.330198"
       x="476.19543"
       height="3.4180779"
       width="3.4180777"
       id="rect3961-8-5-7-3-6"
       style="fill:#ffff00;fill-opacity:1;fill-rule:evenodd;stroke:none" />
    <path
       sodipodi:nodetypes="ccccccs"
       id="path4344"
       d="m 471.23517,26.233051 -9.75741,7.837923 -24.63348,-14.076271 c -10.52678,-9.985105 20.0508,39.379373 20.31462,40.149364 1.23901,2.679689 20.27799,-13.126539 30.07204,-19.51483 7.57133,3.199152 25.98077,12.671732 25.2733,10.877118 -4.25271,-6.513482 -5.69799,-9.736479 -12.24175,-19.767722"
       style="fill:none;stroke:#ec0000;stroke-width:5.4000001;stroke-linecap:butt;stroke-linejoin:miter;stroke-miterlimit:4;stroke-opacity:1;stroke-dasharray:none" />
    <path
       sodipodi:nodetypes="ccccccccccc"
       id="path2929"
       d="m 421.3284,51.506354 11.51694,0 c 2.86095,-1.654443 2.49951,-12.65614 3.83898,-18.715042 0.72958,0.01885 0.79747,-11.301939 6.0784,17.915254 1.08465,1.84939 4.88149,2.085015 6.07839,-0.319916 2.79165,-43.8685737 2.93382,-45.3349434 5.11864,-45.5879225 4.27201,6.6793765 4.94328,30.4843755 7.67797,46.3877115 0.96049,1.384806 4.62561,1.67923 5.43856,0 1.59958,-5.978983 3.19915,-19.594038 4.79873,-17.915254 2.6308,-1.96759 2.7642,11.572936 4.63877,17.595339 -0.13905,2.281229 4.00587,0.653684 8.63771,1.279661"
       style="fill:none;stroke:#ffff00;stroke-width:2.0999999;stroke-linecap:butt;stroke-linejoin:miter;stroke-miterlimit:4;stroke-opacity:1;stroke-dasharray:none" />
  </g>
</svg>
