<?xml version="1.0" encoding="UTF-8" standalone="no"?>
<!-- Created with Inkscape (http://www.inkscape.org/) -->

<svg
   xmlns:dc="http://purl.org/dc/elements/1.1/"
   xmlns:cc="http://creativecommons.org/ns#"
   xmlns:rdf="http://www.w3.org/1999/02/22-rdf-syntax-ns#"
   xmlns:svg="http://www.w3.org/2000/svg"
   xmlns="http://www.w3.org/2000/svg"
   xmlns:xlink="http://www.w3.org/1999/xlink"
   xmlns:sodipodi="http://sodipodi.sourceforge.net/DTD/sodipodi-0.dtd"
   xmlns:inkscape="http://www.inkscape.org/namespaces/inkscape"
   width="16"
   height="16"
   id="svg2"
   version="1.1"
   inkscape:version="0.48.1 "
   sodipodi:docname="private.svg"
   inkscape:export-filename="C:\Users\Claire\Documents\Icon\synchronise2.png"
   inkscape:export-xdpi="90.913567"
   inkscape:export-ydpi="90.913567">
  <defs
     id="defs4">
    <linearGradient
       id="linearGradient4067">
      <stop
         style="stop-color:#b3b3b3;stop-opacity:1;"
         offset="0"
         id="stop4069" />
      <stop
         id="stop4081"
         offset="0.2"
         style="stop-color:#000000;stop-opacity:1;" />
      <stop
         id="stop4079"
         offset="0.20999999"
         style="stop-color:#b3b3b3;stop-opacity:1;" />
      <stop
         id="stop4077"
         offset="0.31338394"
         style="stop-color:#000000;stop-opacity:1;" />
      <stop
         id="stop4075"
         offset="0.70606899"
         style="stop-color:#b3b3b3;stop-opacity:1;" />
      <stop
         style="stop-color:#000000;stop-opacity:1;"
         offset="0.78518975"
         id="stop4083" />
      <stop
         style="stop-color:#b3b3b3;stop-opacity:1;"
         offset="1"
         id="stop4071" />
    </linearGradient>
    <linearGradient
       id="linearGradient3852">
      <stop
         style="stop-color:#000000;stop-opacity:1;"
         offset="0"
         id="stop3854" />
      <stop
         id="stop3870"
         offset="0.5"
         style="stop-color:#808000;stop-opacity:1;" />
      <stop
         style="stop-color:#ffffff;stop-opacity:1;"
         offset="1"
         id="stop3856" />
    </linearGradient>
    <linearGradient
       id="linearGradient3840">
      <stop
         style="stop-color:#ffffff;stop-opacity:1;"
         offset="0"
         id="stop3842" />
      <stop
         style="stop-color:#000000;stop-opacity:1;"
         offset="1"
         id="stop3844" />
    </linearGradient>
    <linearGradient
       id="linearGradient3757">
      <stop
         style="stop-color:#53676c;stop-opacity:0;"
         offset="0"
         id="stop3759" />
      <stop
         style="stop-color:#0055d4;stop-opacity:1;"
         offset="1"
         id="stop3761" />
    </linearGradient>
    <linearGradient
       inkscape:collect="always"
       xlink:href="#linearGradient3757"
       id="linearGradient3763"
       x1="22"
       y1="5.0666933"
       x2="1"
       y2="5"
       gradientUnits="userSpaceOnUse"
       gradientTransform="matrix(1,0,0,1.0714286,0,1034.9336)" />
    <linearGradient
       inkscape:collect="always"
       xlink:href="#linearGradient3757-7"
       id="linearGradient3763-1"
       x1="15"
       y1="5"
       x2="1"
       y2="5"
       gradientUnits="userSpaceOnUse" />
    <linearGradient
       id="linearGradient3757-7">
      <stop
         style="stop-color:#ffffff;stop-opacity:1;"
         offset="0"
         id="stop3759-4" />
      <stop
         style="stop-color:#0055d4;stop-opacity:1;"
         offset="1"
         id="stop3761-0" />
    </linearGradient>
    <linearGradient
       inkscape:collect="always"
       xlink:href="#linearGradient3757-9"
       id="linearGradient3763-7"
       x1="15"
       y1="5"
       x2="1"
       y2="5"
       gradientUnits="userSpaceOnUse"
       gradientTransform="matrix(1,0,0,1.0714286,0,1034.9336)" />
    <linearGradient
       id="linearGradient3757-9">
      <stop
         style="stop-color:#ffffff;stop-opacity:1;"
         offset="0"
         id="stop3759-8" />
      <stop
         style="stop-color:#0055d4;stop-opacity:1;"
         offset="1"
         id="stop3761-01" />
    </linearGradient>
    <filter
       id="filter3884"
       inkscape:label="Drop shadow"
       width="1.5"
       height="1.5"
       x="-.25"
       y="-.25">
      <feGaussianBlur
         id="feGaussianBlur3886"
         in="SourceAlpha"
         stdDeviation="2"
         result="blur" />
      <feColorMatrix
         id="feColorMatrix3888"
         result="bluralpha"
         type="matrix"
         values="1 0 0 0 0 0 1 0 0 0 0 0 1 0 0 0 0 0 0.5 0 " />
      <feOffset
         id="feOffset3890"
         in="bluralpha"
         dx="-4"
         dy="4"
         result="offsetBlur" />
      <feMerge
         id="feMerge3892">
        <feMergeNode
           id="feMergeNode3894"
           in="offsetBlur" />
        <feMergeNode
           id="feMergeNode3896"
           in="SourceGraphic" />
      </feMerge>
    </filter>
  </defs>
  <sodipodi:namedview
     id="base"
     pagecolor="#ffffff"
     bordercolor="#666666"
     borderopacity="1.0"
     inkscape:pageopacity="0.0"
     inkscape:pageshadow="2"
     inkscape:zoom="25.239893"
     inkscape:cx="11.985039"
     inkscape:cy="9.3421502"
     inkscape:document-units="px"
     inkscape:current-layer="layer1"
     showgrid="false"
     inkscape:window-width="1366"
     inkscape:window-height="768"
     inkscape:window-x="0"
     inkscape:window-y="0"
     inkscape:window-maximized="1"
     showguides="true"
     inkscape:guide-bbox="true">
    <inkscape:grid
       type="xygrid"
       id="grid2985"
       empspacing="5"
       visible="true"
       enabled="true"
       snapvisiblegridlinesonly="true" />
    <sodipodi:guide
       orientation="1,0"
       position="2.832817,-0.95087565"
       id="guide4097" />
  </sodipodi:namedview>
  <metadata
     id="metadata7">
    <rdf:RDF>
      <cc:Work
         rdf:about="">
        <dc:format>image/svg+xml</dc:format>
        <dc:type
           rdf:resource="http://purl.org/dc/dcmitype/StillImage" />
        <dc:title></dc:title>
      </cc:Work>
    </rdf:RDF>
  </metadata>
  <g
     inkscape:label="Layer 1"
     inkscape:groupmode="layer"
     id="layer1"
     transform="translate(0,-1036.3622)">
    <g
       id="g4034"
       transform="translate(-1.7433714,0.11885945)">
      <path
         sodipodi:nodetypes="ccccc"
         inkscape:connector-curvature="0"
         id="path3972-3"
         d="m 4.5714496,1043.2951 2e-7,8.3085 10.2708112,0 -3e-6,-8.3085 z"
         style="fill:#000000;fill-opacity:1;stroke:#000000;stroke-width:0.86713421;stroke-linecap:round;stroke-linejoin:round;stroke-opacity:1" />
      <path
         sodipodi:nodetypes="ccccc"
         inkscape:connector-curvature="0"
         id="path3972"
         d="m 4.3468361,1043.4761 2e-7,8.3085 10.2708117,0 -3e-6,-8.3085 z"
         style="fill:#808000;stroke:#808000;stroke-width:0.86713421;stroke-linecap:round;stroke-linejoin:round;stroke-opacity:1" />
      <path
         sodipodi:nodetypes="cccccccccc"
         inkscape:connector-curvature="0"
         id="path3996-6"
         d="m 5.4279154,1043.0679 -0.07924,-3.962 c 0.039115,-3.8291 8.8644716,-4.0748 8.8748396,0 l -0.07924,3.7243 c -0.546128,0.5173 -0.985658,0.63 -1.426313,0.1981 l 0,-3.8828 c 0.108364,-2.0117 -5.4416886,-2.6143 -5.9033526,-0.04 l -0.03962,3.7243 c -0.3961986,0.3698 -0.5678846,0.2905 -1.0697357,-0.079 z"
         style="fill:#000000;stroke:none" />
      <path
         sodipodi:nodetypes="ccccccccc"
         transform="translate(0,1036.3622)"
         inkscape:connector-curvature="0"
         id="path3996"
         d="m 5.1505764,6.7685822 -0.07924,-3.9619818 c 0.039115,-3.8291677 8.8644716,-4.0748701 8.8748396,0 l -0.03962,3.922362 c -0.546128,0.5173548 -1.025278,0.4319065 -1.465933,0 l 0,-3.8827422 C 12.548987,0.83447207 6.9989339,0.23191124 6.5372701,2.8066006 l -0.03962,3.9619816 c -0.3961983,0.3697848 -0.845223,0.3697852 -1.3470741,0 z"
         style="fill:#b3b3b3;stroke:none" />
      <path
         sodipodi:nodetypes="cc"
         inkscape:connector-curvature="0"
         id="path3938"
         d="m 10.763162,1036.8852 c 0.664897,0.1014 1.3045,0.4197 1.973318,1.059"
         style="fill:#ffffff;fill-opacity:0.16402115;stroke:#ffffff;stroke-width:0.5;stroke-linecap:round;stroke-linejoin:round;stroke-miterlimit:4;stroke-opacity:1;stroke-dasharray:none" />
    </g>
    <text
       xml:space="preserve"
       style="font-size:40px;font-style:normal;font-weight:normal;line-height:125%;letter-spacing:0px;word-spacing:0px;fill:#000000;fill-opacity:1;stroke:none;font-family:Bitstream Vera Sans"
       x="3.0493979"
       y="9.0615149"
       id="text4061"
       sodipodi:linespacing="125%"
       transform="translate(0,1036.3622)"><tspan
         sodipodi:role="line"
         id="tspan4063"
         x="3.0493979"
         y="9.0615149"
         style="font-size:4px" /></text>
    <g
       id="g4313"
       transform="translate(-1.2283138,-0.07923964)">
      <path
         sodipodi:nodetypes="ccccc"
         inkscape:connector-curvature="0"
         id="path4041-9"
         d="m 3.6572814,1045.6112 2.6074562,-0.044 3e-7,0.3977 -2.5190682,0 z"
         style="fill:#000000;stroke:#000000;stroke-width:1px;stroke-linecap:round;stroke-linejoin:round;stroke-opacity:1" />
      <path
         sodipodi:nodetypes="ccccc"
         transform="translate(0,1036.3622)"
         inkscape:connector-curvature="0"
         id="path4041"
         d="m 3.3145631,9.2382914 2.6074562,-0.044194 3e-7,0.397748 -2.6074565,-1.6e-6 z"
         style="fill:#999999;fill-opacity:1;stroke:#999999;stroke-width:1px;stroke-linecap:round;stroke-linejoin:round;stroke-opacity:1" />
      <rect
         y="1045.092"
         x="3.5855937"
         height="1.3668838"
         width="0.079239637"
         id="rect4095"
         style="fill:#000000;fill-opacity:1;stroke:none" />
      <rect
         y="1045.0829"
         x="5.5269647"
         height="1.3668838"
         width="0.079239637"
         id="rect4095-6"
         style="fill:#000000;fill-opacity:1;stroke:none" />
      <rect
         y="1045.082"
         x="4.4770393"
         height="1.3668838"
         width="0.079239637"
         id="rect4095-4"
         style="fill:#000000;fill-opacity:1;stroke:none" />
      <path
         sodipodi:nodetypes="cc"
         inkscape:connector-curvature="0"
         id="path4183"
         d="m 4.7345686,1045.5674 c 0.625862,-0.5374 0.766884,0.024 -0.05943,0.6538"
         style="fill:none;stroke:#000000;stroke-width:0.1;stroke-linecap:butt;stroke-linejoin:miter;stroke-miterlimit:4;stroke-opacity:1;stroke-dasharray:none" />
      <path
         sodipodi:nodetypes="cc"
         inkscape:connector-curvature="0"
         id="path4183-4"
         d="m 5.31885,1046.2397 -0.6735372,-2e-4"
         style="fill:none;stroke:#000000;stroke-width:0.1;stroke-linecap:butt;stroke-linejoin:miter;stroke-miterlimit:4;stroke-opacity:1;stroke-dasharray:none" />
      <path
         sodipodi:nodetypes="cc"
         inkscape:connector-curvature="0"
         id="path4183-4-4"
         d="m 4.0609308,1046.3282 2e-4,-1.0761"
         style="fill:none;stroke:#000000;stroke-width:0.1;stroke-linecap:butt;stroke-linejoin:miter;stroke-miterlimit:4;stroke-opacity:1;stroke-dasharray:none" />
      <path
         sodipodi:nodetypes="csc"
         inkscape:connector-curvature="0"
         id="path4183-2-5"
         d="m 3.2351551,1046.2991 c -0.3656421,0.01 -0.333738,-1.0058 0.00938,-0.9829 0.3311562,0.022 0.2716092,1.0056 -0.00938,0.983"
         style="fill:none;stroke:#000000;stroke-width:0.1;stroke-linecap:butt;stroke-linejoin:miter;stroke-miterlimit:4;stroke-opacity:1;stroke-dasharray:none" />
      <g
         transform="translate(-11.806706,0.29714864)"
         id="g4296">
        <path
           style="fill:none;stroke:#000000;stroke-width:0.1;stroke-linecap:butt;stroke-linejoin:miter;stroke-miterlimit:4;stroke-opacity:1;stroke-dasharray:none"
           d="m 17.620803,1045.0101 c 0.546622,0.012 0.529165,0.4601 -0.05943,0.4572"
           id="path4183-2-0"
           inkscape:connector-curvature="0"
           sodipodi:nodetypes="cc" />
        <path
           style="fill:none;stroke:#000000;stroke-width:0.1;stroke-linecap:butt;stroke-linejoin:miter;stroke-miterlimit:4;stroke-opacity:1;stroke-dasharray:none"
           d="m 17.600964,1045.4782 c 0.546622,0.013 0.529165,0.4911 -0.05943,0.4881"
           id="path4183-2-0-4"
           inkscape:connector-curvature="0"
           sodipodi:nodetypes="cc" />
      </g>
    </g>
    <g
       transform="translate(-1.2283138,2.1716356)"
       id="g4313-9">
      <path
         sodipodi:nodetypes="ccccc"
         inkscape:connector-curvature="0"
         id="path4041-9-4"
         d="m 3.6572814,1045.6112 2.6074562,-0.044 3e-7,0.3977 -2.5190682,0 z"
         style="fill:#000000;stroke:#000000;stroke-width:1px;stroke-linecap:round;stroke-linejoin:round;stroke-opacity:1" />
      <path
         sodipodi:nodetypes="ccccc"
         transform="translate(0,1036.3622)"
         inkscape:connector-curvature="0"
         id="path4041-5"
         d="m 3.3145631,9.2382914 2.6074562,-0.044194 3e-7,0.397748 -2.6074565,-1.6e-6 z"
         style="fill:#999999;fill-opacity:1;stroke:#999999;stroke-width:1px;stroke-linecap:round;stroke-linejoin:round;stroke-opacity:1" />
      <rect
         y="1045.092"
         x="3.5855937"
         height="1.3668838"
         width="0.079239637"
         id="rect4095-67"
         style="fill:#000000;fill-opacity:1;stroke:none" />
      <rect
         y="1045.0829"
         x="5.5269647"
         height="1.3668838"
         width="0.079239637"
         id="rect4095-6-8"
         style="fill:#000000;fill-opacity:1;stroke:none" />
      <rect
         y="1045.082"
         x="4.4770393"
         height="1.3668838"
         width="0.079239637"
         id="rect4095-4-2"
         style="fill:#000000;fill-opacity:1;stroke:none" />
      <path
         sodipodi:nodetypes="cc"
         inkscape:connector-curvature="0"
         id="path4183-8"
         d="m 4.7345686,1045.5674 c 0.625862,-0.5374 0.766884,0.024 -0.05943,0.6538"
         style="fill:none;stroke:#000000;stroke-width:0.1;stroke-linecap:butt;stroke-linejoin:miter;stroke-miterlimit:4;stroke-opacity:1;stroke-dasharray:none" />
      <path
         sodipodi:nodetypes="cc"
         inkscape:connector-curvature="0"
         id="path4183-4-0"
         d="m 5.31885,1046.2397 -0.6735372,-2e-4"
         style="fill:none;stroke:#000000;stroke-width:0.1;stroke-linecap:butt;stroke-linejoin:miter;stroke-miterlimit:4;stroke-opacity:1;stroke-dasharray:none" />
      <path
         sodipodi:nodetypes="cc"
         inkscape:connector-curvature="0"
         id="path4183-4-4-2"
         d="m 4.0609308,1046.3282 2e-4,-1.0761"
         style="fill:none;stroke:#000000;stroke-width:0.1;stroke-linecap:butt;stroke-linejoin:miter;stroke-miterlimit:4;stroke-opacity:1;stroke-dasharray:none" />
      <path
         sodipodi:nodetypes="csc"
         inkscape:connector-curvature="0"
         id="path4183-2-5-5"
         d="m 3.2351551,1046.2991 c -0.3656421,0.01 -0.333738,-1.0058 0.00938,-0.9829 0.3311562,0.022 0.2716092,1.0056 -0.00938,0.983"
         style="fill:none;stroke:#000000;stroke-width:0.1;stroke-linecap:butt;stroke-linejoin:miter;stroke-miterlimit:4;stroke-opacity:1;stroke-dasharray:none" />
      <g
         transform="translate(-11.806706,0.29714864)"
         id="g4296-4">
        <path
           style="fill:none;stroke:#000000;stroke-width:0.1;stroke-linecap:butt;stroke-linejoin:miter;stroke-miterlimit:4;stroke-opacity:1;stroke-dasharray:none"
           d="m 17.620803,1045.0101 c 0.546622,0.012 0.529165,0.4601 -0.05943,0.4572"
           id="path4183-2-0-1"
           inkscape:connector-curvature="0"
           sodipodi:nodetypes="cc" />
        <path
           style="fill:none;stroke:#000000;stroke-width:0.1;stroke-linecap:butt;stroke-linejoin:miter;stroke-miterlimit:4;stroke-opacity:1;stroke-dasharray:none"
           d="m 17.600964,1045.4782 c 0.546622,0.013 0.529165,0.4911 -0.05943,0.4881"
           id="path4183-2-0-4-1"
           inkscape:connector-curvature="0"
           sodipodi:nodetypes="cc" />
      </g>
    </g>
    <g
       transform="translate(-1.2283138,4.4225113)"
       id="g4313-3">
      <path
         sodipodi:nodetypes="ccccc"
         inkscape:connector-curvature="0"
         id="path4041-9-2"
         d="m 3.6572814,1045.6112 2.6074562,-0.044 3e-7,0.3977 -2.5190682,0 z"
         style="fill:#000000;stroke:#000000;stroke-width:1px;stroke-linecap:round;stroke-linejoin:round;stroke-opacity:1" />
      <path
         sodipodi:nodetypes="ccccc"
         transform="translate(0,1036.3622)"
         inkscape:connector-curvature="0"
         id="path4041-0"
         d="m 3.3145631,9.2382914 2.6074562,-0.044194 3e-7,0.397748 -2.6074565,-1.6e-6 z"
         style="fill:#999999;fill-opacity:1;stroke:#999999;stroke-width:1px;stroke-linecap:round;stroke-linejoin:round;stroke-opacity:1" />
      <rect
         y="1045.092"
         x="3.5855937"
         height="1.3668838"
         width="0.079239637"
         id="rect4095-5"
         style="fill:#000000;fill-opacity:1;stroke:none" />
      <rect
         y="1045.0829"
         x="5.5269647"
         height="1.3668838"
         width="0.079239637"
         id="rect4095-6-0"
         style="fill:#000000;fill-opacity:1;stroke:none" />
      <rect
         y="1045.082"
         x="4.4770393"
         height="1.3668838"
         width="0.079239637"
         id="rect4095-4-5"
         style="fill:#000000;fill-opacity:1;stroke:none" />
      <path
         sodipodi:nodetypes="cc"
         inkscape:connector-curvature="0"
         id="path4183-7"
         d="m 4.7345686,1045.5674 c 0.625862,-0.5374 0.766884,0.024 -0.05943,0.6538"
         style="fill:none;stroke:#000000;stroke-width:0.1;stroke-linecap:butt;stroke-linejoin:miter;stroke-miterlimit:4;stroke-opacity:1;stroke-dasharray:none" />
      <path
         sodipodi:nodetypes="cc"
         inkscape:connector-curvature="0"
         id="path4183-4-9"
         d="m 5.31885,1046.2397 -0.6735372,-2e-4"
         style="fill:none;stroke:#000000;stroke-width:0.1;stroke-linecap:butt;stroke-linejoin:miter;stroke-miterlimit:4;stroke-opacity:1;stroke-dasharray:none" />
      <path
         sodipodi:nodetypes="cc"
         inkscape:connector-curvature="0"
         id="path4183-4-4-6"
         d="m 4.0609308,1046.3282 2e-4,-1.0761"
         style="fill:none;stroke:#000000;stroke-width:0.1;stroke-linecap:butt;stroke-linejoin:miter;stroke-miterlimit:4;stroke-opacity:1;stroke-dasharray:none" />
      <path
         sodipodi:nodetypes="csc"
         inkscape:connector-curvature="0"
         id="path4183-2-5-4"
         d="m 3.2351551,1046.2991 c -0.3656421,0.01 -0.333738,-1.0058 0.00938,-0.9829 0.3311562,0.022 0.2716092,1.0056 -0.00938,0.983"
         style="fill:none;stroke:#000000;stroke-width:0.1;stroke-linecap:butt;stroke-linejoin:miter;stroke-miterlimit:4;stroke-opacity:1;stroke-dasharray:none" />
      <g
         transform="translate(-11.806706,0.29714864)"
         id="g4296-5">
        <path
           style="fill:none;stroke:#000000;stroke-width:0.1;stroke-linecap:butt;stroke-linejoin:miter;stroke-miterlimit:4;stroke-opacity:1;stroke-dasharray:none"
           d="m 17.620803,1045.0101 c 0.546622,0.012 0.529165,0.4601 -0.05943,0.4572"
           id="path4183-2-0-6"
           inkscape:connector-curvature="0"
           sodipodi:nodetypes="cc" />
        <path
           style="fill:none;stroke:#000000;stroke-width:0.1;stroke-linecap:butt;stroke-linejoin:miter;stroke-miterlimit:4;stroke-opacity:1;stroke-dasharray:none"
           d="m 17.600964,1045.4782 c 0.546622,0.013 0.529165,0.4911 -0.05943,0.4881"
           id="path4183-2-0-4-5"
           inkscape:connector-curvature="0"
           sodipodi:nodetypes="cc" />
      </g>
    </g>
  </g>
</svg>
