<?xml version="1.0" encoding="UTF-8" standalone="no"?>
<!-- Created with Inkscape (http://www.inkscape.org/) -->

<svg
   xmlns:dc="http://purl.org/dc/elements/1.1/"
   xmlns:cc="http://creativecommons.org/ns#"
   xmlns:rdf="http://www.w3.org/1999/02/22-rdf-syntax-ns#"
   xmlns:svg="http://www.w3.org/2000/svg"
   xmlns="http://www.w3.org/2000/svg"
   xmlns:sodipodi="http://sodipodi.sourceforge.net/DTD/sodipodi-0.dtd"
   xmlns:inkscape="http://www.inkscape.org/namespaces/inkscape"
   width="744.09448819"
   height="1052.3622047"
   id="svg2"
   version="1.1"
   inkscape:version="0.47 r22583"
   sodipodi:docname="qmark.svg"
   inkscape:export-filename="C:\Users\Claire\Documents\Icon\qmark.png"
   inkscape:export-xdpi="57.648121"
   inkscape:export-ydpi="57.648121">
  <defs
     id="defs4">
    <inkscape:perspective
       sodipodi:type="inkscape:persp3d"
       inkscape:vp_x="0 : 526.18109 : 1"
       inkscape:vp_y="0 : 1000 : 0"
       inkscape:vp_z="744.09448 : 526.18109 : 1"
       inkscape:persp3d-origin="372.04724 : 350.78739 : 1"
       id="perspective10" />
    <inkscape:perspective
       id="perspective2840"
       inkscape:persp3d-origin="0.5 : 0.33333333 : 1"
       inkscape:vp_z="1 : 0.5 : 1"
       inkscape:vp_y="0 : 1000 : 0"
       inkscape:vp_x="0 : 0.5 : 1"
       sodipodi:type="inkscape:persp3d" />
    <filter
       id="filter2863"
       inkscape:label="Metallized paint"
       inkscape:menu="Materials"
       inkscape:menu-tooltip="Metallized effect with a soft lighting, slightly translucent at the edges"
       height="1.1"
       width="1.1"
       y="-0.05"
       x="-0.05"
       color-interpolation-filters="sRGB">
      <feGaussianBlur
         id="feGaussianBlur2865"
         stdDeviation="1"
         result="result1" />
      <feComposite
         id="feComposite2867"
         in2="result1"
         in="result1"
         result="result4"
         operator="in" />
      <feBlend
         id="feBlend2869"
         in2="result4"
         in="result1"
         mode="screen"
         result="result5" />
      <feGaussianBlur
         id="feGaussianBlur2871"
         stdDeviation="8"
         result="result6"
         in="result5" />
      <feComposite
         id="feComposite2873"
         in2="result5"
         operator="atop"
         in="result6"
         result="result8" />
      <feComposite
         id="feComposite2875"
         in2="result8"
         operator="in"
         result="fbSourceGraphic"
         in="result6" />
      <feGaussianBlur
         id="feGaussianBlur2877"
         result="result0"
         in="fbSourceGraphic"
         stdDeviation="2.5" />
      <feSpecularLighting
         id="feSpecularLighting2879"
         specularExponent="45"
         specularConstant="1.5"
         surfaceScale="1"
         lighting-color="rgb(255,255,255)"
         result="result1"
         in="result0">
        <fePointLight
           id="fePointLight2881"
           z="21000"
           y="-9000"
           x="-6000" />
      </feSpecularLighting>
      <feComposite
         id="feComposite2883"
         in2="fbSourceGraphic"
         operator="in"
         result="result2"
         in="result1" />
      <feComposite
         id="feComposite2885"
         in2="result2"
         k3="1"
         k2="1"
         operator="arithmetic"
         result="result4"
         in="fbSourceGraphic" />
      <feComposite
         id="feComposite2887"
         in2="result4"
         operator="in"
         in="result9"
         result="result91" />
      <feBlend
         id="feBlend2889"
         in2="result91"
         mode="multiply" />
    </filter>
    <filter
       id="filter2891"
       inkscape:label="Metallized paint"
       inkscape:menu="Materials"
       inkscape:menu-tooltip="Metallized effect with a soft lighting, slightly translucent at the edges"
       height="1.1"
       width="1.1"
       y="-0.05"
       x="-0.05"
       color-interpolation-filters="sRGB">
      <feGaussianBlur
         id="feGaussianBlur2893"
         stdDeviation="1"
         result="result1" />
      <feComposite
         id="feComposite2895"
         in2="result1"
         in="result1"
         result="result4"
         operator="in" />
      <feBlend
         id="feBlend2897"
         in2="result4"
         in="result1"
         mode="screen"
         result="result5" />
      <feGaussianBlur
         id="feGaussianBlur2899"
         stdDeviation="8"
         result="result6"
         in="result5" />
      <feComposite
         id="feComposite2901"
         in2="result5"
         operator="atop"
         in="result6"
         result="result8" />
      <feComposite
         id="feComposite2903"
         in2="result8"
         operator="in"
         result="fbSourceGraphic"
         in="result6" />
      <feGaussianBlur
         id="feGaussianBlur2905"
         result="result0"
         in="fbSourceGraphic"
         stdDeviation="2.5" />
      <feSpecularLighting
         id="feSpecularLighting2907"
         specularExponent="45"
         specularConstant="1.5"
         surfaceScale="1"
         lighting-color="rgb(255,255,255)"
         result="result1"
         in="result0">
        <fePointLight
           id="fePointLight2909"
           z="21000"
           y="-9000"
           x="-6000" />
      </feSpecularLighting>
      <feComposite
         id="feComposite2911"
         in2="fbSourceGraphic"
         operator="in"
         result="result2"
         in="result1" />
      <feComposite
         id="feComposite2913"
         in2="result2"
         k3="1"
         k2="1"
         operator="arithmetic"
         result="result4"
         in="fbSourceGraphic" />
      <feComposite
         id="feComposite2915"
         in2="result4"
         operator="in"
         in="result9"
         result="result91" />
      <feBlend
         id="feBlend2917"
         in2="result91"
         mode="multiply" />
    </filter>
    <inkscape:perspective
       id="perspective3177"
       inkscape:persp3d-origin="0.5 : 0.33333333 : 1"
       inkscape:vp_z="1 : 0.5 : 1"
       inkscape:vp_y="0 : 1000 : 0"
       inkscape:vp_x="0 : 0.5 : 1"
       sodipodi:type="inkscape:persp3d" />
    <filter
       id="filter2891-7"
       inkscape:label="Metallized paint"
       inkscape:menu="Materials"
       inkscape:menu-tooltip="Metallized effect with a soft lighting, slightly translucent at the edges"
       height="1.1"
       width="1.1"
       y="-0.050000001"
       x="-0.050000001"
       color-interpolation-filters="sRGB">
      <feGaussianBlur
         id="feGaussianBlur2893-4"
         stdDeviation="1"
         result="result1" />
      <feComposite
         id="feComposite2895-0"
         in2="result1"
         in="result1"
         result="result4"
         operator="in" />
      <feBlend
         id="feBlend2897-9"
         in2="result4"
         in="result1"
         mode="screen"
         result="result5" />
      <feGaussianBlur
         id="feGaussianBlur2899-4"
         stdDeviation="8"
         result="result6"
         in="result5" />
      <feComposite
         id="feComposite2901-8"
         in2="result5"
         operator="atop"
         in="result6"
         result="result8" />
      <feComposite
         id="feComposite2903-8"
         in2="result8"
         operator="in"
         result="fbSourceGraphic"
         in="result6" />
      <feGaussianBlur
         id="feGaussianBlur2905-2"
         result="result0"
         in="fbSourceGraphic"
         stdDeviation="2.5" />
      <feSpecularLighting
         id="feSpecularLighting2907-4"
         specularExponent="45"
         specularConstant="1.5"
         surfaceScale="1"
         lighting-color="#ffffff"
         result="result1"
         in="result0">
        <fePointLight
           id="fePointLight2909-5"
           z="21000"
           y="-9000"
           x="-6000" />
      </feSpecularLighting>
      <feComposite
         id="feComposite2911-5"
         in2="fbSourceGraphic"
         operator="in"
         result="result2"
         in="result1" />
      <feComposite
         k4="0"
         k1="0"
         id="feComposite2913-1"
         in2="result2"
         k3="1"
         k2="1"
         operator="arithmetic"
         result="result4"
         in="fbSourceGraphic" />
      <feComposite
         id="feComposite2915-7"
         in2="result4"
         operator="in"
         result="result91" />
      <feBlend
         id="feBlend2917-1"
         in2="result91"
         mode="multiply" />
    </filter>
    <inkscape:perspective
       id="perspective3241"
       inkscape:persp3d-origin="0.5 : 0.33333333 : 1"
       inkscape:vp_z="1 : 0.5 : 1"
       inkscape:vp_y="0 : 1000 : 0"
       inkscape:vp_x="0 : 0.5 : 1"
       sodipodi:type="inkscape:persp3d" />
    <filter
       id="filter2863-5"
       inkscape:label="Metallized paint"
       inkscape:menu="Materials"
       inkscape:menu-tooltip="Metallized effect with a soft lighting, slightly translucent at the edges"
       height="1.1"
       width="1.1"
       y="-0.050000001"
       x="-0.050000001"
       color-interpolation-filters="sRGB">
      <feGaussianBlur
         id="feGaussianBlur2865-2"
         stdDeviation="1"
         result="result1" />
      <feComposite
         id="feComposite2867-7"
         in2="result1"
         in="result1"
         result="result4"
         operator="in" />
      <feBlend
         id="feBlend2869-6"
         in2="result4"
         in="result1"
         mode="screen"
         result="result5" />
      <feGaussianBlur
         id="feGaussianBlur2871-1"
         stdDeviation="8"
         result="result6"
         in="result5" />
      <feComposite
         id="feComposite2873-4"
         in2="result5"
         operator="atop"
         in="result6"
         result="result8" />
      <feComposite
         id="feComposite2875-2"
         in2="result8"
         operator="in"
         result="fbSourceGraphic"
         in="result6" />
      <feGaussianBlur
         id="feGaussianBlur2877-3"
         result="result0"
         in="fbSourceGraphic"
         stdDeviation="2.5" />
      <feSpecularLighting
         id="feSpecularLighting2879-2"
         specularExponent="45"
         specularConstant="1.5"
         surfaceScale="1"
         lighting-color="#ffffff"
         result="result1"
         in="result0">
        <fePointLight
           id="fePointLight2881-2"
           z="21000"
           y="-9000"
           x="-6000" />
      </feSpecularLighting>
      <feComposite
         id="feComposite2883-1"
         in2="fbSourceGraphic"
         operator="in"
         result="result2"
         in="result1" />
      <feComposite
         k4="0"
         k1="0"
         id="feComposite2885-6"
         in2="result2"
         k3="1"
         k2="1"
         operator="arithmetic"
         result="result4"
         in="fbSourceGraphic" />
      <feComposite
         id="feComposite2887-8"
         in2="result4"
         operator="in"
         result="result91" />
      <feBlend
         id="feBlend2889-5"
         in2="result91"
         mode="multiply" />
    </filter>
  </defs>
  <sodipodi:namedview
     id="base"
     pagecolor="#ffffff"
     bordercolor="#666666"
     borderopacity="1.0"
     inkscape:pageopacity="0.0"
     inkscape:pageshadow="2"
     inkscape:zoom="0.46307208"
     inkscape:cx="375"
     inkscape:cy="584.79115"
     inkscape:document-units="px"
     inkscape:current-layer="layer1"
     showgrid="false"
     inkscape:window-width="1366"
     inkscape:window-height="706"
     inkscape:window-x="-8"
     inkscape:window-y="-8"
     inkscape:window-maximized="1" />
  <metadata
     id="metadata7">
    <rdf:RDF>
      <cc:Work
         rdf:about="">
        <dc:format>image/svg+xml</dc:format>
        <dc:type
           rdf:resource="http://purl.org/dc/dcmitype/StillImage" />
        <dc:title></dc:title>
      </cc:Work>
    </rdf:RDF>
  </metadata>
  <g
     inkscape:label="Layer 1"
     inkscape:groupmode="layer"
     id="layer1">
    <g
       id="g3297">
      <path
         transform="translate(14.78633,-35.30283)"
         d="m 332.88397,714.13373 a 41.992245,45.046227 0 1 1 -83.98449,0 41.992245,45.046227 0 1 1 83.98449,0 z"
         sodipodi:ry="45.046227"
         sodipodi:rx="41.992245"
         sodipodi:cy="714.13373"
         sodipodi:cx="290.89172"
         id="path2816-1"
         style="fill:#e3dbdb;fill-rule:evenodd;stroke:#000000;stroke-width:1px;stroke-linecap:butt;stroke-linejoin:miter;stroke-opacity:1;filter:url(#filter2891-7)"
         sodipodi:type="arc" />
      <path
         transform="translate(2,-48)"
         d="m 332.88397,714.13373 a 41.992245,45.046227 0 1 1 -83.98449,0 41.992245,45.046227 0 1 1 83.98449,0 z"
         sodipodi:ry="45.046227"
         sodipodi:rx="41.992245"
         sodipodi:cy="714.13373"
         sodipodi:cx="290.89172"
         id="path2816"
         style="fill:#000080;fill-rule:evenodd;stroke:#000000;stroke-width:1px;stroke-linecap:butt;stroke-linejoin:miter;stroke-opacity:1;filter:url(#filter2891)"
         sodipodi:type="arc" />
      <path
         id="path2822-7"
         d="m 308.80236,112.96819 c -70.46799,0 -130.36871,40.19755 -152.28125,96.2025 -5.28269,22.76909 34.22901,66.66436 77.5,0 17.27051,-21.08371 45.35954,-34.80722 77.09375,-34.80722 52.51629,0 95.09375,37.57889 95.09375,83.92896 0,45.82749 -41.61427,83.0668 -93.3125,83.90137 -4.23818,-0.89254 -8.61172,-1.06817 -12.90625,-0.55162 -0.54016,-0.0563 -1.08754,-0.10184 -1.625,-0.16548 l 0,0.38613 c -16.4126,2.66507 -31.20379,15.72568 -31.75,39.13743 l -1.5,181.9242 c 1.28348,48.36075 78.62009,50.42539 77.875,0 l 0,-166.61676 c 72.60397,-13.94078 127.03125,-71.34863 127.03125,-140.05626 0,-79.13426 -72.19723,-143.28325 -161.21875,-143.28325 z"
         style="fill:#c8b7b7;stroke:#000000;stroke-width:0.99999994px;stroke-linecap:butt;stroke-linejoin:miter;stroke-opacity:1;filter:url(#filter2863-5)" />
      <path
         id="path2822"
         d="m 295.65625,98.9375 c -70.46799,0 -130.36871,40.19755 -152.28125,96.20249 -5.28269,22.76909 34.22901,66.66436 77.5,0 17.27051,-21.08371 45.35954,-34.80721 77.09375,-34.80721 52.51629,0 95.09375,37.57888 95.09375,83.92895 0,45.82749 -41.61427,83.0668 -93.3125,83.90137 -4.23818,-0.89254 -8.61172,-1.06817 -12.90625,-0.55162 -0.54016,-0.0563 -1.08754,-0.10184 -1.625,-0.16548 l 0,0.38613 c -16.4126,2.66507 -31.20379,15.72568 -31.75,39.13743 l -1.5,181.9242 c 1.28348,48.36075 78.62009,50.42539 77.875,0 l 0,-166.61676 C 402.44772,368.33622 456.875,310.92837 456.875,242.22074 456.875,163.08649 384.67777,98.9375 295.65625,98.9375 z"
         style="fill:#000080;stroke:#000000;stroke-width:0.99999994000000003px;stroke-linecap:butt;stroke-linejoin:miter;stroke-opacity:1;filter:url(#filter2863)" />
    </g>
  </g>
</svg>
