<?xml version="1.0" encoding="UTF-8" standalone="no"?>
<!-- Created with Inkscape (http://www.inkscape.org/) -->

<svg
   xmlns:dc="http://purl.org/dc/elements/1.1/"
   xmlns:cc="http://creativecommons.org/ns#"
   xmlns:rdf="http://www.w3.org/1999/02/22-rdf-syntax-ns#"
   xmlns:svg="http://www.w3.org/2000/svg"
   xmlns="http://www.w3.org/2000/svg"
   xmlns:xlink="http://www.w3.org/1999/xlink"
   xmlns:sodipodi="http://sodipodi.sourceforge.net/DTD/sodipodi-0.dtd"
   xmlns:inkscape="http://www.inkscape.org/namespaces/inkscape"
   width="744.09448819"
   height="1052.3622047"
   id="svg2"
   version="1.1"
   inkscape:version="0.48.3.1 r9886"
   sodipodi:docname="New document 1">
  <defs
     id="defs4">
    <inkscape:path-effect
       effect="spiro"
       id="path-effect3935"
       is_visible="true" />
    <inkscape:path-effect
       effect="spiro"
       id="path-effect3840"
       is_visible="true" />
    <inkscape:path-effect
       effect="spiro"
       id="path-effect3836"
       is_visible="true" />
    <inkscape:path-effect
       effect="spiro"
       id="path-effect3832"
       is_visible="true" />
    <inkscape:path-effect
       effect="spiro"
       id="path-effect3828"
       is_visible="true" />
    <linearGradient
       id="linearGradient3818">
      <stop
         style="stop-color:#953d14;stop-opacity:1;"
         offset="0"
         id="stop3820" />
      <stop
         style="stop-color:#551200;stop-opacity:1;"
         offset="1"
         id="stop3822" />
    </linearGradient>
    <inkscape:path-effect
       effect="spiro"
       id="path-effect3771"
       is_visible="true" />
    <inkscape:path-effect
       effect="skeletal"
       id="path-effect3767"
       is_visible="true"
       pattern="M 0,0 0,10 10,5 z"
       copytype="single_stretched"
       prop_scale="1"
       scale_y_rel="false"
       spacing="0"
       normal_offset="0"
       tang_offset="0"
       prop_units="false"
       vertical_pattern="false"
       fuse_tolerance="0" />
    <inkscape:path-effect
       effect="spiro"
       id="path-effect3765"
       is_visible="true" />
    <linearGradient
       id="linearGradient3755">
      <stop
         style="stop-color:#ff0000;stop-opacity:1;"
         offset="0"
         id="stop3757" />
      <stop
         style="stop-color:#800000;stop-opacity:1;"
         offset="1"
         id="stop3759" />
    </linearGradient>
    <radialGradient
       inkscape:collect="always"
       xlink:href="#linearGradient3755"
       id="radialGradient3761"
       cx="139.36516"
       cy="456.0112"
       fx="139.36516"
       fy="456.0112"
       r="19.187822"
       gradientTransform="matrix(1,0,0,0.97367719,0,12.119357)"
       gradientUnits="userSpaceOnUse" />
    <radialGradient
       inkscape:collect="always"
       xlink:href="#linearGradient3818"
       id="radialGradient3824"
       cx="178.6404"
       cy="465.22968"
       fx="178.6404"
       fy="465.22968"
       r="51.567807"
       gradientTransform="matrix(2.3652296,-0.30984576,0.07953074,0.60710352,-280.88521,237.82095)"
       gradientUnits="userSpaceOnUse" />
    <inkscape:path-effect
       effect="spiro"
       id="path-effect3836-5"
       is_visible="true" />
    <inkscape:path-effect
       effect="spiro"
       id="path-effect3836-5-2"
       is_visible="true" />
    <inkscape:path-effect
       effect="spiro"
       id="path-effect3828-7"
       is_visible="true" />
    <inkscape:path-effect
       effect="spiro"
       id="path-effect3840-6"
       is_visible="true" />
    <inkscape:path-effect
       effect="spiro"
       id="path-effect3836-5-8"
       is_visible="true" />
    <inkscape:path-effect
       effect="spiro"
       id="path-effect3836-5-2-8"
       is_visible="true" />
    <radialGradient
       inkscape:collect="always"
       xlink:href="#linearGradient3755-8"
       id="radialGradient3761-2"
       cx="139.36516"
       cy="456.0112"
       fx="139.36516"
       fy="456.0112"
       r="19.187822"
       gradientTransform="matrix(1,0,0,0.97367719,0,12.119357)"
       gradientUnits="userSpaceOnUse" />
    <linearGradient
       id="linearGradient3755-8">
      <stop
         style="stop-color:#ff0000;stop-opacity:1;"
         offset="0"
         id="stop3757-5" />
      <stop
         style="stop-color:#800000;stop-opacity:1;"
         offset="1"
         id="stop3759-9" />
    </linearGradient>
  </defs>
  <sodipodi:namedview
     id="base"
     pagecolor="#ffffff"
     bordercolor="#666666"
     borderopacity="1.0"
     inkscape:pageopacity="0.0"
     inkscape:pageshadow="2"
     inkscape:zoom="0.729824"
     inkscape:cx="195.37937"
     inkscape:cy="611.29725"
     inkscape:document-units="px"
     inkscape:current-layer="layer1"
     showgrid="false"
     inkscape:window-width="1301"
     inkscape:window-height="744"
     inkscape:window-x="65"
     inkscape:window-y="24"
     inkscape:window-maximized="1" />
  <metadata
     id="metadata7">
    <rdf:RDF>
      <cc:Work
         rdf:about="">
        <dc:format>image/svg+xml</dc:format>
        <dc:type
           rdf:resource="http://purl.org/dc/dcmitype/StillImage" />
        <dc:title></dc:title>
      </cc:Work>
    </rdf:RDF>
  </metadata>
  <g
     inkscape:label="Layer 1"
     inkscape:groupmode="layer"
     id="layer1">
    <g
       id="g3973">
      <g
         style="stroke:#000000"
         id="g3885">
        <path
           style="fill:none;stroke:#000000;stroke-width:6;stroke-linecap:round;stroke-linejoin:round;stroke-miterlimit:4;stroke-opacity:1;stroke-dasharray:none"
           d="M 199.26098,432.1076 188.49,417.93837 177.43659,394.03093"
           id="path3826"
           inkscape:path-effect="#path-effect3828"
           inkscape:original-d="M 199.26098,432.1076 188.49,417.93837 177.43659,394.03093"
           inkscape:connector-curvature="0"
           sodipodi:nodetypes="ccc" />
        <path
           style="fill:none;stroke:#000000;stroke-width:6;stroke-linecap:round;stroke-linejoin:round;stroke-miterlimit:4;stroke-opacity:1;stroke-dasharray:none"
           d="M 187.77572,417.22408 139.20429,395.08122"
           id="path3838"
           inkscape:path-effect="#path-effect3840"
           inkscape:original-d="M 187.77572,417.22408 139.20429,395.08122"
           inkscape:connector-curvature="0" />
        <path
           style="fill:none;stroke:#000000;stroke-width:6;stroke-linecap:round;stroke-linejoin:round;stroke-miterlimit:4;stroke-opacity:1;stroke-dasharray:none"
           d="m 136.0205,413.31981 22.49639,-8.09419"
           id="path3834-8"
           inkscape:path-effect="#path-effect3836-5"
           inkscape:original-d="m 136.0205,413.31981 22.49639,-8.09419"
           inkscape:connector-curvature="0"
           sodipodi:nodetypes="cc" />
        <path
           style="fill:none;stroke:#000000;stroke-width:6;stroke-linecap:round;stroke-linejoin:round;stroke-miterlimit:4;stroke-opacity:1;stroke-dasharray:none"
           d="m 147.82374,386.15583 9.5475,19.10533"
           id="path3834-8-5"
           inkscape:path-effect="#path-effect3836-5-2"
           inkscape:original-d="m 147.82374,386.15583 9.5475,19.10533"
           inkscape:connector-curvature="0"
           sodipodi:nodetypes="cc" />
      </g>
      <g
         style="stroke:#000000"
         id="g3885-0"
         transform="matrix(-1,0,0,1,409.37456,-1.5545303)">
        <path
           style="fill:none;stroke:#000000;stroke-width:6;stroke-linecap:round;stroke-linejoin:round;stroke-miterlimit:4;stroke-opacity:1;stroke-dasharray:none"
           d="M 199.26098,432.1076 188.49,417.93837 177.43659,394.03093"
           id="path3826-2"
           inkscape:path-effect="#path-effect3828-7"
           inkscape:original-d="M 199.26098,432.1076 188.49,417.93837 177.43659,394.03093"
           inkscape:connector-curvature="0"
           sodipodi:nodetypes="ccc" />
        <path
           style="fill:none;stroke:#000000;stroke-width:6;stroke-linecap:round;stroke-linejoin:round;stroke-miterlimit:4;stroke-opacity:1;stroke-dasharray:none"
           d="M 187.77572,417.22408 139.20429,395.08122"
           id="path3838-6"
           inkscape:path-effect="#path-effect3840-6"
           inkscape:original-d="M 187.77572,417.22408 139.20429,395.08122"
           inkscape:connector-curvature="0" />
        <path
           style="fill:none;stroke:#000000;stroke-width:6;stroke-linecap:round;stroke-linejoin:round;stroke-miterlimit:4;stroke-opacity:1;stroke-dasharray:none"
           d="m 136.0205,413.31981 22.49639,-8.09419"
           id="path3834-8-4"
           inkscape:path-effect="#path-effect3836-5-8"
           inkscape:original-d="m 136.0205,413.31981 22.49639,-8.09419"
           inkscape:connector-curvature="0"
           sodipodi:nodetypes="cc" />
        <path
           style="fill:none;stroke:#000000;stroke-width:6;stroke-linecap:round;stroke-linejoin:round;stroke-miterlimit:4;stroke-opacity:1;stroke-dasharray:none"
           d="m 147.82374,386.15583 9.5475,19.10533"
           id="path3834-8-5-4"
           inkscape:path-effect="#path-effect3836-5-2-8"
           inkscape:original-d="m 147.82374,386.15583 9.5475,19.10533"
           inkscape:connector-curvature="0"
           sodipodi:nodetypes="cc" />
      </g>
      <path
         id="path3773"
         d="M 205.03125 428.5 C 198.63842 428.67739 192.06565 430.54214 186.03125 434.21875 C 181.37214 437.05743 177.5082 440.68689 174.5 444.8125 C 154.82707 444.22749 139.01124 451.28889 136.65625 462.9375 C 133.76389 477.24415 152.25544 493.08282 177.96875 498.28125 C 185.29551 499.76249 192.43174 500.18094 198.9375 499.75 C 206.15607 500.07799 213.71668 498.28378 220.59375 494.09375 C 238.14836 483.39816 244.63398 461.31744 235.09375 444.78125 C 228.83297 433.92937 217.23574 428.16135 205.03125 428.5 z "
         style="fill:url(#radialGradient3824);fill-opacity:1;stroke:#000000;stroke-width:2;stroke-miterlimit:4;stroke-dasharray:none;stroke-linejoin:round;stroke-linecap:round" />
      <path
         d="m 161.62441,460.41278 a 18.687822,18.182745 0 1 1 -37.37565,0 18.687822,18.182745 0 1 1 37.37565,0 z"
         sodipodi:ry="18.182745"
         sodipodi:rx="18.687822"
         sodipodi:cy="460.41278"
         sodipodi:cx="142.93658"
         id="path2985"
         style="fill:url(#radialGradient3761);fill-opacity:1;stroke:#000000;stroke-width:2;stroke-miterlimit:4;stroke-dasharray:none;stroke-linejoin:round;stroke-linecap:round"
         sodipodi:type="arc" />
      <g
         style="stroke:#000000;stroke-width:2;stroke-miterlimit:4;stroke-dasharray:none;stroke-linejoin:round;stroke-linecap:round"
         transform="matrix(0.94745861,0.31987838,-0.31987838,0.94745861,160.13693,-54.964472)"
         id="g3814">
        <path
           sodipodi:type="arc"
           style="fill:#ffffff;fill-opacity:1;stroke:#000000;stroke-width:2;stroke-miterlimit:4;stroke-dasharray:none;stroke-linejoin:round;stroke-linecap:round"
           id="path3794"
           sodipodi:cx="346.78571"
           sodipodi:cy="489.14789"
           sodipodi:rx="10.357142"
           sodipodi:ry="15.357142"
           d="m 357.14285,489.14789 c 0,8.48151 -4.63705,15.35714 -10.35714,15.35714 -5.7201,0 -10.35715,-6.87563 -10.35715,-15.35714 0,-8.48152 4.63705,-15.35714 10.35715,-15.35714 5.72009,0 10.35714,6.87562 10.35714,15.35714 z"
           transform="translate(-140.71429,-22.377812)" />
        <path
           transform="matrix(0.67105262,0,0,0.67105262,-26.640041,143.74227)"
           sodipodi:type="arc"
           style="fill:#000000;fill-opacity:1;stroke:#000000;stroke-width:2.98039221000000021;stroke-miterlimit:4;stroke-dasharray:none;stroke-linejoin:round;stroke-linecap:round"
           id="path3794-6"
           sodipodi:cx="346.78571"
           sodipodi:cy="489.14789"
           sodipodi:rx="10.357142"
           sodipodi:ry="15.357142"
           d="m 357.14285,489.14789 c 0,8.48151 -4.63705,15.35714 -10.35714,15.35714 -5.7201,0 -10.35715,-6.87563 -10.35715,-15.35714 0,-8.48152 4.63705,-15.35714 10.35715,-15.35714 5.72009,0 10.35714,6.87562 10.35714,15.35714 z" />
      </g>
      <path
         sodipodi:nodetypes="cc"
         inkscape:connector-curvature="0"
         id="path3937"
         d="m 167.992,495.31897 c 22.48045,1.02946 39.83181,-6.60697 50.97331,-19.43623"
         style="fill:none;stroke:#000000;stroke-width:2;stroke-linecap:round;stroke-linejoin:round;stroke-miterlimit:4;stroke-opacity:1;stroke-dasharray:none" />
      <path
         d="m 161.62441,460.41278 a 18.687822,18.182745 0 1 1 -37.37565,0 18.687822,18.182745 0 1 1 37.37565,0 z"
         sodipodi:ry="18.182745"
         sodipodi:rx="18.687822"
         sodipodi:cy="460.41278"
         sodipodi:cx="142.93658"
         id="path2985-4"
         style="fill:#ffffff;fill-opacity:1;stroke:#ffffff;stroke-width:2;stroke-linecap:round;stroke-linejoin:round;stroke-miterlimit:4;stroke-dasharray:none"
         sodipodi:type="arc"
         transform="matrix(0.23444417,0,0,0.23444417,103.16614,342.95032)" />
    </g>
  </g>
</svg>
