<?xml version="1.0" encoding="UTF-8" standalone="no"?>
<!-- Created with Inkscape (http://www.inkscape.org/) -->

<svg
   xmlns:dc="http://purl.org/dc/elements/1.1/"
   xmlns:cc="http://creativecommons.org/ns#"
   xmlns:rdf="http://www.w3.org/1999/02/22-rdf-syntax-ns#"
   xmlns:svg="http://www.w3.org/2000/svg"
   xmlns="http://www.w3.org/2000/svg"
   xmlns:xlink="http://www.w3.org/1999/xlink"
   xmlns:sodipodi="http://sodipodi.sourceforge.net/DTD/sodipodi-0.dtd"
   xmlns:inkscape="http://www.inkscape.org/namespaces/inkscape"
   width="160"
   height="160"
   id="svg2"
   version="1.1"
   inkscape:version="0.47 r22583"
   sodipodi:docname="select.svg"
   inkscape:export-filename="C:\Users\Claire\Documents\selectall.png"
   inkscape:export-xdpi="19.427095"
   inkscape:export-ydpi="19.427095">
  <defs
     id="defs4">
    <linearGradient
       id="linearGradient4536">
      <stop
         style="stop-color:#000000;stop-opacity:1;"
         offset="0"
         id="stop4538" />
      <stop
         style="stop-color:#000000;stop-opacity:0;"
         offset="1"
         id="stop4540" />
    </linearGradient>
    <linearGradient
       id="linearGradient4528">
      <stop
         style="stop-color:#c8ebfa;stop-opacity:1;"
         offset="0"
         id="stop4530" />
      <stop
         style="stop-color:#008080;stop-opacity:1;"
         offset="1"
         id="stop4532" />
    </linearGradient>
    <linearGradient
       id="linearGradient4516">
      <stop
         style="stop-color:#ffffff;stop-opacity:1;"
         offset="0"
         id="stop4518" />
      <stop
         style="stop-color:#008080;stop-opacity:1;"
         offset="1"
         id="stop4520" />
    </linearGradient>
    <linearGradient
       id="linearGradient3694">
      <stop
         style="stop-color:#7d7d7d;stop-opacity:1;"
         offset="0"
         id="stop3696" />
      <stop
         style="stop-color:#4b4b4b;stop-opacity:1;"
         offset="1"
         id="stop3698" />
    </linearGradient>
    <linearGradient
       id="linearGradient3641">
      <stop
         style="stop-color:#e1e1e1;stop-opacity:1;"
         offset="0"
         id="stop3643" />
      <stop
         id="stop3649"
         offset="0.54166669"
         style="stop-color:#ffffff;stop-opacity:1;" />
      <stop
         style="stop-color:#e0e1e1;stop-opacity:1;"
         offset="1"
         id="stop3645" />
    </linearGradient>
    <linearGradient
       id="linearGradient3612">
      <stop
         style="stop-color:#000000;stop-opacity:1;"
         offset="0"
         id="stop3614" />
      <stop
         style="stop-color:#00ffff;stop-opacity:0;"
         offset="1"
         id="stop3616" />
    </linearGradient>
    <inkscape:perspective
       sodipodi:type="inkscape:persp3d"
       inkscape:vp_x="0 : 526.18109 : 1"
       inkscape:vp_y="0 : 1000 : 0"
       inkscape:vp_z="744.09448 : 526.18109 : 1"
       inkscape:persp3d-origin="372.04724 : 350.78739 : 1"
       id="perspective10" />
    <radialGradient
       inkscape:collect="always"
       xlink:href="#linearGradient3612"
       id="radialGradient3618"
       cx="125.52163"
       cy="977.32147"
       fx="125.52163"
       fy="977.32147"
       r="16.978374"
       gradientTransform="matrix(1,0,0,1.6221053,0,-607.99685)"
       gradientUnits="userSpaceOnUse" />
    <radialGradient
       inkscape:collect="always"
       xlink:href="#linearGradient3612"
       id="radialGradient3635"
       gradientUnits="userSpaceOnUse"
       gradientTransform="matrix(1,0,0,1.6221053,0,-607.99685)"
       cx="125.52163"
       cy="977.32147"
       fx="125.52163"
       fy="977.32147"
       r="16.978374" />
    <inkscape:perspective
       id="perspective3661"
       inkscape:persp3d-origin="0.5 : 0.33333333 : 1"
       inkscape:vp_z="1 : 0.5 : 1"
       inkscape:vp_y="0 : 1000 : 0"
       inkscape:vp_x="0 : 0.5 : 1"
       sodipodi:type="inkscape:persp3d" />
    <linearGradient
       inkscape:collect="always"
       xlink:href="#linearGradient3641-7"
       id="linearGradient3651-1"
       x1="28.82469"
       y1="94.875"
       x2="50.87933"
       y2="94.875"
       gradientUnits="userSpaceOnUse" />
    <linearGradient
       id="linearGradient3641-7">
      <stop
         style="stop-color:#f5f5f5;stop-opacity:1;"
         offset="0"
         id="stop3643-4" />
      <stop
         id="stop3704"
         offset="0.28"
         style="stop-color:#ffffff;stop-opacity:1;" />
      <stop
         style="stop-color:#ebebeb;stop-opacity:1;"
         offset="1"
         id="stop3645-9" />
    </linearGradient>
    <linearGradient
       gradientTransform="matrix(2.9637116,0,0,2.9637116,187.23381,713.9185)"
       y2="94.875"
       x2="50.87933"
       y1="94.875"
       x1="28.82469"
       gradientUnits="userSpaceOnUse"
       id="linearGradient3671"
       xlink:href="#linearGradient3641-7"
       inkscape:collect="always" />
    <linearGradient
       inkscape:collect="always"
       xlink:href="#linearGradient3694"
       id="linearGradient3702"
       x1="108.03675"
       y1="989.23718"
       x2="132.62933"
       y2="989.23718"
       gradientUnits="userSpaceOnUse"
       gradientTransform="matrix(2.9637116,0,0,2.9637116,-55.79052,-1936.713)" />
    <filter
       id="filter3708"
       inkscape:label="Metallized paint"
       inkscape:menu="Materials"
       inkscape:menu-tooltip="Metallized effect with a soft lighting, slightly translucent at the edges"
       height="1.1"
       width="1.1"
       y="-0.05"
       x="-0.05"
       color-interpolation-filters="sRGB">
      <feGaussianBlur
         id="feGaussianBlur3710"
         stdDeviation="1"
         result="result1" />
      <feComposite
         id="feComposite3712"
         in2="result1"
         in="result1"
         result="result4"
         operator="in" />
      <feBlend
         id="feBlend3714"
         in2="result4"
         in="result1"
         mode="screen"
         result="result5" />
      <feGaussianBlur
         id="feGaussianBlur3716"
         stdDeviation="8"
         result="result6"
         in="result5" />
      <feComposite
         id="feComposite3718"
         in2="result5"
         operator="atop"
         in="result6"
         result="result8" />
      <feComposite
         id="feComposite3720"
         in2="result8"
         operator="in"
         result="fbSourceGraphic"
         in="result6" />
      <feGaussianBlur
         id="feGaussianBlur3722"
         result="result0"
         in="fbSourceGraphic"
         stdDeviation="2.5" />
      <feSpecularLighting
         id="feSpecularLighting3724"
         specularExponent="45"
         specularConstant="1.5"
         surfaceScale="1"
         lighting-color="rgb(255,255,255)"
         result="result1"
         in="result0">
        <fePointLight
           id="fePointLight3726"
           z="21000"
           y="-9000"
           x="-6000" />
      </feSpecularLighting>
      <feComposite
         id="feComposite3728"
         in2="fbSourceGraphic"
         operator="in"
         result="result2"
         in="result1" />
      <feComposite
         id="feComposite3730"
         in2="result2"
         k3="1"
         k2="1"
         operator="arithmetic"
         result="result4"
         in="fbSourceGraphic" />
      <feComposite
         id="feComposite3732"
         in2="result4"
         operator="in"
         in="result9"
         result="result91" />
      <feBlend
         id="feBlend3734"
         in2="result91"
         mode="multiply" />
    </filter>
    <filter
       id="filter3738"
       inkscape:label="Metallized paint"
       inkscape:menu="Materials"
       inkscape:menu-tooltip="Metallized effect with a soft lighting, slightly translucent at the edges"
       height="1.1"
       width="1.1"
       y="-0.05"
       x="-0.05"
       color-interpolation-filters="sRGB">
      <feGaussianBlur
         id="feGaussianBlur3740"
         stdDeviation="1"
         result="result1" />
      <feComposite
         id="feComposite3742"
         in2="result1"
         in="result1"
         result="result4"
         operator="in" />
      <feBlend
         id="feBlend3744"
         in2="result4"
         in="result1"
         mode="screen"
         result="result5" />
      <feGaussianBlur
         id="feGaussianBlur3746"
         stdDeviation="8"
         result="result6"
         in="result5" />
      <feComposite
         id="feComposite3748"
         in2="result5"
         operator="atop"
         in="result6"
         result="result8" />
      <feComposite
         id="feComposite3750"
         in2="result8"
         operator="in"
         result="fbSourceGraphic"
         in="result6" />
      <feGaussianBlur
         id="feGaussianBlur3752"
         result="result0"
         in="fbSourceGraphic"
         stdDeviation="2.5" />
      <feSpecularLighting
         id="feSpecularLighting3754"
         specularExponent="45"
         specularConstant="1.5"
         surfaceScale="1"
         lighting-color="rgb(255,255,255)"
         result="result1"
         in="result0">
        <fePointLight
           id="fePointLight3756"
           z="21000"
           y="-9000"
           x="-6000" />
      </feSpecularLighting>
      <feComposite
         id="feComposite3758"
         in2="fbSourceGraphic"
         operator="in"
         result="result2"
         in="result1" />
      <feComposite
         id="feComposite3760"
         in2="result2"
         k3="1"
         k2="1"
         operator="arithmetic"
         result="result4"
         in="fbSourceGraphic" />
      <feComposite
         id="feComposite3762"
         in2="result4"
         operator="in"
         in="result9"
         result="result91" />
      <feBlend
         id="feBlend3764"
         in2="result91"
         mode="multiply" />
    </filter>
    <inkscape:perspective
       id="perspective4258"
       inkscape:persp3d-origin="0.5 : 0.33333333 : 1"
       inkscape:vp_z="1 : 0.5 : 1"
       inkscape:vp_y="0 : 1000 : 0"
       inkscape:vp_x="0 : 0.5 : 1"
       sodipodi:type="inkscape:persp3d" />
    <filter
       id="filter5612"
       inkscape:label="Metallized paint"
       inkscape:menu="Materials"
       inkscape:menu-tooltip="Metallized effect with a soft lighting, slightly translucent at the edges"
       height="1.1"
       width="1.1"
       y="-0.050000001"
       x="-0.050000001"
       color-interpolation-filters="sRGB">
      <feGaussianBlur
         id="feGaussianBlur5614"
         stdDeviation="1"
         result="result1" />
      <feComposite
         id="feComposite5616"
         in2="result1"
         in="result1"
         result="result4"
         operator="in" />
      <feBlend
         id="feBlend5618"
         in2="result4"
         in="result1"
         mode="screen"
         result="result5" />
      <feGaussianBlur
         id="feGaussianBlur5620"
         stdDeviation="8"
         result="result6"
         in="result5" />
      <feComposite
         id="feComposite5622"
         in2="result5"
         operator="atop"
         in="result6"
         result="result8" />
      <feComposite
         id="feComposite5624"
         in2="result8"
         operator="in"
         result="fbSourceGraphic"
         in="result6" />
      <feGaussianBlur
         id="feGaussianBlur5626"
         result="result0"
         in="fbSourceGraphic"
         stdDeviation="2.5" />
      <feSpecularLighting
         id="feSpecularLighting5628"
         specularExponent="45"
         specularConstant="1.5"
         surfaceScale="1"
         lighting-color="#ffffff"
         result="result1"
         in="result0">
        <fePointLight
           id="fePointLight5630"
           z="21000"
           y="-9000"
           x="-6000" />
      </feSpecularLighting>
      <feComposite
         id="feComposite5632"
         in2="fbSourceGraphic"
         operator="in"
         result="result2"
         in="result1" />
      <feComposite
         k4="0"
         k1="0"
         id="feComposite5634"
         in2="result2"
         k3="1"
         k2="1"
         operator="arithmetic"
         result="result4"
         in="fbSourceGraphic" />
      <feComposite
         id="feComposite5636"
         in2="result4"
         operator="in"
         result="result91" />
      <feBlend
         id="feBlend5638"
         in2="result91"
         mode="multiply" />
    </filter>
    <filter
       id="filter5584"
       inkscape:label="Metallized paint"
       inkscape:menu="Materials"
       inkscape:menu-tooltip="Metallized effect with a soft lighting, slightly translucent at the edges"
       height="1.1"
       width="1.1"
       y="-0.050000001"
       x="-0.050000001"
       color-interpolation-filters="sRGB">
      <feGaussianBlur
         id="feGaussianBlur5586"
         stdDeviation="1"
         result="result1" />
      <feComposite
         id="feComposite5588"
         in2="result1"
         in="result1"
         result="result4"
         operator="in" />
      <feBlend
         id="feBlend5590"
         in2="result4"
         in="result1"
         mode="screen"
         result="result5" />
      <feGaussianBlur
         id="feGaussianBlur5592"
         stdDeviation="8"
         result="result6"
         in="result5" />
      <feComposite
         id="feComposite5594"
         in2="result5"
         operator="atop"
         in="result6"
         result="result8" />
      <feComposite
         id="feComposite5596"
         in2="result8"
         operator="in"
         result="fbSourceGraphic"
         in="result6" />
      <feGaussianBlur
         id="feGaussianBlur5598"
         result="result0"
         in="fbSourceGraphic"
         stdDeviation="2.5" />
      <feSpecularLighting
         id="feSpecularLighting5600"
         specularExponent="45"
         specularConstant="1.5"
         surfaceScale="1"
         lighting-color="#ffffff"
         result="result1"
         in="result0">
        <fePointLight
           id="fePointLight5602"
           z="21000"
           y="-9000"
           x="-6000" />
      </feSpecularLighting>
      <feComposite
         id="feComposite5604"
         in2="fbSourceGraphic"
         operator="in"
         result="result2"
         in="result1" />
      <feComposite
         k4="0"
         k1="0"
         id="feComposite5606"
         in2="result2"
         k3="1"
         k2="1"
         operator="arithmetic"
         result="result4"
         in="fbSourceGraphic" />
      <feComposite
         id="feComposite5608"
         in2="result4"
         operator="in"
         result="result91" />
      <feBlend
         id="feBlend5610"
         in2="result91"
         mode="multiply" />
    </filter>
    <filter
       id="filter5556"
       inkscape:label="Metallized paint"
       inkscape:menu="Materials"
       inkscape:menu-tooltip="Metallized effect with a soft lighting, slightly translucent at the edges"
       height="1.1"
       width="1.1"
       y="-0.050000001"
       x="-0.050000001"
       color-interpolation-filters="sRGB">
      <feGaussianBlur
         id="feGaussianBlur5558"
         stdDeviation="1"
         result="result1" />
      <feComposite
         id="feComposite5560"
         in2="result1"
         in="result1"
         result="result4"
         operator="in" />
      <feBlend
         id="feBlend5562"
         in2="result4"
         in="result1"
         mode="screen"
         result="result5" />
      <feGaussianBlur
         id="feGaussianBlur5564"
         stdDeviation="8"
         result="result6"
         in="result5" />
      <feComposite
         id="feComposite5566"
         in2="result5"
         operator="atop"
         in="result6"
         result="result8" />
      <feComposite
         id="feComposite5568"
         in2="result8"
         operator="in"
         result="fbSourceGraphic"
         in="result6" />
      <feGaussianBlur
         id="feGaussianBlur5570"
         result="result0"
         in="fbSourceGraphic"
         stdDeviation="2.5" />
      <feSpecularLighting
         id="feSpecularLighting5572"
         specularExponent="45"
         specularConstant="1.5"
         surfaceScale="1"
         lighting-color="#ffffff"
         result="result1"
         in="result0">
        <fePointLight
           id="fePointLight5574"
           z="21000"
           y="-9000"
           x="-6000" />
      </feSpecularLighting>
      <feComposite
         id="feComposite5576"
         in2="fbSourceGraphic"
         operator="in"
         result="result2"
         in="result1" />
      <feComposite
         k4="0"
         k1="0"
         id="feComposite5578"
         in2="result2"
         k3="1"
         k2="1"
         operator="arithmetic"
         result="result4"
         in="fbSourceGraphic" />
      <feComposite
         id="feComposite5580"
         in2="result4"
         operator="in"
         result="result91" />
      <feBlend
         id="feBlend5582"
         in2="result91"
         mode="multiply" />
    </filter>
    <filter
       id="filter5528"
       inkscape:label="Metallized paint"
       inkscape:menu="Materials"
       inkscape:menu-tooltip="Metallized effect with a soft lighting, slightly translucent at the edges"
       height="1.1"
       width="1.1"
       y="-0.050000001"
       x="-0.050000001"
       color-interpolation-filters="sRGB">
      <feGaussianBlur
         id="feGaussianBlur5530"
         stdDeviation="1"
         result="result1" />
      <feComposite
         id="feComposite5532"
         in2="result1"
         in="result1"
         result="result4"
         operator="in" />
      <feBlend
         id="feBlend5534"
         in2="result4"
         in="result1"
         mode="screen"
         result="result5" />
      <feGaussianBlur
         id="feGaussianBlur5536"
         stdDeviation="8"
         result="result6"
         in="result5" />
      <feComposite
         id="feComposite5538"
         in2="result5"
         operator="atop"
         in="result6"
         result="result8" />
      <feComposite
         id="feComposite5540"
         in2="result8"
         operator="in"
         result="fbSourceGraphic"
         in="result6" />
      <feGaussianBlur
         id="feGaussianBlur5542"
         result="result0"
         in="fbSourceGraphic"
         stdDeviation="2.5" />
      <feSpecularLighting
         id="feSpecularLighting5544"
         specularExponent="45"
         specularConstant="1.5"
         surfaceScale="1"
         lighting-color="#ffffff"
         result="result1"
         in="result0">
        <fePointLight
           id="fePointLight5546"
           z="21000"
           y="-9000"
           x="-6000" />
      </feSpecularLighting>
      <feComposite
         id="feComposite5548"
         in2="fbSourceGraphic"
         operator="in"
         result="result2"
         in="result1" />
      <feComposite
         k4="0"
         k1="0"
         id="feComposite5550"
         in2="result2"
         k3="1"
         k2="1"
         operator="arithmetic"
         result="result4"
         in="fbSourceGraphic" />
      <feComposite
         id="feComposite5552"
         in2="result4"
         operator="in"
         result="result91" />
      <feBlend
         id="feBlend5554"
         in2="result91"
         mode="multiply" />
    </filter>
    <inkscape:perspective
       id="perspective4463"
       inkscape:persp3d-origin="0.5 : 0.33333333 : 1"
       inkscape:vp_z="1 : 0.5 : 1"
       inkscape:vp_y="0 : 1000 : 0"
       inkscape:vp_x="0 : 0.5 : 1"
       sodipodi:type="inkscape:persp3d" />
    <linearGradient
       gradientTransform="matrix(2.9637116,0,0,2.9637116,187.23381,713.9185)"
       y2="94.875"
       x2="50.87933"
       y1="94.875"
       x1="28.82469"
       gradientUnits="userSpaceOnUse"
       id="linearGradient3671-8"
       xlink:href="#linearGradient3641-7-8"
       inkscape:collect="always" />
    <linearGradient
       id="linearGradient3641-7-8">
      <stop
         style="stop-color:#f5f5f5;stop-opacity:1;"
         offset="0"
         id="stop3643-4-2" />
      <stop
         id="stop3704-4"
         offset="0.28"
         style="stop-color:#ffffff;stop-opacity:1;" />
      <stop
         style="stop-color:#ebebeb;stop-opacity:1;"
         offset="1"
         id="stop3645-9-5" />
    </linearGradient>
    <linearGradient
       inkscape:collect="always"
       xlink:href="#linearGradient3694-1"
       id="linearGradient3702-5"
       x1="108.03675"
       y1="989.23718"
       x2="132.62933"
       y2="989.23718"
       gradientUnits="userSpaceOnUse"
       gradientTransform="matrix(2.9637116,0,0,2.9637116,-55.79052,-1936.713)" />
    <linearGradient
       id="linearGradient3694-1">
      <stop
         style="stop-color:#7d7d7d;stop-opacity:1;"
         offset="0"
         id="stop3696-7" />
      <stop
         style="stop-color:#4b4b4b;stop-opacity:1;"
         offset="1"
         id="stop3698-1" />
    </linearGradient>
    <linearGradient
       y2="94.875"
       x2="50.87933"
       y1="94.875"
       x1="28.82469"
       gradientTransform="matrix(2.5783858,-1.4613395,1.4613395,2.5783858,-136.64001,804.49384)"
       gradientUnits="userSpaceOnUse"
       id="linearGradient4477"
       xlink:href="#linearGradient3641-7-8"
       inkscape:collect="always" />
    <linearGradient
       y2="989.23718"
       x2="132.62933"
       y1="989.23718"
       x1="108.03675"
       gradientTransform="matrix(2.5783858,-1.4613395,1.4613395,2.5783858,-1655.0343,-1381.6869)"
       gradientUnits="userSpaceOnUse"
       id="linearGradient4479"
       xlink:href="#linearGradient3694-1"
       inkscape:collect="always" />
    <radialGradient
       inkscape:collect="always"
       xlink:href="#linearGradient4516"
       id="radialGradient4522"
       cx="-96"
       cy="980.36218"
       fx="-96"
       fy="980.36218"
       r="16"
       gradientTransform="matrix(1,0,0,3.5,0,-2450.9055)"
       gradientUnits="userSpaceOnUse" />
    <radialGradient
       inkscape:collect="always"
       xlink:href="#linearGradient4516"
       id="radialGradient4524"
       cx="-96"
       cy="980.36218"
       fx="-96"
       fy="980.36218"
       r="56"
       gradientTransform="matrix(1,0,0,0.28571429,0,700.2587)"
       gradientUnits="userSpaceOnUse" />
    <radialGradient
       inkscape:collect="always"
       xlink:href="#linearGradient4528"
       id="radialGradient4534"
       cx="-96"
       cy="88"
       fx="-96"
       fy="88"
       r="56.5"
       gradientUnits="userSpaceOnUse"
       gradientTransform="matrix(0.57142857,0,0,0.57142857,87.714283,970.93361)" />
    <radialGradient
       inkscape:collect="always"
       xlink:href="#linearGradient4536"
       id="radialGradient4542"
       cx="-96"
       cy="88"
       fx="-96"
       fy="88"
       r="56.5"
       gradientUnits="userSpaceOnUse"
       gradientTransform="matrix(0.57142857,0,0,0.57142857,87.714283,970.93361)" />
  </defs>
  <sodipodi:namedview
     id="base"
     pagecolor="#ffffff"
     bordercolor="#666666"
     borderopacity="1.0"
     inkscape:pageopacity="0.0"
     inkscape:pageshadow="2"
     inkscape:zoom="1.4"
     inkscape:cx="93.094715"
     inkscape:cy="80.597042"
     inkscape:document-units="px"
     inkscape:current-layer="layer1"
     showgrid="true"
     inkscape:window-width="1366"
     inkscape:window-height="706"
     inkscape:window-x="-8"
     inkscape:window-y="-8"
     inkscape:window-maximized="1">
    <inkscape:grid
       type="xygrid"
       id="grid2816"
       empspacing="2"
       visible="true"
       enabled="true"
       snapvisiblegridlinesonly="true" />
  </sodipodi:namedview>
  <metadata
     id="metadata7">
    <rdf:RDF>
      <cc:Work
         rdf:about="">
        <dc:format>image/svg+xml</dc:format>
        <dc:type
           rdf:resource="http://purl.org/dc/dcmitype/StillImage" />
        <dc:title></dc:title>
      </cc:Work>
    </rdf:RDF>
  </metadata>
  <g
     inkscape:label="Layer 1"
     inkscape:groupmode="layer"
     id="layer1"
     transform="translate(0,-892.36218)">
    <path
       sodipodi:nodetypes="ccc"
       id="path5108"
       d="M 11.900166,958.59927 78.309561,958.41421 120.70834,932.7631"
       style="fill:none;stroke:#000000;stroke-width:6;stroke-linecap:butt;stroke-linejoin:miter;stroke-miterlimit:4;stroke-opacity:1;stroke-dasharray:none" />
    <path
       sodipodi:nodetypes="cc"
       id="path5110"
       d="M 79.839075,958.92405 128,988.36218"
       style="fill:none;stroke:#000000;stroke-width:6;stroke-linecap:butt;stroke-linejoin:miter;stroke-miterlimit:4;stroke-opacity:1;stroke-dasharray:none" />
    <path
       sodipodi:type="arc"
       style="fill:#008000;fill-rule:evenodd;stroke:#000000;stroke-width:2.86140442;stroke-miterlimit:4;stroke-opacity:1;stroke-dasharray:none;filter:url(#filter5528)"
       id="path4028-7-5"
       sodipodi:cx="304.28571"
       sodipodi:cy="459.50504"
       sodipodi:rx="64.285706"
       sodipodi:ry="52.857143"
       d="m 368.57141,459.50504 a 64.285706,52.857143 0 1 1 -128.57141,0 64.285706,52.857143 0 1 1 128.57141,0 z"
       transform="matrix(0.27832501,0,0,0.35544648,-57.356922,794.22202)" />
    <path
       sodipodi:type="arc"
       style="fill:#ff0000;fill-rule:evenodd;stroke:#000000;stroke-width:2.86140442;stroke-miterlimit:4;stroke-opacity:1;stroke-dasharray:none;filter:url(#filter5556)"
       id="path4028-7-4-0-7"
       sodipodi:cx="304.28571"
       sodipodi:cy="459.50504"
       sodipodi:rx="64.285706"
       sodipodi:ry="52.857143"
       d="m 368.57141,459.50504 a 64.285706,52.857143 0 1 1 -128.57141,0 64.285706,52.857143 0 1 1 128.57141,0 z"
       transform="matrix(0.27832501,0,0,0.35544648,1.181055,794.22202)" />
    <path
       sodipodi:type="arc"
       style="fill:#000080;fill-rule:evenodd;stroke:#000000;stroke-width:2.86140442;stroke-miterlimit:4;stroke-opacity:1;stroke-dasharray:none;filter:url(#filter5584)"
       id="path4028-7-4-0-8-5"
       sodipodi:cx="304.28571"
       sodipodi:cy="459.50504"
       sodipodi:rx="64.285706"
       sodipodi:ry="52.857143"
       d="m 368.57141,459.50504 a 64.285706,52.857143 0 1 1 -128.57141,0 64.285706,52.857143 0 1 1 128.57141,0 z"
       transform="matrix(0.27832501,0,0,0.35544648,46.938435,762.06499)" />
    <path
       sodipodi:type="arc"
       style="fill:#000080;fill-rule:evenodd;stroke:#000000;stroke-width:2.86140442;stroke-miterlimit:4;stroke-opacity:1;stroke-dasharray:none;filter:url(#filter5612)"
       id="path4028-7-4-0-82-2"
       sodipodi:cx="304.28571"
       sodipodi:cy="459.50504"
       sodipodi:rx="64.285706"
       sodipodi:ry="52.857143"
       d="m 368.57141,459.50504 a 64.285706,52.857143 0 1 1 -128.57141,0 64.285706,52.857143 0 1 1 128.57141,0 z"
       transform="matrix(0.27832501,0,0,0.35544648,46.938435,830.19716)" />
    <path
       style="fill:url(#linearGradient4477);fill-opacity:1;stroke:url(#linearGradient4479);stroke-width:1;stroke-linecap:butt;stroke-linejoin:miter;stroke-miterlimit:4;stroke-opacity:1;stroke-dasharray:none"
       d="m 148.55833,1031.208 -25.78386,14.6134 c -29.14096,-9.4326 -34.24411,-29.4057 -49.853749,-39.8768 -6.294051,-2.2849 -13.347007,-5.6418 -5.845345,-10.31352 18.392974,-3.61126 21.315644,1.54549 27.160974,11.85902 -2.92266,-5.1568 -5.7159,-10.05068 -8.768,-15.47028 -5.97703,-10.61848 -12.718899,-22.44122 -20.458781,-36.09745 -1.805618,-9.19649 3.351133,-12.11916 10.313529,-5.84535 l 20.458782,36.09745 -5.84539,-10.31359 c 4.70593,-3.02741 9.16362,-3.69164 13.23626,-0.68854 l 2.92268,5.15677 -2.92268,-5.15677 c 4.4207,-2.70114 8.83537,-3.65699 13.23622,-0.68859 l 2.92267,5.15675 -2.92267,-5.15675 c 3.84987,-1.54104 7.01358,-4.68288 13.23621,-0.68861 3.604,4.7706 7.65514,9.28777 8.768,15.47026 11.37126,26.4149 7.39828,28.9498 10.14515,41.9426 z"
       id="path3639-4-1"
       sodipodi:nodetypes="cccccsccccccccccccc" />
    <path
       style="fill:url(#radialGradient4534);fill-opacity:1;stroke:url(#radialGradient4542);stroke-width:1px;stroke-linecap:butt;stroke-linejoin:miter;stroke-opacity:1"
       d="m 23.71428,989.21932 0,22.85718 -22.85714,0 0,18.2857 22.85714,0 0,22.8571 18.28572,0 0,-22.8571 22.85714,0 0,-18.2857 -22.85714,0 0,-22.85718 -18.28572,0 z"
       id="path4526" />
  </g>
</svg>
