<?xml version="1.0" encoding="UTF-8" standalone="no"?>
<!-- Created with Inkscape (http://www.inkscape.org/) -->

<svg
   xmlns:dc="http://purl.org/dc/elements/1.1/"
   xmlns:cc="http://creativecommons.org/ns#"
   xmlns:rdf="http://www.w3.org/1999/02/22-rdf-syntax-ns#"
   xmlns:svg="http://www.w3.org/2000/svg"
   xmlns="http://www.w3.org/2000/svg"
   xmlns:xlink="http://www.w3.org/1999/xlink"
   xmlns:sodipodi="http://sodipodi.sourceforge.net/DTD/sodipodi-0.dtd"
   xmlns:inkscape="http://www.inkscape.org/namespaces/inkscape"
   width="32"
   height="32"
   id="svg2"
   version="1.1"
   inkscape:version="0.48.1 r9760"
   sodipodi:docname="slider32.svg"
   inkscape:export-filename="/home/claire/icons/BioinformaticsIcons/slider32.png"
   inkscape:export-xdpi="90"
   inkscape:export-ydpi="90">
  <defs
     id="defs4">
    <linearGradient
       id="linearGradient4361">
      <stop
         style="stop-color:#ffffff;stop-opacity:0;"
         offset="0"
         id="stop4363" />
      <stop
         id="stop4369"
         offset="0.5"
         style="stop-color:#ffffff;stop-opacity:0.49803922;" />
      <stop
         style="stop-color:#ffffff;stop-opacity:0;"
         offset="1"
         id="stop4365" />
    </linearGradient>
    <linearGradient
       id="linearGradient4164">
      <stop
         style="stop-color:#800000;stop-opacity:1;"
         offset="0"
         id="stop4166" />
      <stop
         style="stop-color:#800000;stop-opacity:0;"
         offset="1"
         id="stop4168" />
    </linearGradient>
    <linearGradient
       id="linearGradient4156">
      <stop
         style="stop-color:#ffffff;stop-opacity:1;"
         offset="0"
         id="stop4158" />
      <stop
         style="stop-color:#800000;stop-opacity:1;"
         offset="1"
         id="stop4160" />
    </linearGradient>
    <radialGradient
       inkscape:collect="always"
       xlink:href="#linearGradient4156"
       id="radialGradient4162"
       cx="-15.892858"
       cy="23.008928"
       fx="-15.892858"
       fy="23.008928"
       r="7.2857141"
       gradientTransform="matrix(0.18764196,0.89430891,-0.75140162,0.15765747,4.3782556,33.594523)"
       gradientUnits="userSpaceOnUse" />
    <linearGradient
       inkscape:collect="always"
       xlink:href="#linearGradient4164"
       id="linearGradient4170"
       x1="-17.392363"
       y1="1034.3685"
       x2="-9.4396601"
       y2="1045.7078"
       gradientUnits="userSpaceOnUse" />
    <radialGradient
       inkscape:collect="always"
       xlink:href="#linearGradient4156"
       id="radialGradient4176"
       gradientUnits="userSpaceOnUse"
       gradientTransform="matrix(0.18764196,0.89430891,-0.75140162,0.15765747,4.3782556,33.594523)"
       cx="-15.892858"
       cy="23.008928"
       fx="-15.892858"
       fy="23.008928"
       r="7.2857141" />
    <linearGradient
       inkscape:collect="always"
       xlink:href="#linearGradient4164"
       id="linearGradient4178"
       gradientUnits="userSpaceOnUse"
       x1="-17.392363"
       y1="1034.3685"
       x2="-9.4396601"
       y2="1045.7078" />
    <radialGradient
       inkscape:collect="always"
       xlink:href="#linearGradient4156"
       id="radialGradient4190"
       gradientUnits="userSpaceOnUse"
       gradientTransform="matrix(0.18764196,0.89430891,-0.75140162,0.15765747,4.3782556,33.594523)"
       cx="-15.892858"
       cy="23.008928"
       fx="-15.892858"
       fy="23.008928"
       r="7.2857141" />
    <linearGradient
       inkscape:collect="always"
       xlink:href="#linearGradient4164"
       id="linearGradient4192"
       gradientUnits="userSpaceOnUse"
       x1="-17.392363"
       y1="1034.3685"
       x2="-9.4396601"
       y2="1045.7078" />
    <linearGradient
       inkscape:collect="always"
       xlink:href="#linearGradient4361"
       id="linearGradient4367"
       x1="4.2298388"
       y1="1028.6425"
       x2="24.144722"
       y2="1008.8802"
       gradientUnits="userSpaceOnUse"
       gradientTransform="translate(-95.64059,10.675656)" />
    <linearGradient
       inkscape:collect="always"
       xlink:href="#linearGradient4361-6"
       id="linearGradient4367-0"
       x1="-2.8928571"
       y1="1017.2729"
       x2="31.107143"
       y2="1017.2729"
       gradientUnits="userSpaceOnUse"
       gradientTransform="translate(-32.5,16.607142)" />
    <linearGradient
       id="linearGradient4361-6">
      <stop
         style="stop-color:#ffffff;stop-opacity:0;"
         offset="0"
         id="stop4363-6" />
      <stop
         id="stop4369-8"
         offset="0.5"
         style="stop-color:#ffffff;stop-opacity:0.49803922;" />
      <stop
         style="stop-color:#ffffff;stop-opacity:0;"
         offset="1"
         id="stop4365-5" />
    </linearGradient>
    <linearGradient
       inkscape:collect="always"
       xlink:href="#linearGradient4361"
       id="linearGradient5002"
       gradientUnits="userSpaceOnUse"
       gradientTransform="matrix(0.92870085,0,0,0.92635873,2.9298298,94.082327)"
       x1="4.2298388"
       y1="1028.6425"
       x2="24.144722"
       y2="1008.8802" />
  </defs>
  <sodipodi:namedview
     id="base"
     pagecolor="#ffffff"
     bordercolor="#666666"
     borderopacity="1.0"
     inkscape:pageopacity="0.0"
     inkscape:pageshadow="2"
     inkscape:zoom="11.073921"
     inkscape:cx="36.842441"
     inkscape:cy="18.344861"
     inkscape:document-units="px"
     inkscape:current-layer="layer1"
     showgrid="false"
     inkscape:window-width="1358"
     inkscape:window-height="692"
     inkscape:window-x="0"
     inkscape:window-y="0"
     inkscape:window-maximized="1">
    <inkscape:grid
       type="xygrid"
       id="grid2985"
       empspacing="5"
       visible="true"
       enabled="true"
       snapvisiblegridlinesonly="true" />
  </sodipodi:namedview>
  <metadata
     id="metadata7">
    <rdf:RDF>
      <cc:Work
         rdf:about="">
        <dc:format>image/svg+xml</dc:format>
        <dc:type
           rdf:resource="http://purl.org/dc/dcmitype/StillImage" />
        <dc:title></dc:title>
      </cc:Work>
    </rdf:RDF>
  </metadata>
  <g
     inkscape:label="Layer 1"
     inkscape:groupmode="layer"
     id="layer1"
     transform="translate(0,-1020.3622)">
    <path
       style="fill:#ffffff;stroke:#ffffff;stroke-width:0.88185757px;stroke-linecap:round;stroke-linejoin:round;stroke-opacity:1"
       d="m 0.57971976,1022.8577 0,26.4557 c 0,1.7638 0,1.7638 1.76371514,1.7638 l 26.4557261,0 c 1.763715,0 1.763715,0 1.763715,-1.7638 l 0,-26.4557 c 0,-1.7637 0,-1.7637 -1.763715,-1.7637 l -26.4557261,0 c -1.76371514,0 -1.76371514,0 -1.76371514,1.7637 z"
       id="path2987"
       inkscape:connector-curvature="0"
       sodipodi:nodetypes="ccccccccc" />
    <path
       style="fill:#000000;stroke:#ffffff;stroke-width:1.01180768;stroke-linecap:round;stroke-linejoin:round;stroke-miterlimit:4;stroke-opacity:1;stroke-dasharray:none"
       d="m 1.140092,1022.1491 0,8.7282 c 0,0.582 0,0.582 0.5818761,0.582 l 8.7280879,0 c 0.581876,0 0.581876,0 0.581876,-0.582 l 0,-8.7282 c 0,-0.5819 0,-0.5819 -0.581876,-0.5819 l -8.7280879,0 c -0.5818761,0 -0.5818761,0 -0.5818761,0.5819 z"
       id="path2987-9-1"
       inkscape:connector-curvature="0"
       sodipodi:nodetypes="ccccccccc" />
    <path
       style="fill:#000000;stroke:#ffffff;stroke-width:1.01180768;stroke-linecap:round;stroke-linejoin:round;stroke-miterlimit:4;stroke-opacity:1;stroke-dasharray:none"
       d="m 20.942053,1022.1491 0,8.7282 c 0,0.582 0,0.582 0.581867,0.582 l 8.728097,0 c 0.581876,0 0.581876,0 0.581876,-0.582 l 0,-8.7282 c 0,-0.5819 0,-0.5819 -0.581876,-0.5819 l -8.728097,0 c -0.581867,0 -0.581867,0 -0.581867,0.5819 z"
       id="path2987-9-0-8"
       inkscape:connector-curvature="0"
       sodipodi:nodetypes="ccccccccc" />
    <path
       style="fill:#ffff00;stroke:#ffffff;stroke-width:1.01180768;stroke-linecap:round;stroke-linejoin:round;stroke-miterlimit:4;stroke-opacity:1;stroke-dasharray:none"
       d="m 10.825745,1032.0462 0,8.7281 c 0,0.5819 0,0.5819 0.581867,0.5819 l 8.728088,0 c 0.581876,0 0.581876,0 0.581876,-0.5819 l 0,-8.7281 c 0,-0.5819 0,-0.5819 -0.581876,-0.5819 l -8.728088,0 c -0.581867,0 -0.581867,0 -0.581867,0.5819 z"
       id="path2987-9-8-2-3"
       inkscape:connector-curvature="0"
       sodipodi:nodetypes="ccccccccc" />
    <path
       style="fill:#000000;stroke:#ffffff;stroke-width:1.01180768;stroke-linecap:round;stroke-linejoin:round;stroke-miterlimit:4;stroke-opacity:1;stroke-dasharray:none"
       d="m 10.993051,1022.1492 0,8.7281 c 0,0.5819 0,0.5819 0.581876,0.5819 l 8.728088,0 c 0.581876,0 0.581876,0 0.581876,-0.5819 l 0,-8.7281 c 0,-0.5819 0,-0.5819 -0.581876,-0.5819 l -8.728088,0 c -0.581876,0 -0.581876,0 -0.581876,0.5819 z"
       id="path2987-9-8-5"
       inkscape:connector-curvature="0"
       sodipodi:nodetypes="ccccccccc" />
    <path
       style="fill:#ffff00;stroke:none"
       d="m 11.720645,1030.993 4.175675,-8.8524 4.342707,8.7968 z"
       id="path4530-6-7"
       inkscape:connector-curvature="0"
       sodipodi:nodetypes="cccc" />
    <path
       style="fill:#000000;stroke:#ffffff;stroke-width:1.01180768;stroke-linecap:round;stroke-linejoin:round;stroke-miterlimit:4;stroke-opacity:1;stroke-dasharray:none"
       d="m 20.933993,1032.046 0,8.7283 c 0,0.582 0,0.582 0.581876,0.582 l 8.728088,0 c 0.581867,0 0.581867,0 0.581867,-0.582 l 0,-8.7283 c 0,-0.5818 0,-0.5818 -0.581867,-0.5818 l -8.728088,0 c -0.581876,0 -0.581876,0 -0.581876,0.5818 z"
       id="path2987-9-0-3-9"
       inkscape:connector-curvature="0"
       sodipodi:nodetypes="ccccccccc" />
    <path
       style="fill:#ffff00;stroke:none"
       d="m 23.205579,1040.8569 -0.34374,-1.6332 6.705971,-6.8403 -2.640925,-0.434 -5.509414,0 -0.03245,8.9315 z"
       id="path4530-5-0-8-6"
       inkscape:connector-curvature="0"
       sodipodi:nodetypes="ccccccc" />
    <path
       style="fill:#000000;stroke:#ffffff;stroke-width:1.01180768;stroke-linecap:round;stroke-linejoin:round;stroke-miterlimit:4;stroke-opacity:1;stroke-dasharray:none"
       d="m 1.1320318,1032.1257 0,8.7283 c 0,0.582 0,0.582 0.5818673,0.582 l 8.7280969,0 c 0.581876,0 0.581876,0 0.581876,-0.582 l 0,-8.7283 c 0,-0.5819 0,-0.5819 -0.581876,-0.5819 l -8.7280969,0 c -0.5818673,0 -0.5818673,0 -0.5818673,0.5819 z"
       id="path2987-9-9-2"
       inkscape:connector-curvature="0"
       sodipodi:nodetypes="ccccccccc" />
    <path
       style="fill:#ffff00;stroke:none"
       d="m 8.7090048,1040.9499 0.3437393,-1.6332 -6.7059711,-6.8402 2.6409252,-0.4341 5.5094138,0 0.03245,8.9316 z"
       id="path4530-5-0-8-7-9"
       inkscape:connector-curvature="0"
       sodipodi:nodetypes="ccccccc" />
    <path
       style="fill:#000000;stroke:#ffffff;stroke-width:1.01180768;stroke-linecap:round;stroke-linejoin:round;stroke-miterlimit:4;stroke-opacity:1;stroke-dasharray:none"
       d="m 20.939222,1041.9836 0,8.7282 c 0,0.5818 0,0.5818 0.581868,0.5818 l 8.728088,0 c 0.581876,0 0.581876,0 0.581876,-0.5818 l 0,-8.7282 c 0,-0.5818 0,-0.5818 -0.581876,-0.5818 l -8.728088,0 c -0.581868,0 -0.581868,0 -0.581868,0.5818 z"
       id="path2987-9-8-23-7"
       inkscape:connector-curvature="0"
       sodipodi:nodetypes="ccccccccc" />
    <path
       style="fill:#ffff00;stroke:none"
       d="m 30.272759,1046.7523 -4.278835,-2.5314 -4.549521,2.6319 -0.08175,-5.0821 8.965625,0.02 z"
       id="path4530-7-6-7-4"
       inkscape:connector-curvature="0"
       sodipodi:nodetypes="cccccc" />
    <path
       style="fill:#000000;stroke:#ffffff;stroke-width:1.01180768;stroke-linecap:round;stroke-linejoin:round;stroke-miterlimit:4;stroke-opacity:1;stroke-dasharray:none"
       d="m 1.0524001,1041.9835 0,8.7283 c 0,0.582 0,0.582 0.5818672,0.582 l 8.7280967,0 c 0.581876,0 0.581876,0 0.581876,-0.582 l 0,-8.7283 c 0,-0.5818 0,-0.5818 -0.581876,-0.5818 l -8.7280967,0 c -0.5818672,0 -0.5818672,0 -0.5818672,0.5818 z"
       id="path2987-9-99-6"
       inkscape:connector-curvature="0"
       sodipodi:nodetypes="ccccccccc" />
    <path
       style="fill:#ffff00;stroke:none"
       d="m 10.442507,1047.5457 -2.9584817,1.6072 1.1959047,-7.2648 1.76435,-0.034 z"
       id="path4530-7-3-7"
       inkscape:connector-curvature="0"
       sodipodi:nodetypes="ccccc" />
    <path
       style="fill:none;stroke:#cccccc;stroke-width:0.88185757px;stroke-linecap:butt;stroke-linejoin:miter;stroke-opacity:1"
       d="m 11.642921,1042.0048 -0.07963,8.6004 8.839342,0"
       id="path4999"
       inkscape:connector-curvature="0" />
    <path
       style="fill:none;stroke:#000000;stroke-width:0.90233475px;stroke-linecap:round;stroke-linejoin:round;stroke-opacity:1"
       d="m 0.68793746,1022.8953 0,27.07 c 0,1.8046 0,1.8046 1.80466964,1.8046 l 27.0700439,0 c 1.804669,0 1.804669,0 1.804669,-1.8046 l 0,-27.07 c 0,-1.8047 0,-1.8047 -1.804669,-1.8047 l -27.0700439,0 c -1.80466964,0 -1.80466964,0 -1.80466964,1.8047 z"
       id="path2987-6"
       inkscape:connector-curvature="0"
       sodipodi:nodetypes="ccccccccc" />
    <path
       style="fill:url(#linearGradient5002);fill-opacity:1;stroke:none"
       d="m 0.24323089,1022.5469 0,27.7907 c 0,1.8527 0,1.8527 1.85740191,1.8527 l 27.8610272,0 c 1.857402,0 1.857402,0 1.857402,-1.8527 l 0,-27.7907 c 0,-1.8527 0,-1.8527 -1.857402,-1.8527 l -27.8610272,0 c -1.85740191,0 -1.85740191,0 -1.85740191,1.8527 z"
       id="path2987-1"
       inkscape:connector-curvature="0"
       sodipodi:nodetypes="ccccccccc" />
  </g>
</svg>
