<?xml version="1.0" encoding="UTF-8" standalone="no"?>
<!-- Created with Inkscape (http://www.inkscape.org/) -->

<svg
   xmlns:dc="http://purl.org/dc/elements/1.1/"
   xmlns:cc="http://creativecommons.org/ns#"
   xmlns:rdf="http://www.w3.org/1999/02/22-rdf-syntax-ns#"
   xmlns:svg="http://www.w3.org/2000/svg"
   xmlns="http://www.w3.org/2000/svg"
   xmlns:xlink="http://www.w3.org/1999/xlink"
   xmlns:sodipodi="http://sodipodi.sourceforge.net/DTD/sodipodi-0.dtd"
   xmlns:inkscape="http://www.inkscape.org/namespaces/inkscape"
   width="72"
   height="72"
   id="svg2"
   version="1.1"
   inkscape:version="0.48.1 r9760"
   sodipodi:docname="slider72.svg"
   inkscape:export-filename="/home/claire/icons/BioinformaticsIcons/slider72.png"
   inkscape:export-xdpi="90"
   inkscape:export-ydpi="90">
  <defs
     id="defs4">
    <linearGradient
       id="linearGradient4361">
      <stop
         style="stop-color:#ffffff;stop-opacity:0;"
         offset="0"
         id="stop4363" />
      <stop
         id="stop4369"
         offset="0.5"
         style="stop-color:#ffffff;stop-opacity:0.49803922;" />
      <stop
         style="stop-color:#ffffff;stop-opacity:0;"
         offset="1"
         id="stop4365" />
    </linearGradient>
    <linearGradient
       id="linearGradient4164">
      <stop
         style="stop-color:#800000;stop-opacity:1;"
         offset="0"
         id="stop4166" />
      <stop
         style="stop-color:#800000;stop-opacity:0;"
         offset="1"
         id="stop4168" />
    </linearGradient>
    <linearGradient
       id="linearGradient4156">
      <stop
         style="stop-color:#ffffff;stop-opacity:1;"
         offset="0"
         id="stop4158" />
      <stop
         style="stop-color:#800000;stop-opacity:1;"
         offset="1"
         id="stop4160" />
    </linearGradient>
    <radialGradient
       inkscape:collect="always"
       xlink:href="#linearGradient4156"
       id="radialGradient4162"
       cx="-15.892858"
       cy="23.008928"
       fx="-15.892858"
       fy="23.008928"
       r="7.2857141"
       gradientTransform="matrix(0.18764196,0.89430891,-0.75140162,0.15765747,4.3782556,33.594523)"
       gradientUnits="userSpaceOnUse" />
    <linearGradient
       inkscape:collect="always"
       xlink:href="#linearGradient4164"
       id="linearGradient4170"
       x1="-17.392363"
       y1="1034.3685"
       x2="-9.4396601"
       y2="1045.7078"
       gradientUnits="userSpaceOnUse" />
    <radialGradient
       inkscape:collect="always"
       xlink:href="#linearGradient4156"
       id="radialGradient4176"
       gradientUnits="userSpaceOnUse"
       gradientTransform="matrix(0.18764196,0.89430891,-0.75140162,0.15765747,4.3782556,33.594523)"
       cx="-15.892858"
       cy="23.008928"
       fx="-15.892858"
       fy="23.008928"
       r="7.2857141" />
    <linearGradient
       inkscape:collect="always"
       xlink:href="#linearGradient4164"
       id="linearGradient4178"
       gradientUnits="userSpaceOnUse"
       x1="-17.392363"
       y1="1034.3685"
       x2="-9.4396601"
       y2="1045.7078" />
    <radialGradient
       inkscape:collect="always"
       xlink:href="#linearGradient4156"
       id="radialGradient4190"
       gradientUnits="userSpaceOnUse"
       gradientTransform="matrix(0.18764196,0.89430891,-0.75140162,0.15765747,4.3782556,33.594523)"
       cx="-15.892858"
       cy="23.008928"
       fx="-15.892858"
       fy="23.008928"
       r="7.2857141" />
    <linearGradient
       inkscape:collect="always"
       xlink:href="#linearGradient4164"
       id="linearGradient4192"
       gradientUnits="userSpaceOnUse"
       x1="-17.392363"
       y1="1034.3685"
       x2="-9.4396601"
       y2="1045.7078" />
    <linearGradient
       inkscape:collect="always"
       xlink:href="#linearGradient4361"
       id="linearGradient4367"
       x1="4.2298388"
       y1="1028.6425"
       x2="24.144722"
       y2="1008.8802"
       gradientUnits="userSpaceOnUse"
       gradientTransform="translate(-95.64059,10.675656)" />
    <linearGradient
       inkscape:collect="always"
       xlink:href="#linearGradient4361-6"
       id="linearGradient4367-0"
       x1="-2.8928571"
       y1="1017.2729"
       x2="31.107143"
       y2="1017.2729"
       gradientUnits="userSpaceOnUse"
       gradientTransform="translate(-32.5,16.607142)" />
    <linearGradient
       id="linearGradient4361-6">
      <stop
         style="stop-color:#ffffff;stop-opacity:0;"
         offset="0"
         id="stop4363-6" />
      <stop
         id="stop4369-8"
         offset="0.5"
         style="stop-color:#ffffff;stop-opacity:0.49803922;" />
      <stop
         style="stop-color:#ffffff;stop-opacity:0;"
         offset="1"
         id="stop4365-5" />
    </linearGradient>
    <linearGradient
       inkscape:collect="always"
       xlink:href="#linearGradient4361"
       id="linearGradient3069"
       gradientUnits="userSpaceOnUse"
       gradientTransform="matrix(1.0531189,0,0,1.050463,3.213443,-34.202421)"
       x1="4.2298388"
       y1="1028.6425"
       x2="24.144722"
       y2="1008.8802" />
  </defs>
  <sodipodi:namedview
     id="base"
     pagecolor="#ffffff"
     bordercolor="#666666"
     borderopacity="1.0"
     inkscape:pageopacity="0.0"
     inkscape:pageshadow="2"
     inkscape:zoom="3.9152223"
     inkscape:cx="36.842441"
     inkscape:cy="22.336236"
     inkscape:document-units="px"
     inkscape:current-layer="layer1"
     showgrid="false"
     inkscape:window-width="1358"
     inkscape:window-height="692"
     inkscape:window-x="0"
     inkscape:window-y="0"
     inkscape:window-maximized="1">
    <inkscape:grid
       type="xygrid"
       id="grid2985"
       empspacing="5"
       visible="true"
       enabled="true"
       snapvisiblegridlinesonly="true" />
  </sodipodi:namedview>
  <metadata
     id="metadata7">
    <rdf:RDF>
      <cc:Work
         rdf:about="">
        <dc:format>image/svg+xml</dc:format>
        <dc:type
           rdf:resource="http://purl.org/dc/dcmitype/StillImage" />
        <dc:title></dc:title>
      </cc:Work>
    </rdf:RDF>
  </metadata>
  <g
     inkscape:label="Layer 1"
     inkscape:groupmode="layer"
     id="layer1"
     transform="translate(0,-980.3622)">
    <g
       id="g3050"
       transform="matrix(1.9913364,0,0,1.9913364,0.07963803,-1043.3092)">
      <path
         sodipodi:nodetypes="ccccccccc"
         inkscape:connector-curvature="0"
         id="path2987"
         d="m 0.54848873,1019.001 0,30 c 0,2 0,2 1.99999997,2 l 30.0000003,0 c 2,0 2,0 2,-2 l 0,-30 c 0,-2 0,-2 -2,-2 l -30.0000003,0 c -1.99999997,0 -1.99999997,0 -1.99999997,2 z"
         style="fill:#ffffff;stroke:#ffffff;stroke-width:1px;stroke-linecap:round;stroke-linejoin:round;stroke-opacity:1" />
      <path
         sodipodi:nodetypes="ccccccccc"
         inkscape:connector-curvature="0"
         id="path2987-9-1"
         d="m 1.183934,1018.1974 0,9.8976 c 0,0.66 0,0.66 0.65983,0.66 l 9.89739,0 c 0.65983,0 0.65983,0 0.65983,-0.66 l 0,-9.8976 c 0,-0.6598 0,-0.6598 -0.65983,-0.6598 l -9.89739,0 c -0.65983,0 -0.65983,0 -0.65983,0.6598 z"
         style="fill:#000000;stroke:#ffffff;stroke-width:1.14735949;stroke-linecap:round;stroke-linejoin:round;stroke-miterlimit:4;stroke-opacity:1;stroke-dasharray:none" />
      <path
         sodipodi:nodetypes="ccccccccc"
         inkscape:connector-curvature="0"
         id="path2987-9-0-8"
         d="m 23.638764,1018.1974 0,9.8976 c 0,0.66 0,0.66 0.65982,0.66 l 9.8974,0 c 0.65983,0 0.65983,0 0.65983,-0.66 l 0,-9.8976 c 0,-0.6598 0,-0.6598 -0.65983,-0.6598 l -9.8974,0 c -0.65982,0 -0.65982,0 -0.65982,0.6598 z"
         style="fill:#000000;stroke:#ffffff;stroke-width:1.14735949;stroke-linecap:round;stroke-linejoin:round;stroke-miterlimit:4;stroke-opacity:1;stroke-dasharray:none" />
      <path
         sodipodi:nodetypes="ccccccccc"
         inkscape:connector-curvature="0"
         id="path2987-9-8-2-3"
         d="m 12.167174,1029.4205 0,9.8974 c 0,0.6598 0,0.6598 0.65982,0.6598 l 9.89739,0 c 0.65983,0 0.65983,0 0.65983,-0.6598 l 0,-9.8974 c 0,-0.6599 0,-0.6599 -0.65983,-0.6599 l -9.89739,0 c -0.65982,0 -0.65982,0 -0.65982,0.6599 z"
         style="fill:#ffff00;stroke:#ffffff;stroke-width:1.14735949;stroke-linecap:round;stroke-linejoin:round;stroke-miterlimit:4;stroke-opacity:1;stroke-dasharray:none" />
      <path
         sodipodi:nodetypes="ccccccccc"
         inkscape:connector-curvature="0"
         id="path2987-9-8-5"
         d="m 12.356894,1018.1976 0,9.8974 c 0,0.6598 0,0.6598 0.65983,0.6598 l 9.89739,0 c 0.65983,0 0.65983,0 0.65983,-0.6598 l 0,-9.8974 c 0,-0.6599 0,-0.6599 -0.65983,-0.6599 l -9.89739,0 c -0.65983,0 -0.65983,0 -0.65983,0.6599 z"
         style="fill:#000000;stroke:#ffffff;stroke-width:1.14735949;stroke-linecap:round;stroke-linejoin:round;stroke-miterlimit:4;stroke-opacity:1;stroke-dasharray:none" />
      <path
         sodipodi:nodetypes="cccc"
         inkscape:connector-curvature="0"
         id="path4530-6-7"
         d="m 13.181964,1028.2262 4.73509,-10.0384 4.9245,9.9753 z"
         style="fill:#ffff00;stroke:none" />
      <path
         sodipodi:nodetypes="ccccccccc"
         inkscape:connector-curvature="0"
         id="path2987-9-0-3-9"
         d="m 23.629624,1029.4203 0,9.8976 c 0,0.66 0,0.66 0.65983,0.66 l 9.89739,0 c 0.65982,0 0.65982,0 0.65982,-0.66 l 0,-9.8976 c 0,-0.6598 0,-0.6598 -0.65982,-0.6598 l -9.89739,0 c -0.65983,0 -0.65983,0 -0.65983,0.6598 z"
         style="fill:#000000;stroke:#ffffff;stroke-width:1.14735949;stroke-linecap:round;stroke-linejoin:round;stroke-miterlimit:4;stroke-opacity:1;stroke-dasharray:none" />
      <path
         sodipodi:nodetypes="ccccccc"
         inkscape:connector-curvature="0"
         id="path4530-5-0-8-6"
         d="m 26.205534,1039.4115 -0.38979,-1.852 7.60437,-7.7566 -2.99473,-0.4922 -6.24751,0 -0.0368,10.1281 z"
         style="fill:#ffff00;stroke:none" />
      <path
         sodipodi:nodetypes="ccccccccc"
         inkscape:connector-curvature="0"
         id="path2987-9-9-2"
         d="m 1.174794,1029.5106 0,9.8976 c 0,0.66 0,0.66 0.65982,0.66 l 9.8974,0 c 0.65983,0 0.65983,0 0.65983,-0.66 l 0,-9.8976 c 0,-0.6598 0,-0.6598 -0.65983,-0.6598 l -9.8974,0 c -0.65982,0 -0.65982,0 -0.65982,0.6598 z"
         style="fill:#000000;stroke:#ffffff;stroke-width:1.14735949;stroke-linecap:round;stroke-linejoin:round;stroke-miterlimit:4;stroke-opacity:1;stroke-dasharray:none" />
      <path
         sodipodi:nodetypes="ccccccc"
         inkscape:connector-curvature="0"
         id="path4530-5-0-8-7-9"
         d="m 9.766854,1039.517 0.38979,-1.852 -7.60437,-7.7566 2.99473,-0.4922 6.24751,0 0.0368,10.1281 z"
         style="fill:#ffff00;stroke:none" />
      <path
         sodipodi:nodetypes="ccccccccc"
         inkscape:connector-curvature="0"
         id="path2987-9-8-23-7"
         d="m 23.635554,1040.6892 0,9.8975 c 0,0.6597 0,0.6597 0.65982,0.6597 l 9.89739,0 c 0.65983,0 0.65983,0 0.65983,-0.6597 l 0,-9.8975 c 0,-0.6598 0,-0.6598 -0.65983,-0.6598 l -9.89739,0 c -0.65982,0 -0.65982,0 -0.65982,0.6598 z"
         style="fill:#000000;stroke:#ffffff;stroke-width:1.14735949;stroke-linecap:round;stroke-linejoin:round;stroke-miterlimit:4;stroke-opacity:1;stroke-dasharray:none" />
      <path
         sodipodi:nodetypes="cccccc"
         inkscape:connector-curvature="0"
         id="path4530-7-6-7-4"
         d="m 34.219504,1046.0967 -4.85207,-2.8705 -5.15902,2.9845 -0.0927,-5.7629 10.16675,0.023 z"
         style="fill:#ffff00;stroke:none" />
      <path
         sodipodi:nodetypes="ccccccccc"
         inkscape:connector-curvature="0"
         id="path2987-9-99-6"
         d="m 1.084494,1040.6891 0,9.8976 c 0,0.66 0,0.66 0.65982,0.66 l 9.8974,0 c 0.65983,0 0.65983,0 0.65983,-0.66 l 0,-9.8976 c 0,-0.6598 0,-0.6598 -0.65983,-0.6598 l -9.8974,0 c -0.65982,0 -0.65982,0 -0.65982,0.6598 z"
         style="fill:#000000;stroke:#ffffff;stroke-width:1.14735949;stroke-linecap:round;stroke-linejoin:round;stroke-miterlimit:4;stroke-opacity:1;stroke-dasharray:none" />
      <path
         sodipodi:nodetypes="ccccc"
         inkscape:connector-curvature="0"
         id="path4530-7-3-7"
         d="m 11.732594,1046.9964 -3.35483,1.8226 1.35612,-8.2381 2.00072,-0.039 z"
         style="fill:#ffff00;stroke:none" />
      <path
         transform="translate(0,1016.3622)"
         inkscape:connector-curvature="0"
         id="path4999"
         d="m 13.093827,24.351009 -0.0903,9.752644 10.023548,0"
         style="fill:none;stroke:#cccccc;stroke-width:1px;stroke-linecap:butt;stroke-linejoin:miter;stroke-opacity:1" />
      <path
         sodipodi:nodetypes="ccccccccc"
         inkscape:connector-curvature="0"
         id="path2987-6"
         d="m 0.67120436,1019.0436 0,30.6966 c 0,2.0464 0,2.0464 2.04644114,2.0464 l 30.6966175,0 c 2.046441,0 2.046441,0 2.046441,-2.0464 l 0,-30.6966 c 0,-2.0465 0,-2.0465 -2.046441,-2.0465 l -30.6966175,0 c -2.04644114,0 -2.04644114,0 -2.04644114,2.0465 z"
         style="fill:none;stroke:#000000;stroke-width:1.02322054px;stroke-linecap:round;stroke-linejoin:round;stroke-opacity:1" />
      <path
         sodipodi:nodetypes="ccccccccc"
         inkscape:connector-curvature="0"
         id="path2987-1"
         d="m 0.16692045,1018.6485 0,31.5139 c 0,2.1009 0,2.1009 2.10623795,2.1009 l 31.5935696,0 c 2.106238,0 2.106238,0 2.106238,-2.1009 l 0,-31.5139 c 0,-2.1009 0,-2.1009 -2.106238,-2.1009 l -31.5935696,0 c -2.10623795,0 -2.10623795,0 -2.10623795,2.1009 z"
         style="fill:url(#linearGradient3069);fill-opacity:1;stroke:none" />
    </g>
  </g>
</svg>
