<?xml version="1.0" encoding="UTF-8" standalone="no"?>
<!-- Created with Inkscape (http://www.inkscape.org/) -->

<svg
   xmlns:dc="http://purl.org/dc/elements/1.1/"
   xmlns:cc="http://creativecommons.org/ns#"
   xmlns:rdf="http://www.w3.org/1999/02/22-rdf-syntax-ns#"
   xmlns:svg="http://www.w3.org/2000/svg"
   xmlns="http://www.w3.org/2000/svg"
   xmlns:xlink="http://www.w3.org/1999/xlink"
   xmlns:sodipodi="http://sodipodi.sourceforge.net/DTD/sodipodi-0.dtd"
   xmlns:inkscape="http://www.inkscape.org/namespaces/inkscape"
   width="160"
   height="160"
   id="svg2"
   version="1.1"
   inkscape:version="0.47 r22583"
   sodipodi:docname="left.svg"
   inkscape:export-filename="C:\Users\Claire\Documents\left.png"
   inkscape:export-xdpi="18"
   inkscape:export-ydpi="18">
  <defs
     id="defs4">
    <linearGradient
       inkscape:collect="always"
       id="linearGradient7333">
      <stop
         style="stop-color:#000000;stop-opacity:1;"
         offset="0"
         id="stop7335" />
      <stop
         style="stop-color:#000000;stop-opacity:0;"
         offset="1"
         id="stop7337" />
    </linearGradient>
    <linearGradient
       id="linearGradient7323">
      <stop
         style="stop-color:#006480;stop-opacity:1;"
         offset="0"
         id="stop7325" />
      <stop
         style="stop-color:#ffffff;stop-opacity:0.99607843;"
         offset="1"
         id="stop7359" />
    </linearGradient>
    <linearGradient
       inkscape:collect="always"
       id="linearGradient7301">
      <stop
         style="stop-color:#000000;stop-opacity:1;"
         offset="0"
         id="stop7303" />
      <stop
         style="stop-color:#000000;stop-opacity:0;"
         offset="1"
         id="stop7305" />
    </linearGradient>
    <linearGradient
       inkscape:collect="always"
       id="linearGradient5845">
      <stop
         style="stop-color:#000000;stop-opacity:1;"
         offset="0"
         id="stop5847" />
      <stop
         style="stop-color:#000000;stop-opacity:0;"
         offset="1"
         id="stop5849" />
    </linearGradient>
    <linearGradient
       id="linearGradient5837">
      <stop
         style="stop-color:#008080;stop-opacity:1;"
         offset="0"
         id="stop5839" />
      <stop
         style="stop-color:#008080;stop-opacity:1;"
         offset="1"
         id="stop5841" />
    </linearGradient>
    <linearGradient
       id="linearGradient5811">
      <stop
         style="stop-color:#ffffff;stop-opacity:1;"
         offset="0"
         id="stop5813" />
      <stop
         id="stop5827"
         offset="0.5"
         style="stop-color:#0f594e;stop-opacity:1;" />
      <stop
         style="stop-color:#000000;stop-opacity:1;"
         offset="1"
         id="stop5815" />
    </linearGradient>
    <linearGradient
       id="linearGradient5750">
      <stop
         style="stop-color:#001bbf;stop-opacity:1;"
         offset="0"
         id="stop5752" />
      <stop
         id="stop5760"
         offset="0.5"
         style="stop-color:#ffffff;stop-opacity:1;" />
      <stop
         style="stop-color:#001bbf;stop-opacity:1;"
         offset="1"
         id="stop5754" />
    </linearGradient>
    <inkscape:perspective
       sodipodi:type="inkscape:persp3d"
       inkscape:vp_x="0 : 526.18109 : 1"
       inkscape:vp_y="0 : 1000 : 0"
       inkscape:vp_z="744.09448 : 526.18109 : 1"
       inkscape:persp3d-origin="372.04724 : 350.78739 : 1"
       id="perspective10" />
    <filter
       id="filter2854"
       inkscape:label="Darken edges"
       inkscape:menu="Shadows and Glows"
       inkscape:menu-tooltip="Darken the edges with an inner blur"
       color-interpolation-filters="sRGB">
      <feGaussianBlur
         id="feGaussianBlur2856"
         result="result6"
         stdDeviation="1.5" />
      <feComposite
         id="feComposite2858"
         in2="result6"
         operator="atop"
         in="SourceGraphic"
         result="result8" />
      <feComposite
         id="feComposite2860"
         in2="SourceAlpha"
         in="result8"
         operator="atop"
         result="result9" />
    </filter>
    <inkscape:perspective
       id="perspective3662"
       inkscape:persp3d-origin="0.5 : 0.33333333 : 1"
       inkscape:vp_z="1 : 0.5 : 1"
       inkscape:vp_y="0 : 1000 : 0"
       inkscape:vp_x="0 : 0.5 : 1"
       sodipodi:type="inkscape:persp3d" />
    <filter
       id="filter4090"
       inkscape:menu-tooltip="In and out glow with a possible offset and colorizable flood"
       inkscape:menu="Shadows and Glows"
       inkscape:label="Cutout Glow"
       color-interpolation-filters="sRGB">
      <feOffset
         id="feOffset4092"
         dy="3"
         dx="3" />
      <feGaussianBlur
         id="feGaussianBlur4094"
         result="result8"
         stdDeviation="3" />
      <feFlood
         id="feFlood4096"
         flood-color="rgb(0,0,0)"
         flood-opacity="1"
         in="result8"
         result="result10" />
      <feComposite
         id="feComposite4098"
         in2="SourceGraphic"
         operator="in"
         in="result10"
         result="result9" />
      <feBlend
         id="feBlend4100"
         in2="result9"
         mode="normal"
         in="result8" />
    </filter>
    <filter
       id="filter5573"
       y="-0.25"
       height="1.5"
       inkscape:menu-tooltip="Darkens the edge with an inner blur and adds a flexible glow"
       inkscape:menu="Shadows and Glows"
       inkscape:label="Dark and Glow"
       color-interpolation-filters="sRGB">
      <feGaussianBlur
         id="feGaussianBlur5575"
         stdDeviation="5"
         result="result6" />
      <feComposite
         id="feComposite5577"
         in2="result6"
         result="result8"
         in="SourceGraphic"
         operator="atop" />
      <feComposite
         id="feComposite5579"
         in2="SourceAlpha"
         result="result9"
         operator="over"
         in="result8" />
      <feColorMatrix
         id="feColorMatrix5581"
         values="1 0 0 0 0 0 1 0 0 0 0 0 1 0 0 0 0 0 1 0 "
         result="result10" />
      <feBlend
         id="feBlend5583"
         in2="result6"
         in="result10"
         mode="normal" />
    </filter>
    <filter
       id="filter5138"
       inkscape:menu-tooltip="In and out glow with a possible offset and colorizable flood"
       inkscape:menu="Shadows and Glows"
       inkscape:label="Cutout Glow"
       color-interpolation-filters="sRGB">
      <feOffset
         id="feOffset5140"
         dy="3"
         dx="3" />
      <feGaussianBlur
         id="feGaussianBlur5142"
         result="result8"
         stdDeviation="3" />
      <feFlood
         id="feFlood5144"
         flood-color="rgb(0,0,0)"
         flood-opacity="1"
         in="result8"
         result="result10" />
      <feComposite
         id="feComposite5146"
         in2="SourceGraphic"
         operator="in"
         in="result10"
         result="result9" />
      <feBlend
         id="feBlend5148"
         in2="result9"
         mode="normal"
         in="result8" />
    </filter>
    <filter
       id="filter5114"
       inkscape:menu-tooltip="In and out glow with a possible offset and colorizable flood"
       inkscape:menu="Shadows and Glows"
       inkscape:label="Cutout Glow"
       color-interpolation-filters="sRGB">
      <feOffset
         id="feOffset5116"
         dy="3"
         dx="3" />
      <feGaussianBlur
         id="feGaussianBlur5118"
         result="result8"
         stdDeviation="3" />
      <feFlood
         id="feFlood5120"
         flood-color="rgb(0,0,0)"
         flood-opacity="1"
         in="result8"
         result="result10" />
      <feComposite
         id="feComposite5122"
         in2="SourceGraphic"
         operator="in"
         in="result10"
         result="result9" />
      <feBlend
         id="feBlend5124"
         in2="result9"
         mode="normal"
         in="result8" />
    </filter>
    <filter
       id="filter5126"
       inkscape:menu-tooltip="In and out glow with a possible offset and colorizable flood"
       inkscape:menu="Shadows and Glows"
       inkscape:label="Cutout Glow"
       color-interpolation-filters="sRGB">
      <feOffset
         id="feOffset5128"
         dy="3"
         dx="3" />
      <feGaussianBlur
         id="feGaussianBlur5130"
         result="result8"
         stdDeviation="3" />
      <feFlood
         id="feFlood5132"
         flood-color="rgb(0,0,0)"
         flood-opacity="1"
         in="result8"
         result="result10" />
      <feComposite
         id="feComposite5134"
         in2="SourceGraphic"
         operator="in"
         in="result10"
         result="result9" />
      <feBlend
         id="feBlend5136"
         in2="result9"
         mode="normal"
         in="result8" />
    </filter>
    <filter
       id="filter5477"
       inkscape:label="Metallized paint"
       inkscape:menu="Materials"
       inkscape:menu-tooltip="Metallized effect with a soft lighting, slightly translucent at the edges"
       height="1.1"
       width="1.1"
       y="-0.050000001"
       x="-0.050000001"
       color-interpolation-filters="sRGB">
      <feGaussianBlur
         id="feGaussianBlur5479"
         stdDeviation="1"
         result="result1" />
      <feComposite
         id="feComposite5481"
         in2="result1"
         in="result1"
         result="result4"
         operator="in" />
      <feBlend
         id="feBlend5483"
         in2="result4"
         in="result1"
         mode="screen"
         result="result5" />
      <feGaussianBlur
         id="feGaussianBlur5485"
         stdDeviation="8"
         result="result6"
         in="result5" />
      <feComposite
         id="feComposite5487"
         in2="result5"
         operator="atop"
         in="result6"
         result="result8" />
      <feComposite
         id="feComposite5489"
         in2="result8"
         operator="in"
         result="fbSourceGraphic"
         in="result6" />
      <feGaussianBlur
         id="feGaussianBlur5491"
         result="result0"
         in="fbSourceGraphic"
         stdDeviation="2.5" />
      <feSpecularLighting
         id="feSpecularLighting5493"
         specularExponent="45"
         specularConstant="1.5"
         surfaceScale="1"
         lighting-color="#ffffff"
         result="result1"
         in="result0">
        <fePointLight
           id="fePointLight5495"
           z="21000"
           y="-9000"
           x="-6000" />
      </feSpecularLighting>
      <feComposite
         id="feComposite5497"
         in2="fbSourceGraphic"
         operator="in"
         result="result2"
         in="result1" />
      <feComposite
         k4="0"
         k1="0"
         id="feComposite5499"
         in2="result2"
         k3="1"
         k2="1"
         operator="arithmetic"
         result="result4"
         in="fbSourceGraphic" />
      <feComposite
         id="feComposite5501"
         in2="result4"
         operator="in"
         result="result91" />
      <feBlend
         id="feBlend5503"
         in2="result91"
         mode="multiply" />
    </filter>
    <filter
       id="filter5449"
       inkscape:label="Metallized paint"
       inkscape:menu="Materials"
       inkscape:menu-tooltip="Metallized effect with a soft lighting, slightly translucent at the edges"
       height="1.1"
       width="1.1"
       y="-0.050000001"
       x="-0.050000001"
       color-interpolation-filters="sRGB">
      <feGaussianBlur
         id="feGaussianBlur5451"
         stdDeviation="1"
         result="result1" />
      <feComposite
         id="feComposite5453"
         in2="result1"
         in="result1"
         result="result4"
         operator="in" />
      <feBlend
         id="feBlend5455"
         in2="result4"
         in="result1"
         mode="screen"
         result="result5" />
      <feGaussianBlur
         id="feGaussianBlur5457"
         stdDeviation="8"
         result="result6"
         in="result5" />
      <feComposite
         id="feComposite5459"
         in2="result5"
         operator="atop"
         in="result6"
         result="result8" />
      <feComposite
         id="feComposite5461"
         in2="result8"
         operator="in"
         result="fbSourceGraphic"
         in="result6" />
      <feGaussianBlur
         id="feGaussianBlur5463"
         result="result0"
         in="fbSourceGraphic"
         stdDeviation="2.5" />
      <feSpecularLighting
         id="feSpecularLighting5465"
         specularExponent="45"
         specularConstant="1.5"
         surfaceScale="1"
         lighting-color="#ffffff"
         result="result1"
         in="result0">
        <fePointLight
           id="fePointLight5467"
           z="21000"
           y="-9000"
           x="-6000" />
      </feSpecularLighting>
      <feComposite
         id="feComposite5469"
         in2="fbSourceGraphic"
         operator="in"
         result="result2"
         in="result1" />
      <feComposite
         k4="0"
         k1="0"
         id="feComposite5471"
         in2="result2"
         k3="1"
         k2="1"
         operator="arithmetic"
         result="result4"
         in="fbSourceGraphic" />
      <feComposite
         id="feComposite5473"
         in2="result4"
         operator="in"
         result="result91" />
      <feBlend
         id="feBlend5475"
         in2="result91"
         mode="multiply" />
    </filter>
    <filter
       id="filter5421"
       inkscape:label="Metallized paint"
       inkscape:menu="Materials"
       inkscape:menu-tooltip="Metallized effect with a soft lighting, slightly translucent at the edges"
       height="1.1"
       width="1.1"
       y="-0.050000001"
       x="-0.050000001"
       color-interpolation-filters="sRGB">
      <feGaussianBlur
         id="feGaussianBlur5423"
         stdDeviation="1"
         result="result1" />
      <feComposite
         id="feComposite5425"
         in2="result1"
         in="result1"
         result="result4"
         operator="in" />
      <feBlend
         id="feBlend5427"
         in2="result4"
         in="result1"
         mode="screen"
         result="result5" />
      <feGaussianBlur
         id="feGaussianBlur5429"
         stdDeviation="8"
         result="result6"
         in="result5" />
      <feComposite
         id="feComposite5431"
         in2="result5"
         operator="atop"
         in="result6"
         result="result8" />
      <feComposite
         id="feComposite5433"
         in2="result8"
         operator="in"
         result="fbSourceGraphic"
         in="result6" />
      <feGaussianBlur
         id="feGaussianBlur5435"
         result="result0"
         in="fbSourceGraphic"
         stdDeviation="2.5" />
      <feSpecularLighting
         id="feSpecularLighting5437"
         specularExponent="45"
         specularConstant="1.5"
         surfaceScale="1"
         lighting-color="#ffffff"
         result="result1"
         in="result0">
        <fePointLight
           id="fePointLight5439"
           z="21000"
           y="-9000"
           x="-6000" />
      </feSpecularLighting>
      <feComposite
         id="feComposite5441"
         in2="fbSourceGraphic"
         operator="in"
         result="result2"
         in="result1" />
      <feComposite
         k4="0"
         k1="0"
         id="feComposite5443"
         in2="result2"
         k3="1"
         k2="1"
         operator="arithmetic"
         result="result4"
         in="fbSourceGraphic" />
      <feComposite
         id="feComposite5445"
         in2="result4"
         operator="in"
         result="result91" />
      <feBlend
         id="feBlend5447"
         in2="result91"
         mode="multiply" />
    </filter>
    <filter
       id="filter5393"
       inkscape:label="Metallized paint"
       inkscape:menu="Materials"
       inkscape:menu-tooltip="Metallized effect with a soft lighting, slightly translucent at the edges"
       height="1.1"
       width="1.1"
       y="-0.050000001"
       x="-0.050000001"
       color-interpolation-filters="sRGB">
      <feGaussianBlur
         id="feGaussianBlur5395"
         stdDeviation="1"
         result="result1" />
      <feComposite
         id="feComposite5397"
         in2="result1"
         in="result1"
         result="result4"
         operator="in" />
      <feBlend
         id="feBlend5399"
         in2="result4"
         in="result1"
         mode="screen"
         result="result5" />
      <feGaussianBlur
         id="feGaussianBlur5401"
         stdDeviation="8"
         result="result6"
         in="result5" />
      <feComposite
         id="feComposite5403"
         in2="result5"
         operator="atop"
         in="result6"
         result="result8" />
      <feComposite
         id="feComposite5405"
         in2="result8"
         operator="in"
         result="fbSourceGraphic"
         in="result6" />
      <feGaussianBlur
         id="feGaussianBlur5407"
         result="result0"
         in="fbSourceGraphic"
         stdDeviation="2.5" />
      <feSpecularLighting
         id="feSpecularLighting5409"
         specularExponent="45"
         specularConstant="1.5"
         surfaceScale="1"
         lighting-color="#ffffff"
         result="result1"
         in="result0">
        <fePointLight
           id="fePointLight5411"
           z="21000"
           y="-9000"
           x="-6000" />
      </feSpecularLighting>
      <feComposite
         id="feComposite5413"
         in2="fbSourceGraphic"
         operator="in"
         result="result2"
         in="result1" />
      <feComposite
         k4="0"
         k1="0"
         id="feComposite5415"
         in2="result2"
         k3="1"
         k2="1"
         operator="arithmetic"
         result="result4"
         in="fbSourceGraphic" />
      <feComposite
         id="feComposite5417"
         in2="result4"
         operator="in"
         result="result91" />
      <feBlend
         id="feBlend5419"
         in2="result91"
         mode="multiply" />
    </filter>
    <filter
       id="filter5309"
       inkscape:label="Metallized paint"
       inkscape:menu="Materials"
       inkscape:menu-tooltip="Metallized effect with a soft lighting, slightly translucent at the edges"
       height="1.1"
       width="1.1"
       y="-0.050000001"
       x="-0.050000001"
       color-interpolation-filters="sRGB">
      <feGaussianBlur
         id="feGaussianBlur5311"
         stdDeviation="1"
         result="result1" />
      <feComposite
         id="feComposite5313"
         in2="result1"
         in="result1"
         result="result4"
         operator="in" />
      <feBlend
         id="feBlend5315"
         in2="result4"
         in="result1"
         mode="screen"
         result="result5" />
      <feGaussianBlur
         id="feGaussianBlur5317"
         stdDeviation="8"
         result="result6"
         in="result5" />
      <feComposite
         id="feComposite5319"
         in2="result5"
         operator="atop"
         in="result6"
         result="result8" />
      <feComposite
         id="feComposite5321"
         in2="result8"
         operator="in"
         result="fbSourceGraphic"
         in="result6" />
      <feGaussianBlur
         id="feGaussianBlur5323"
         result="result0"
         in="fbSourceGraphic"
         stdDeviation="2.5" />
      <feSpecularLighting
         id="feSpecularLighting5325"
         specularExponent="45"
         specularConstant="1.5"
         surfaceScale="1"
         lighting-color="#ffffff"
         result="result1"
         in="result0">
        <fePointLight
           id="fePointLight5327"
           z="21000"
           y="-9000"
           x="-6000" />
      </feSpecularLighting>
      <feComposite
         id="feComposite5329"
         in2="fbSourceGraphic"
         operator="in"
         result="result2"
         in="result1" />
      <feComposite
         k4="0"
         k1="0"
         id="feComposite5331"
         in2="result2"
         k3="1"
         k2="1"
         operator="arithmetic"
         result="result4"
         in="fbSourceGraphic" />
      <feComposite
         id="feComposite5333"
         in2="result4"
         operator="in"
         result="result91" />
      <feBlend
         id="feBlend5335"
         in2="result91"
         mode="multiply" />
    </filter>
    <filter
       id="filter5281"
       inkscape:label="Metallized paint"
       inkscape:menu="Materials"
       inkscape:menu-tooltip="Metallized effect with a soft lighting, slightly translucent at the edges"
       height="1.1"
       width="1.1"
       y="-0.050000001"
       x="-0.050000001"
       color-interpolation-filters="sRGB">
      <feGaussianBlur
         id="feGaussianBlur5283"
         stdDeviation="1"
         result="result1" />
      <feComposite
         id="feComposite5285"
         in2="result1"
         in="result1"
         result="result4"
         operator="in" />
      <feBlend
         id="feBlend5287"
         in2="result4"
         in="result1"
         mode="screen"
         result="result5" />
      <feGaussianBlur
         id="feGaussianBlur5289"
         stdDeviation="8"
         result="result6"
         in="result5" />
      <feComposite
         id="feComposite5291"
         in2="result5"
         operator="atop"
         in="result6"
         result="result8" />
      <feComposite
         id="feComposite5293"
         in2="result8"
         operator="in"
         result="fbSourceGraphic"
         in="result6" />
      <feGaussianBlur
         id="feGaussianBlur5295"
         result="result0"
         in="fbSourceGraphic"
         stdDeviation="2.5" />
      <feSpecularLighting
         id="feSpecularLighting5297"
         specularExponent="45"
         specularConstant="1.5"
         surfaceScale="1"
         lighting-color="#ffffff"
         result="result1"
         in="result0">
        <fePointLight
           id="fePointLight5299"
           z="21000"
           y="-9000"
           x="-6000" />
      </feSpecularLighting>
      <feComposite
         id="feComposite5301"
         in2="fbSourceGraphic"
         operator="in"
         result="result2"
         in="result1" />
      <feComposite
         k4="0"
         k1="0"
         id="feComposite5303"
         in2="result2"
         k3="1"
         k2="1"
         operator="arithmetic"
         result="result4"
         in="fbSourceGraphic" />
      <feComposite
         id="feComposite5305"
         in2="result4"
         operator="in"
         result="result91" />
      <feBlend
         id="feBlend5307"
         in2="result91"
         mode="multiply" />
    </filter>
    <filter
       id="filter5365"
       inkscape:label="Metallized paint"
       inkscape:menu="Materials"
       inkscape:menu-tooltip="Metallized effect with a soft lighting, slightly translucent at the edges"
       height="1.1"
       width="1.1"
       y="-0.050000001"
       x="-0.050000001"
       color-interpolation-filters="sRGB">
      <feGaussianBlur
         id="feGaussianBlur5367"
         stdDeviation="1"
         result="result1" />
      <feComposite
         id="feComposite5369"
         in2="result1"
         in="result1"
         result="result4"
         operator="in" />
      <feBlend
         id="feBlend5371"
         in2="result4"
         in="result1"
         mode="screen"
         result="result5" />
      <feGaussianBlur
         id="feGaussianBlur5373"
         stdDeviation="8"
         result="result6"
         in="result5" />
      <feComposite
         id="feComposite5375"
         in2="result5"
         operator="atop"
         in="result6"
         result="result8" />
      <feComposite
         id="feComposite5377"
         in2="result8"
         operator="in"
         result="fbSourceGraphic"
         in="result6" />
      <feGaussianBlur
         id="feGaussianBlur5379"
         result="result0"
         in="fbSourceGraphic"
         stdDeviation="2.5" />
      <feSpecularLighting
         id="feSpecularLighting5381"
         specularExponent="45"
         specularConstant="1.5"
         surfaceScale="1"
         lighting-color="#ffffff"
         result="result1"
         in="result0">
        <fePointLight
           id="fePointLight5383"
           z="21000"
           y="-9000"
           x="-6000" />
      </feSpecularLighting>
      <feComposite
         id="feComposite5385"
         in2="fbSourceGraphic"
         operator="in"
         result="result2"
         in="result1" />
      <feComposite
         k4="0"
         k1="0"
         id="feComposite5387"
         in2="result2"
         k3="1"
         k2="1"
         operator="arithmetic"
         result="result4"
         in="fbSourceGraphic" />
      <feComposite
         id="feComposite5389"
         in2="result4"
         operator="in"
         result="result91" />
      <feBlend
         id="feBlend5391"
         in2="result91"
         mode="multiply" />
    </filter>
    <filter
       id="filter5337"
       inkscape:label="Metallized paint"
       inkscape:menu="Materials"
       inkscape:menu-tooltip="Metallized effect with a soft lighting, slightly translucent at the edges"
       height="1.1"
       width="1.1"
       y="-0.050000001"
       x="-0.050000001"
       color-interpolation-filters="sRGB">
      <feGaussianBlur
         id="feGaussianBlur5339"
         stdDeviation="1"
         result="result1" />
      <feComposite
         id="feComposite5341"
         in2="result1"
         in="result1"
         result="result4"
         operator="in" />
      <feBlend
         id="feBlend5343"
         in2="result4"
         in="result1"
         mode="screen"
         result="result5" />
      <feGaussianBlur
         id="feGaussianBlur5345"
         stdDeviation="8"
         result="result6"
         in="result5" />
      <feComposite
         id="feComposite5347"
         in2="result5"
         operator="atop"
         in="result6"
         result="result8" />
      <feComposite
         id="feComposite5349"
         in2="result8"
         operator="in"
         result="fbSourceGraphic"
         in="result6" />
      <feGaussianBlur
         id="feGaussianBlur5351"
         result="result0"
         in="fbSourceGraphic"
         stdDeviation="2.5" />
      <feSpecularLighting
         id="feSpecularLighting5353"
         specularExponent="45"
         specularConstant="1.5"
         surfaceScale="1"
         lighting-color="#ffffff"
         result="result1"
         in="result0">
        <fePointLight
           id="fePointLight5355"
           z="21000"
           y="-9000"
           x="-6000" />
      </feSpecularLighting>
      <feComposite
         id="feComposite5357"
         in2="fbSourceGraphic"
         operator="in"
         result="result2"
         in="result1" />
      <feComposite
         k4="0"
         k1="0"
         id="feComposite5359"
         in2="result2"
         k3="1"
         k2="1"
         operator="arithmetic"
         result="result4"
         in="fbSourceGraphic" />
      <feComposite
         id="feComposite5361"
         in2="result4"
         operator="in"
         result="result91" />
      <feBlend
         id="feBlend5363"
         in2="result91"
         mode="multiply" />
    </filter>
    <filter
       id="filter5505"
       inkscape:label="Metallized paint"
       inkscape:menu="Materials"
       inkscape:menu-tooltip="Metallized effect with a soft lighting, slightly translucent at the edges"
       height="1.1"
       width="1.1"
       y="-0.050000001"
       x="-0.050000001"
       color-interpolation-filters="sRGB">
      <feGaussianBlur
         id="feGaussianBlur5507"
         stdDeviation="1"
         result="result1" />
      <feComposite
         id="feComposite5509"
         in2="result1"
         in="result1"
         result="result4"
         operator="in" />
      <feBlend
         id="feBlend5511"
         in2="result4"
         in="result1"
         mode="screen"
         result="result5" />
      <feGaussianBlur
         id="feGaussianBlur5513"
         stdDeviation="8"
         result="result6"
         in="result5" />
      <feComposite
         id="feComposite5515"
         in2="result5"
         operator="atop"
         in="result6"
         result="result8" />
      <feComposite
         id="feComposite5517"
         in2="result8"
         operator="in"
         result="fbSourceGraphic"
         in="result6" />
      <feGaussianBlur
         id="feGaussianBlur5519"
         result="result0"
         in="fbSourceGraphic"
         stdDeviation="2.5" />
      <feSpecularLighting
         id="feSpecularLighting5521"
         specularExponent="45"
         specularConstant="1.5"
         surfaceScale="1"
         lighting-color="#ffffff"
         result="result1"
         in="result0">
        <fePointLight
           id="fePointLight5523"
           z="21000"
           y="-9000"
           x="-6000" />
      </feSpecularLighting>
      <feComposite
         id="feComposite5525"
         in2="fbSourceGraphic"
         operator="in"
         result="result2"
         in="result1" />
      <feComposite
         k4="0"
         k1="0"
         id="feComposite5527"
         in2="result2"
         k3="1"
         k2="1"
         operator="arithmetic"
         result="result4"
         in="fbSourceGraphic" />
      <feComposite
         id="feComposite5529"
         in2="result4"
         operator="in"
         result="result91" />
      <feBlend
         id="feBlend5531"
         in2="result91"
         mode="multiply" />
    </filter>
    <inkscape:perspective
       id="perspective3662-1"
       inkscape:persp3d-origin="0.5 : 0.33333333 : 1"
       inkscape:vp_z="1 : 0.5 : 1"
       inkscape:vp_y="0 : 1000 : 0"
       inkscape:vp_x="0 : 0.5 : 1"
       sodipodi:type="inkscape:persp3d" />
    <filter
       id="filter4090-7"
       inkscape:menu-tooltip="In and out glow with a possible offset and colorizable flood"
       inkscape:menu="Shadows and Glows"
       inkscape:label="Cutout Glow"
       color-interpolation-filters="sRGB">
      <feOffset
         id="feOffset4092-4"
         dy="3"
         dx="3" />
      <feGaussianBlur
         id="feGaussianBlur4094-0"
         result="result8"
         stdDeviation="3" />
      <feFlood
         id="feFlood4096-9"
         flood-color="rgb(0,0,0)"
         flood-opacity="1"
         in="result8"
         result="result10" />
      <feComposite
         id="feComposite4098-4"
         in2="SourceGraphic"
         operator="in"
         in="result10"
         result="result9" />
      <feBlend
         id="feBlend4100-8"
         in2="result9"
         mode="normal"
         in="result8" />
    </filter>
    <filter
       id="filter5573-8"
       y="-0.25"
       height="1.5"
       inkscape:menu-tooltip="Darkens the edge with an inner blur and adds a flexible glow"
       inkscape:menu="Shadows and Glows"
       inkscape:label="Dark and Glow"
       color-interpolation-filters="sRGB">
      <feGaussianBlur
         id="feGaussianBlur5575-2"
         stdDeviation="5"
         result="result6" />
      <feComposite
         id="feComposite5577-4"
         in2="result6"
         result="result8"
         in="SourceGraphic"
         operator="atop" />
      <feComposite
         id="feComposite5579-5"
         in2="SourceAlpha"
         result="result9"
         operator="over"
         in="result8" />
      <feColorMatrix
         id="feColorMatrix5581-5"
         values="1 0 0 0 0 0 1 0 0 0 0 0 1 0 0 0 0 0 1 0 "
         result="result10" />
      <feBlend
         id="feBlend5583-1"
         in2="result6"
         in="result10"
         mode="normal" />
    </filter>
    <filter
       id="filter5138-7"
       inkscape:menu-tooltip="In and out glow with a possible offset and colorizable flood"
       inkscape:menu="Shadows and Glows"
       inkscape:label="Cutout Glow"
       color-interpolation-filters="sRGB">
      <feOffset
         id="feOffset5140-1"
         dy="3"
         dx="3" />
      <feGaussianBlur
         id="feGaussianBlur5142-1"
         result="result8"
         stdDeviation="3" />
      <feFlood
         id="feFlood5144-5"
         flood-color="rgb(0,0,0)"
         flood-opacity="1"
         in="result8"
         result="result10" />
      <feComposite
         id="feComposite5146-2"
         in2="SourceGraphic"
         operator="in"
         in="result10"
         result="result9" />
      <feBlend
         id="feBlend5148-7"
         in2="result9"
         mode="normal"
         in="result8" />
    </filter>
    <filter
       id="filter5114-6"
       inkscape:menu-tooltip="In and out glow with a possible offset and colorizable flood"
       inkscape:menu="Shadows and Glows"
       inkscape:label="Cutout Glow"
       color-interpolation-filters="sRGB">
      <feOffset
         id="feOffset5116-1"
         dy="3"
         dx="3" />
      <feGaussianBlur
         id="feGaussianBlur5118-4"
         result="result8"
         stdDeviation="3" />
      <feFlood
         id="feFlood5120-2"
         flood-color="rgb(0,0,0)"
         flood-opacity="1"
         in="result8"
         result="result10" />
      <feComposite
         id="feComposite5122-3"
         in2="SourceGraphic"
         operator="in"
         in="result10"
         result="result9" />
      <feBlend
         id="feBlend5124-2"
         in2="result9"
         mode="normal"
         in="result8" />
    </filter>
    <filter
       id="filter5126-2"
       inkscape:menu-tooltip="In and out glow with a possible offset and colorizable flood"
       inkscape:menu="Shadows and Glows"
       inkscape:label="Cutout Glow"
       color-interpolation-filters="sRGB">
      <feOffset
         id="feOffset5128-1"
         dy="3"
         dx="3" />
      <feGaussianBlur
         id="feGaussianBlur5130-6"
         result="result8"
         stdDeviation="3" />
      <feFlood
         id="feFlood5132-8"
         flood-color="rgb(0,0,0)"
         flood-opacity="1"
         in="result8"
         result="result10" />
      <feComposite
         id="feComposite5134-5"
         in2="SourceGraphic"
         operator="in"
         in="result10"
         result="result9" />
      <feBlend
         id="feBlend5136-7"
         in2="result9"
         mode="normal"
         in="result8" />
    </filter>
    <filter
       id="filter5477-6"
       inkscape:label="Metallized paint"
       inkscape:menu="Materials"
       inkscape:menu-tooltip="Metallized effect with a soft lighting, slightly translucent at the edges"
       height="1.1"
       width="1.1"
       y="-0.050000001"
       x="-0.050000001"
       color-interpolation-filters="sRGB">
      <feGaussianBlur
         id="feGaussianBlur5479-1"
         stdDeviation="1"
         result="result1" />
      <feComposite
         id="feComposite5481-8"
         in2="result1"
         in="result1"
         result="result4"
         operator="in" />
      <feBlend
         id="feBlend5483-9"
         in2="result4"
         in="result1"
         mode="screen"
         result="result5" />
      <feGaussianBlur
         id="feGaussianBlur5485-2"
         stdDeviation="8"
         result="result6"
         in="result5" />
      <feComposite
         id="feComposite5487-7"
         in2="result5"
         operator="atop"
         in="result6"
         result="result8" />
      <feComposite
         id="feComposite5489-9"
         in2="result8"
         operator="in"
         result="fbSourceGraphic"
         in="result6" />
      <feGaussianBlur
         id="feGaussianBlur5491-5"
         result="result0"
         in="fbSourceGraphic"
         stdDeviation="2.5" />
      <feSpecularLighting
         id="feSpecularLighting5493-4"
         specularExponent="45"
         specularConstant="1.5"
         surfaceScale="1"
         lighting-color="#ffffff"
         result="result1"
         in="result0">
        <fePointLight
           id="fePointLight5495-3"
           z="21000"
           y="-9000"
           x="-6000" />
      </feSpecularLighting>
      <feComposite
         id="feComposite5497-1"
         in2="fbSourceGraphic"
         operator="in"
         result="result2"
         in="result1" />
      <feComposite
         k4="0"
         k1="0"
         id="feComposite5499-2"
         in2="result2"
         k3="1"
         k2="1"
         operator="arithmetic"
         result="result4"
         in="fbSourceGraphic" />
      <feComposite
         id="feComposite5501-3"
         in2="result4"
         operator="in"
         result="result91" />
      <feBlend
         id="feBlend5503-3"
         in2="result91"
         mode="multiply" />
    </filter>
    <filter
       id="filter5449-4"
       inkscape:label="Metallized paint"
       inkscape:menu="Materials"
       inkscape:menu-tooltip="Metallized effect with a soft lighting, slightly translucent at the edges"
       height="1.1"
       width="1.1"
       y="-0.050000001"
       x="-0.050000001"
       color-interpolation-filters="sRGB">
      <feGaussianBlur
         id="feGaussianBlur5451-1"
         stdDeviation="1"
         result="result1" />
      <feComposite
         id="feComposite5453-1"
         in2="result1"
         in="result1"
         result="result4"
         operator="in" />
      <feBlend
         id="feBlend5455-3"
         in2="result4"
         in="result1"
         mode="screen"
         result="result5" />
      <feGaussianBlur
         id="feGaussianBlur5457-8"
         stdDeviation="8"
         result="result6"
         in="result5" />
      <feComposite
         id="feComposite5459-7"
         in2="result5"
         operator="atop"
         in="result6"
         result="result8" />
      <feComposite
         id="feComposite5461-4"
         in2="result8"
         operator="in"
         result="fbSourceGraphic"
         in="result6" />
      <feGaussianBlur
         id="feGaussianBlur5463-2"
         result="result0"
         in="fbSourceGraphic"
         stdDeviation="2.5" />
      <feSpecularLighting
         id="feSpecularLighting5465-7"
         specularExponent="45"
         specularConstant="1.5"
         surfaceScale="1"
         lighting-color="#ffffff"
         result="result1"
         in="result0">
        <fePointLight
           id="fePointLight5467-7"
           z="21000"
           y="-9000"
           x="-6000" />
      </feSpecularLighting>
      <feComposite
         id="feComposite5469-9"
         in2="fbSourceGraphic"
         operator="in"
         result="result2"
         in="result1" />
      <feComposite
         k4="0"
         k1="0"
         id="feComposite5471-3"
         in2="result2"
         k3="1"
         k2="1"
         operator="arithmetic"
         result="result4"
         in="fbSourceGraphic" />
      <feComposite
         id="feComposite5473-1"
         in2="result4"
         operator="in"
         result="result91" />
      <feBlend
         id="feBlend5475-9"
         in2="result91"
         mode="multiply" />
    </filter>
    <filter
       id="filter5421-8"
       inkscape:label="Metallized paint"
       inkscape:menu="Materials"
       inkscape:menu-tooltip="Metallized effect with a soft lighting, slightly translucent at the edges"
       height="1.1"
       width="1.1"
       y="-0.050000001"
       x="-0.050000001"
       color-interpolation-filters="sRGB">
      <feGaussianBlur
         id="feGaussianBlur5423-6"
         stdDeviation="1"
         result="result1" />
      <feComposite
         id="feComposite5425-5"
         in2="result1"
         in="result1"
         result="result4"
         operator="in" />
      <feBlend
         id="feBlend5427-0"
         in2="result4"
         in="result1"
         mode="screen"
         result="result5" />
      <feGaussianBlur
         id="feGaussianBlur5429-2"
         stdDeviation="8"
         result="result6"
         in="result5" />
      <feComposite
         id="feComposite5431-8"
         in2="result5"
         operator="atop"
         in="result6"
         result="result8" />
      <feComposite
         id="feComposite5433-6"
         in2="result8"
         operator="in"
         result="fbSourceGraphic"
         in="result6" />
      <feGaussianBlur
         id="feGaussianBlur5435-0"
         result="result0"
         in="fbSourceGraphic"
         stdDeviation="2.5" />
      <feSpecularLighting
         id="feSpecularLighting5437-2"
         specularExponent="45"
         specularConstant="1.5"
         surfaceScale="1"
         lighting-color="#ffffff"
         result="result1"
         in="result0">
        <fePointLight
           id="fePointLight5439-4"
           z="21000"
           y="-9000"
           x="-6000" />
      </feSpecularLighting>
      <feComposite
         id="feComposite5441-8"
         in2="fbSourceGraphic"
         operator="in"
         result="result2"
         in="result1" />
      <feComposite
         k4="0"
         k1="0"
         id="feComposite5443-6"
         in2="result2"
         k3="1"
         k2="1"
         operator="arithmetic"
         result="result4"
         in="fbSourceGraphic" />
      <feComposite
         id="feComposite5445-5"
         in2="result4"
         operator="in"
         result="result91" />
      <feBlend
         id="feBlend5447-0"
         in2="result91"
         mode="multiply" />
    </filter>
    <filter
       id="filter5393-9"
       inkscape:label="Metallized paint"
       inkscape:menu="Materials"
       inkscape:menu-tooltip="Metallized effect with a soft lighting, slightly translucent at the edges"
       height="1.1"
       width="1.1"
       y="-0.050000001"
       x="-0.050000001"
       color-interpolation-filters="sRGB">
      <feGaussianBlur
         id="feGaussianBlur5395-0"
         stdDeviation="1"
         result="result1" />
      <feComposite
         id="feComposite5397-0"
         in2="result1"
         in="result1"
         result="result4"
         operator="in" />
      <feBlend
         id="feBlend5399-6"
         in2="result4"
         in="result1"
         mode="screen"
         result="result5" />
      <feGaussianBlur
         id="feGaussianBlur5401-1"
         stdDeviation="8"
         result="result6"
         in="result5" />
      <feComposite
         id="feComposite5403-3"
         in2="result5"
         operator="atop"
         in="result6"
         result="result8" />
      <feComposite
         id="feComposite5405-8"
         in2="result8"
         operator="in"
         result="fbSourceGraphic"
         in="result6" />
      <feGaussianBlur
         id="feGaussianBlur5407-9"
         result="result0"
         in="fbSourceGraphic"
         stdDeviation="2.5" />
      <feSpecularLighting
         id="feSpecularLighting5409-3"
         specularExponent="45"
         specularConstant="1.5"
         surfaceScale="1"
         lighting-color="#ffffff"
         result="result1"
         in="result0">
        <fePointLight
           id="fePointLight5411-4"
           z="21000"
           y="-9000"
           x="-6000" />
      </feSpecularLighting>
      <feComposite
         id="feComposite5413-4"
         in2="fbSourceGraphic"
         operator="in"
         result="result2"
         in="result1" />
      <feComposite
         k4="0"
         k1="0"
         id="feComposite5415-6"
         in2="result2"
         k3="1"
         k2="1"
         operator="arithmetic"
         result="result4"
         in="fbSourceGraphic" />
      <feComposite
         id="feComposite5417-0"
         in2="result4"
         operator="in"
         result="result91" />
      <feBlend
         id="feBlend5419-6"
         in2="result91"
         mode="multiply" />
    </filter>
    <filter
       id="filter5309-6"
       inkscape:label="Metallized paint"
       inkscape:menu="Materials"
       inkscape:menu-tooltip="Metallized effect with a soft lighting, slightly translucent at the edges"
       height="1.1"
       width="1.1"
       y="-0.050000001"
       x="-0.050000001"
       color-interpolation-filters="sRGB">
      <feGaussianBlur
         id="feGaussianBlur5311-1"
         stdDeviation="1"
         result="result1" />
      <feComposite
         id="feComposite5313-8"
         in2="result1"
         in="result1"
         result="result4"
         operator="in" />
      <feBlend
         id="feBlend5315-4"
         in2="result4"
         in="result1"
         mode="screen"
         result="result5" />
      <feGaussianBlur
         id="feGaussianBlur5317-9"
         stdDeviation="8"
         result="result6"
         in="result5" />
      <feComposite
         id="feComposite5319-6"
         in2="result5"
         operator="atop"
         in="result6"
         result="result8" />
      <feComposite
         id="feComposite5321-3"
         in2="result8"
         operator="in"
         result="fbSourceGraphic"
         in="result6" />
      <feGaussianBlur
         id="feGaussianBlur5323-7"
         result="result0"
         in="fbSourceGraphic"
         stdDeviation="2.5" />
      <feSpecularLighting
         id="feSpecularLighting5325-8"
         specularExponent="45"
         specularConstant="1.5"
         surfaceScale="1"
         lighting-color="#ffffff"
         result="result1"
         in="result0">
        <fePointLight
           id="fePointLight5327-8"
           z="21000"
           y="-9000"
           x="-6000" />
      </feSpecularLighting>
      <feComposite
         id="feComposite5329-2"
         in2="fbSourceGraphic"
         operator="in"
         result="result2"
         in="result1" />
      <feComposite
         k4="0"
         k1="0"
         id="feComposite5331-9"
         in2="result2"
         k3="1"
         k2="1"
         operator="arithmetic"
         result="result4"
         in="fbSourceGraphic" />
      <feComposite
         id="feComposite5333-1"
         in2="result4"
         operator="in"
         result="result91" />
      <feBlend
         id="feBlend5335-3"
         in2="result91"
         mode="multiply" />
    </filter>
    <filter
       id="filter5281-5"
       inkscape:label="Metallized paint"
       inkscape:menu="Materials"
       inkscape:menu-tooltip="Metallized effect with a soft lighting, slightly translucent at the edges"
       height="1.1"
       width="1.1"
       y="-0.050000001"
       x="-0.050000001"
       color-interpolation-filters="sRGB">
      <feGaussianBlur
         id="feGaussianBlur5283-9"
         stdDeviation="1"
         result="result1" />
      <feComposite
         id="feComposite5285-8"
         in2="result1"
         in="result1"
         result="result4"
         operator="in" />
      <feBlend
         id="feBlend5287-4"
         in2="result4"
         in="result1"
         mode="screen"
         result="result5" />
      <feGaussianBlur
         id="feGaussianBlur5289-0"
         stdDeviation="8"
         result="result6"
         in="result5" />
      <feComposite
         id="feComposite5291-7"
         in2="result5"
         operator="atop"
         in="result6"
         result="result8" />
      <feComposite
         id="feComposite5293-6"
         in2="result8"
         operator="in"
         result="fbSourceGraphic"
         in="result6" />
      <feGaussianBlur
         id="feGaussianBlur5295-3"
         result="result0"
         in="fbSourceGraphic"
         stdDeviation="2.5" />
      <feSpecularLighting
         id="feSpecularLighting5297-6"
         specularExponent="45"
         specularConstant="1.5"
         surfaceScale="1"
         lighting-color="#ffffff"
         result="result1"
         in="result0">
        <fePointLight
           id="fePointLight5299-1"
           z="21000"
           y="-9000"
           x="-6000" />
      </feSpecularLighting>
      <feComposite
         id="feComposite5301-5"
         in2="fbSourceGraphic"
         operator="in"
         result="result2"
         in="result1" />
      <feComposite
         k4="0"
         k1="0"
         id="feComposite5303-4"
         in2="result2"
         k3="1"
         k2="1"
         operator="arithmetic"
         result="result4"
         in="fbSourceGraphic" />
      <feComposite
         id="feComposite5305-2"
         in2="result4"
         operator="in"
         result="result91" />
      <feBlend
         id="feBlend5307-0"
         in2="result91"
         mode="multiply" />
    </filter>
    <filter
       id="filter5365-9"
       inkscape:label="Metallized paint"
       inkscape:menu="Materials"
       inkscape:menu-tooltip="Metallized effect with a soft lighting, slightly translucent at the edges"
       height="1.1"
       width="1.1"
       y="-0.050000001"
       x="-0.050000001"
       color-interpolation-filters="sRGB">
      <feGaussianBlur
         id="feGaussianBlur5367-7"
         stdDeviation="1"
         result="result1" />
      <feComposite
         id="feComposite5369-3"
         in2="result1"
         in="result1"
         result="result4"
         operator="in" />
      <feBlend
         id="feBlend5371-7"
         in2="result4"
         in="result1"
         mode="screen"
         result="result5" />
      <feGaussianBlur
         id="feGaussianBlur5373-2"
         stdDeviation="8"
         result="result6"
         in="result5" />
      <feComposite
         id="feComposite5375-6"
         in2="result5"
         operator="atop"
         in="result6"
         result="result8" />
      <feComposite
         id="feComposite5377-0"
         in2="result8"
         operator="in"
         result="fbSourceGraphic"
         in="result6" />
      <feGaussianBlur
         id="feGaussianBlur5379-1"
         result="result0"
         in="fbSourceGraphic"
         stdDeviation="2.5" />
      <feSpecularLighting
         id="feSpecularLighting5381-6"
         specularExponent="45"
         specularConstant="1.5"
         surfaceScale="1"
         lighting-color="#ffffff"
         result="result1"
         in="result0">
        <fePointLight
           id="fePointLight5383-5"
           z="21000"
           y="-9000"
           x="-6000" />
      </feSpecularLighting>
      <feComposite
         id="feComposite5385-7"
         in2="fbSourceGraphic"
         operator="in"
         result="result2"
         in="result1" />
      <feComposite
         k4="0"
         k1="0"
         id="feComposite5387-5"
         in2="result2"
         k3="1"
         k2="1"
         operator="arithmetic"
         result="result4"
         in="fbSourceGraphic" />
      <feComposite
         id="feComposite5389-4"
         in2="result4"
         operator="in"
         result="result91" />
      <feBlend
         id="feBlend5391-1"
         in2="result91"
         mode="multiply" />
    </filter>
    <filter
       id="filter5337-2"
       inkscape:label="Metallized paint"
       inkscape:menu="Materials"
       inkscape:menu-tooltip="Metallized effect with a soft lighting, slightly translucent at the edges"
       height="1.1"
       width="1.1"
       y="-0.050000001"
       x="-0.050000001"
       color-interpolation-filters="sRGB">
      <feGaussianBlur
         id="feGaussianBlur5339-0"
         stdDeviation="1"
         result="result1" />
      <feComposite
         id="feComposite5341-0"
         in2="result1"
         in="result1"
         result="result4"
         operator="in" />
      <feBlend
         id="feBlend5343-1"
         in2="result4"
         in="result1"
         mode="screen"
         result="result5" />
      <feGaussianBlur
         id="feGaussianBlur5345-4"
         stdDeviation="8"
         result="result6"
         in="result5" />
      <feComposite
         id="feComposite5347-6"
         in2="result5"
         operator="atop"
         in="result6"
         result="result8" />
      <feComposite
         id="feComposite5349-0"
         in2="result8"
         operator="in"
         result="fbSourceGraphic"
         in="result6" />
      <feGaussianBlur
         id="feGaussianBlur5351-7"
         result="result0"
         in="fbSourceGraphic"
         stdDeviation="2.5" />
      <feSpecularLighting
         id="feSpecularLighting5353-1"
         specularExponent="45"
         specularConstant="1.5"
         surfaceScale="1"
         lighting-color="#ffffff"
         result="result1"
         in="result0">
        <fePointLight
           id="fePointLight5355-7"
           z="21000"
           y="-9000"
           x="-6000" />
      </feSpecularLighting>
      <feComposite
         id="feComposite5357-7"
         in2="fbSourceGraphic"
         operator="in"
         result="result2"
         in="result1" />
      <feComposite
         k4="0"
         k1="0"
         id="feComposite5359-7"
         in2="result2"
         k3="1"
         k2="1"
         operator="arithmetic"
         result="result4"
         in="fbSourceGraphic" />
      <feComposite
         id="feComposite5361-7"
         in2="result4"
         operator="in"
         result="result91" />
      <feBlend
         id="feBlend5363-3"
         in2="result91"
         mode="multiply" />
    </filter>
    <filter
       id="filter5505-3"
       inkscape:label="Metallized paint"
       inkscape:menu="Materials"
       inkscape:menu-tooltip="Metallized effect with a soft lighting, slightly translucent at the edges"
       height="1.1"
       width="1.1"
       y="-0.050000001"
       x="-0.050000001"
       color-interpolation-filters="sRGB">
      <feGaussianBlur
         id="feGaussianBlur5507-5"
         stdDeviation="1"
         result="result1" />
      <feComposite
         id="feComposite5509-9"
         in2="result1"
         in="result1"
         result="result4"
         operator="in" />
      <feBlend
         id="feBlend5511-9"
         in2="result4"
         in="result1"
         mode="screen"
         result="result5" />
      <feGaussianBlur
         id="feGaussianBlur5513-8"
         stdDeviation="8"
         result="result6"
         in="result5" />
      <feComposite
         id="feComposite5515-1"
         in2="result5"
         operator="atop"
         in="result6"
         result="result8" />
      <feComposite
         id="feComposite5517-8"
         in2="result8"
         operator="in"
         result="fbSourceGraphic"
         in="result6" />
      <feGaussianBlur
         id="feGaussianBlur5519-2"
         result="result0"
         in="fbSourceGraphic"
         stdDeviation="2.5" />
      <feSpecularLighting
         id="feSpecularLighting5521-6"
         specularExponent="45"
         specularConstant="1.5"
         surfaceScale="1"
         lighting-color="#ffffff"
         result="result1"
         in="result0">
        <fePointLight
           id="fePointLight5523-6"
           z="21000"
           y="-9000"
           x="-6000" />
      </feSpecularLighting>
      <feComposite
         id="feComposite5525-0"
         in2="fbSourceGraphic"
         operator="in"
         result="result2"
         in="result1" />
      <feComposite
         k4="0"
         k1="0"
         id="feComposite5527-3"
         in2="result2"
         k3="1"
         k2="1"
         operator="arithmetic"
         result="result4"
         in="fbSourceGraphic" />
      <feComposite
         id="feComposite5529-8"
         in2="result4"
         operator="in"
         result="result91" />
      <feBlend
         id="feBlend5531-0"
         in2="result91"
         mode="multiply" />
    </filter>
    <inkscape:perspective
       id="perspective5373"
       inkscape:persp3d-origin="0.5 : 0.33333333 : 1"
       inkscape:vp_z="1 : 0.5 : 1"
       inkscape:vp_y="0 : 1000 : 0"
       inkscape:vp_x="0 : 0.5 : 1"
       sodipodi:type="inkscape:persp3d" />
    <filter
       id="filter5337-2-1"
       inkscape:label="Metallized paint"
       inkscape:menu="Materials"
       inkscape:menu-tooltip="Metallized effect with a soft lighting, slightly translucent at the edges"
       height="1.1"
       width="1.1"
       y="-0.050000001"
       x="-0.050000001"
       color-interpolation-filters="sRGB">
      <feGaussianBlur
         id="feGaussianBlur5339-0-2"
         stdDeviation="1"
         result="result1" />
      <feComposite
         id="feComposite5341-0-5"
         in2="result1"
         in="result1"
         result="result4"
         operator="in" />
      <feBlend
         id="feBlend5343-1-0"
         in2="result4"
         in="result1"
         mode="screen"
         result="result5" />
      <feGaussianBlur
         id="feGaussianBlur5345-4-9"
         stdDeviation="8"
         result="result6"
         in="result5" />
      <feComposite
         id="feComposite5347-6-4"
         in2="result5"
         operator="atop"
         in="result6"
         result="result8" />
      <feComposite
         id="feComposite5349-0-7"
         in2="result8"
         operator="in"
         result="fbSourceGraphic"
         in="result6" />
      <feGaussianBlur
         id="feGaussianBlur5351-7-8"
         result="result0"
         in="fbSourceGraphic"
         stdDeviation="2.5" />
      <feSpecularLighting
         id="feSpecularLighting5353-1-3"
         specularExponent="45"
         specularConstant="1.5"
         surfaceScale="1"
         lighting-color="#ffffff"
         result="result1"
         in="result0">
        <fePointLight
           id="fePointLight5355-7-5"
           z="21000"
           y="-9000"
           x="-6000" />
      </feSpecularLighting>
      <feComposite
         id="feComposite5357-7-1"
         in2="fbSourceGraphic"
         operator="in"
         result="result2"
         in="result1" />
      <feComposite
         k4="0"
         k1="0"
         id="feComposite5359-7-2"
         in2="result2"
         k3="1"
         k2="1"
         operator="arithmetic"
         result="result4"
         in="fbSourceGraphic" />
      <feComposite
         id="feComposite5361-7-0"
         in2="result4"
         operator="in"
         result="result91" />
      <feBlend
         id="feBlend5363-3-1"
         in2="result91"
         mode="multiply" />
    </filter>
    <inkscape:perspective
       id="perspective5437"
       inkscape:persp3d-origin="0.5 : 0.33333333 : 1"
       inkscape:vp_z="1 : 0.5 : 1"
       inkscape:vp_y="0 : 1000 : 0"
       inkscape:vp_x="0 : 0.5 : 1"
       sodipodi:type="inkscape:persp3d" />
    <filter
       id="filter5337-2-4"
       inkscape:label="Metallized paint"
       inkscape:menu="Materials"
       inkscape:menu-tooltip="Metallized effect with a soft lighting, slightly translucent at the edges"
       height="1.1"
       width="1.1"
       y="-0.050000001"
       x="-0.050000001"
       color-interpolation-filters="sRGB">
      <feGaussianBlur
         id="feGaussianBlur5339-0-0"
         stdDeviation="1"
         result="result1" />
      <feComposite
         id="feComposite5341-0-6"
         in2="result1"
         in="result1"
         result="result4"
         operator="in" />
      <feBlend
         id="feBlend5343-1-1"
         in2="result4"
         in="result1"
         mode="screen"
         result="result5" />
      <feGaussianBlur
         id="feGaussianBlur5345-4-8"
         stdDeviation="8"
         result="result6"
         in="result5" />
      <feComposite
         id="feComposite5347-6-9"
         in2="result5"
         operator="atop"
         in="result6"
         result="result8" />
      <feComposite
         id="feComposite5349-0-8"
         in2="result8"
         operator="in"
         result="fbSourceGraphic"
         in="result6" />
      <feGaussianBlur
         id="feGaussianBlur5351-7-4"
         result="result0"
         in="fbSourceGraphic"
         stdDeviation="2.5" />
      <feSpecularLighting
         id="feSpecularLighting5353-1-1"
         specularExponent="45"
         specularConstant="1.5"
         surfaceScale="1"
         lighting-color="#ffffff"
         result="result1"
         in="result0">
        <fePointLight
           id="fePointLight5355-7-4"
           z="21000"
           y="-9000"
           x="-6000" />
      </feSpecularLighting>
      <feComposite
         id="feComposite5357-7-3"
         in2="fbSourceGraphic"
         operator="in"
         result="result2"
         in="result1" />
      <feComposite
         k4="0"
         k1="0"
         id="feComposite5359-7-9"
         in2="result2"
         k3="1"
         k2="1"
         operator="arithmetic"
         result="result4"
         in="fbSourceGraphic" />
      <feComposite
         id="feComposite5361-7-8"
         in2="result4"
         operator="in"
         result="result91" />
      <feBlend
         id="feBlend5363-3-8"
         in2="result91"
         mode="multiply" />
    </filter>
    <filter
       id="filter5528"
       inkscape:label="Metallized paint"
       inkscape:menu="Materials"
       inkscape:menu-tooltip="Metallized effect with a soft lighting, slightly translucent at the edges"
       height="1.1"
       width="1.1"
       y="-0.05"
       x="-0.05"
       color-interpolation-filters="sRGB">
      <feGaussianBlur
         id="feGaussianBlur5530"
         stdDeviation="1"
         result="result1" />
      <feComposite
         id="feComposite5532"
         in2="result1"
         in="result1"
         result="result4"
         operator="in" />
      <feBlend
         id="feBlend5534"
         in2="result4"
         in="result1"
         mode="screen"
         result="result5" />
      <feGaussianBlur
         id="feGaussianBlur5536"
         stdDeviation="8"
         result="result6"
         in="result5" />
      <feComposite
         id="feComposite5538"
         in2="result5"
         operator="atop"
         in="result6"
         result="result8" />
      <feComposite
         id="feComposite5540"
         in2="result8"
         operator="in"
         result="fbSourceGraphic"
         in="result6" />
      <feGaussianBlur
         id="feGaussianBlur5542"
         result="result0"
         in="fbSourceGraphic"
         stdDeviation="2.5" />
      <feSpecularLighting
         id="feSpecularLighting5544"
         specularExponent="45"
         specularConstant="1.5"
         surfaceScale="1"
         lighting-color="rgb(255,255,255)"
         result="result1"
         in="result0">
        <fePointLight
           id="fePointLight5546"
           z="21000"
           y="-9000"
           x="-6000" />
      </feSpecularLighting>
      <feComposite
         id="feComposite5548"
         in2="fbSourceGraphic"
         operator="in"
         result="result2"
         in="result1" />
      <feComposite
         id="feComposite5550"
         in2="result2"
         k3="1"
         k2="1"
         operator="arithmetic"
         result="result4"
         in="fbSourceGraphic" />
      <feComposite
         id="feComposite5552"
         in2="result4"
         operator="in"
         in="result9"
         result="result91" />
      <feBlend
         id="feBlend5554"
         in2="result91"
         mode="multiply" />
    </filter>
    <filter
       id="filter5556"
       inkscape:label="Metallized paint"
       inkscape:menu="Materials"
       inkscape:menu-tooltip="Metallized effect with a soft lighting, slightly translucent at the edges"
       height="1.1"
       width="1.1"
       y="-0.05"
       x="-0.05"
       color-interpolation-filters="sRGB">
      <feGaussianBlur
         id="feGaussianBlur5558"
         stdDeviation="1"
         result="result1" />
      <feComposite
         id="feComposite5560"
         in2="result1"
         in="result1"
         result="result4"
         operator="in" />
      <feBlend
         id="feBlend5562"
         in2="result4"
         in="result1"
         mode="screen"
         result="result5" />
      <feGaussianBlur
         id="feGaussianBlur5564"
         stdDeviation="8"
         result="result6"
         in="result5" />
      <feComposite
         id="feComposite5566"
         in2="result5"
         operator="atop"
         in="result6"
         result="result8" />
      <feComposite
         id="feComposite5568"
         in2="result8"
         operator="in"
         result="fbSourceGraphic"
         in="result6" />
      <feGaussianBlur
         id="feGaussianBlur5570"
         result="result0"
         in="fbSourceGraphic"
         stdDeviation="2.5" />
      <feSpecularLighting
         id="feSpecularLighting5572"
         specularExponent="45"
         specularConstant="1.5"
         surfaceScale="1"
         lighting-color="rgb(255,255,255)"
         result="result1"
         in="result0">
        <fePointLight
           id="fePointLight5574"
           z="21000"
           y="-9000"
           x="-6000" />
      </feSpecularLighting>
      <feComposite
         id="feComposite5576"
         in2="fbSourceGraphic"
         operator="in"
         result="result2"
         in="result1" />
      <feComposite
         id="feComposite5578"
         in2="result2"
         k3="1"
         k2="1"
         operator="arithmetic"
         result="result4"
         in="fbSourceGraphic" />
      <feComposite
         id="feComposite5580"
         in2="result4"
         operator="in"
         in="result9"
         result="result91" />
      <feBlend
         id="feBlend5582"
         in2="result91"
         mode="multiply" />
    </filter>
    <filter
       id="filter5584"
       inkscape:label="Metallized paint"
       inkscape:menu="Materials"
       inkscape:menu-tooltip="Metallized effect with a soft lighting, slightly translucent at the edges"
       height="1.1"
       width="1.1"
       y="-0.05"
       x="-0.05"
       color-interpolation-filters="sRGB">
      <feGaussianBlur
         id="feGaussianBlur5586"
         stdDeviation="1"
         result="result1" />
      <feComposite
         id="feComposite5588"
         in2="result1"
         in="result1"
         result="result4"
         operator="in" />
      <feBlend
         id="feBlend5590"
         in2="result4"
         in="result1"
         mode="screen"
         result="result5" />
      <feGaussianBlur
         id="feGaussianBlur5592"
         stdDeviation="8"
         result="result6"
         in="result5" />
      <feComposite
         id="feComposite5594"
         in2="result5"
         operator="atop"
         in="result6"
         result="result8" />
      <feComposite
         id="feComposite5596"
         in2="result8"
         operator="in"
         result="fbSourceGraphic"
         in="result6" />
      <feGaussianBlur
         id="feGaussianBlur5598"
         result="result0"
         in="fbSourceGraphic"
         stdDeviation="2.5" />
      <feSpecularLighting
         id="feSpecularLighting5600"
         specularExponent="45"
         specularConstant="1.5"
         surfaceScale="1"
         lighting-color="rgb(255,255,255)"
         result="result1"
         in="result0">
        <fePointLight
           id="fePointLight5602"
           z="21000"
           y="-9000"
           x="-6000" />
      </feSpecularLighting>
      <feComposite
         id="feComposite5604"
         in2="fbSourceGraphic"
         operator="in"
         result="result2"
         in="result1" />
      <feComposite
         id="feComposite5606"
         in2="result2"
         k3="1"
         k2="1"
         operator="arithmetic"
         result="result4"
         in="fbSourceGraphic" />
      <feComposite
         id="feComposite5608"
         in2="result4"
         operator="in"
         in="result9"
         result="result91" />
      <feBlend
         id="feBlend5610"
         in2="result91"
         mode="multiply" />
    </filter>
    <filter
       id="filter5612"
       inkscape:label="Metallized paint"
       inkscape:menu="Materials"
       inkscape:menu-tooltip="Metallized effect with a soft lighting, slightly translucent at the edges"
       height="1.1"
       width="1.1"
       y="-0.05"
       x="-0.05"
       color-interpolation-filters="sRGB">
      <feGaussianBlur
         id="feGaussianBlur5614"
         stdDeviation="1"
         result="result1" />
      <feComposite
         id="feComposite5616"
         in2="result1"
         in="result1"
         result="result4"
         operator="in" />
      <feBlend
         id="feBlend5618"
         in2="result4"
         in="result1"
         mode="screen"
         result="result5" />
      <feGaussianBlur
         id="feGaussianBlur5620"
         stdDeviation="8"
         result="result6"
         in="result5" />
      <feComposite
         id="feComposite5622"
         in2="result5"
         operator="atop"
         in="result6"
         result="result8" />
      <feComposite
         id="feComposite5624"
         in2="result8"
         operator="in"
         result="fbSourceGraphic"
         in="result6" />
      <feGaussianBlur
         id="feGaussianBlur5626"
         result="result0"
         in="fbSourceGraphic"
         stdDeviation="2.5" />
      <feSpecularLighting
         id="feSpecularLighting5628"
         specularExponent="45"
         specularConstant="1.5"
         surfaceScale="1"
         lighting-color="rgb(255,255,255)"
         result="result1"
         in="result0">
        <fePointLight
           id="fePointLight5630"
           z="21000"
           y="-9000"
           x="-6000" />
      </feSpecularLighting>
      <feComposite
         id="feComposite5632"
         in2="fbSourceGraphic"
         operator="in"
         result="result2"
         in="result1" />
      <feComposite
         id="feComposite5634"
         in2="result2"
         k3="1"
         k2="1"
         operator="arithmetic"
         result="result4"
         in="fbSourceGraphic" />
      <feComposite
         id="feComposite5636"
         in2="result4"
         operator="in"
         in="result9"
         result="result91" />
      <feBlend
         id="feBlend5638"
         in2="result91"
         mode="multiply" />
    </filter>
    <filter
       id="filter5668"
       inkscape:menu-tooltip="In and out glow with a possible offset and colorizable flood"
       inkscape:menu="Shadows and Glows"
       inkscape:label="Cutout Glow"
       color-interpolation-filters="sRGB">
      <feOffset
         id="feOffset5670"
         dy="3"
         dx="3" />
      <feGaussianBlur
         id="feGaussianBlur5672"
         result="result8"
         stdDeviation="3" />
      <feFlood
         id="feFlood5674"
         flood-color="rgb(0,0,0)"
         flood-opacity="1"
         in="result8"
         result="result10" />
      <feComposite
         id="feComposite5676"
         in2="SourceGraphic"
         operator="in"
         in="result10"
         result="result9" />
      <feBlend
         id="feBlend5678"
         in2="result9"
         mode="normal"
         in="result8" />
    </filter>
    <filter
       id="filter5680"
       y="-0.25"
       height="1.5"
       inkscape:menu-tooltip="Darkens the edge with an inner blur and adds a flexible glow"
       inkscape:menu="Shadows and Glows"
       inkscape:label="Dark and Glow"
       color-interpolation-filters="sRGB">
      <feGaussianBlur
         id="feGaussianBlur5682"
         stdDeviation="5"
         result="result6" />
      <feComposite
         id="feComposite5684"
         in2="result6"
         result="result8"
         in="SourceGraphic"
         operator="atop" />
      <feComposite
         id="feComposite5686"
         in2="SourceAlpha"
         result="result9"
         operator="over"
         in="result8" />
      <feColorMatrix
         id="feColorMatrix5688"
         values="1 0 0 0 0 0 1 0 0 0 0 0 1 0 0 0 0 0 1 0 "
         result="result10" />
      <feBlend
         id="feBlend5690"
         in2="result6"
         in="result10"
         mode="normal" />
    </filter>
    <linearGradient
       inkscape:collect="always"
       xlink:href="#linearGradient5750"
       id="linearGradient5758"
       x1="53.549999"
       y1="930.36218"
       x2="118.45"
       y2="930.36218"
       gradientUnits="userSpaceOnUse"
       gradientTransform="matrix(0.89999955,0,0,0.94736805,11.400051,46.966793)" />
    <inkscape:perspective
       id="perspective5770"
       inkscape:persp3d-origin="0.5 : 0.33333333 : 1"
       inkscape:vp_z="1 : 0.5 : 1"
       inkscape:vp_y="0 : 1000 : 0"
       inkscape:vp_x="0 : 0.5 : 1"
       sodipodi:type="inkscape:persp3d" />
    <linearGradient
       inkscape:collect="always"
       xlink:href="#linearGradient5750-4"
       id="linearGradient5758-5"
       x1="53.549999"
       y1="930.36218"
       x2="118.45"
       y2="930.36218"
       gradientUnits="userSpaceOnUse"
       gradientTransform="matrix(0.89999955,0,0,0.94736805,11.400051,48.966793)" />
    <linearGradient
       id="linearGradient5750-4">
      <stop
         style="stop-color:#001bbf;stop-opacity:1;"
         offset="0"
         id="stop5752-4" />
      <stop
         id="stop5760-4"
         offset="0.5"
         style="stop-color:#ffffff;stop-opacity:1;" />
      <stop
         style="stop-color:#001bbf;stop-opacity:1;"
         offset="1"
         id="stop5754-2" />
    </linearGradient>
    <linearGradient
       y2="930.36218"
       x2="118.45"
       y1="930.36218"
       x1="53.549999"
       gradientTransform="matrix(0.89999955,0,0,0.94736805,5.400051,48.966787)"
       gradientUnits="userSpaceOnUse"
       id="linearGradient5780"
       xlink:href="#linearGradient5750-4"
       inkscape:collect="always" />
    <linearGradient
       inkscape:collect="always"
       xlink:href="#linearGradient5845"
       id="linearGradient5851"
       x1="63.5"
       y1="928.3622"
       x2="112.5"
       y2="928.3622"
       gradientUnits="userSpaceOnUse" />
    <radialGradient
       inkscape:collect="always"
       xlink:href="#linearGradient7301"
       id="radialGradient7307"
       cx="88"
       cy="928.3622"
       fx="88"
       fy="928.3622"
       r="24.5"
       gradientTransform="matrix(1,0,0,1.4897959,0,-454.70802)"
       gradientUnits="userSpaceOnUse" />
    <linearGradient
       inkscape:collect="always"
       xlink:href="#linearGradient7323"
       id="linearGradient7329"
       x1="-116.5"
       y1="66"
       x2="-59.5"
       y2="66"
       gradientUnits="userSpaceOnUse"
       gradientTransform="matrix(1.2027583,0,0,0.62068966,193.41059,887.39668)" />
    <linearGradient
       inkscape:collect="always"
       xlink:href="#linearGradient7333"
       id="linearGradient7341"
       x1="55.5"
       y1="928.36218"
       x2="111.87931"
       y2="928.36218"
       gradientUnits="userSpaceOnUse"
       gradientTransform="matrix(1.2162388,0,0,1,-14.21875,0)" />
    <inkscape:perspective
       id="perspective3294"
       inkscape:persp3d-origin="0.5 : 0.33333333 : 1"
       inkscape:vp_z="1 : 0.5 : 1"
       inkscape:vp_y="0 : 1000 : 0"
       inkscape:vp_x="0 : 0.5 : 1"
       sodipodi:type="inkscape:persp3d" />
    <linearGradient
       inkscape:collect="always"
       xlink:href="#linearGradient7323-7"
       id="linearGradient7329-1"
       x1="-116.5"
       y1="66"
       x2="-59.5"
       y2="66"
       gradientUnits="userSpaceOnUse"
       gradientTransform="matrix(1.2027583,0,0,0.62068966,193.41059,887.39668)" />
    <linearGradient
       id="linearGradient7323-7">
      <stop
         style="stop-color:#006480;stop-opacity:1;"
         offset="0"
         id="stop7325-4" />
      <stop
         id="stop7331-0"
         offset="0.5"
         style="stop-color:#37d480;stop-opacity:1;" />
      <stop
         style="stop-color:#00d180;stop-opacity:0.99607843;"
         offset="0.625"
         id="stop7361-9" />
      <stop
         style="stop-color:#00aa6d;stop-opacity:0.99607843;"
         offset="0.75"
         id="stop7359-4" />
      <stop
         style="stop-color:#008080;stop-opacity:0.9910714;"
         offset="1"
         id="stop7327-8" />
    </linearGradient>
    <linearGradient
       inkscape:collect="always"
       xlink:href="#linearGradient7333-2"
       id="linearGradient7341-8"
       x1="55.5"
       y1="928.36218"
       x2="111.87931"
       y2="928.36218"
       gradientUnits="userSpaceOnUse"
       gradientTransform="matrix(1.2162388,0,0,1,-14.21875,0)" />
    <linearGradient
       inkscape:collect="always"
       id="linearGradient7333-2">
      <stop
         style="stop-color:#000000;stop-opacity:1;"
         offset="0"
         id="stop7335-4" />
      <stop
         style="stop-color:#000000;stop-opacity:0;"
         offset="1"
         id="stop7337-5" />
    </linearGradient>
    <linearGradient
       y2="66"
       x2="-59.5"
       y1="66"
       x1="-116.5"
       gradientTransform="matrix(-1.2026825,0.01350079,-0.00696715,-0.62065056,-18.530058,971.54026)"
       gradientUnits="userSpaceOnUse"
       id="linearGradient3310"
       xlink:href="#linearGradient7323-7"
       inkscape:collect="always" />
    <linearGradient
       y2="928.36218"
       x2="111.87931"
       y1="928.36218"
       x1="55.5"
       gradientTransform="matrix(-1.2161622,0.01365211,-0.01122486,-0.999937,199.04711,1856.5504)"
       gradientUnits="userSpaceOnUse"
       id="linearGradient3312"
       xlink:href="#linearGradient7333-2"
       inkscape:collect="always" />
    <radialGradient
       inkscape:collect="always"
       xlink:href="#linearGradient5811"
       id="radialGradient4084"
       cx="78"
       cy="36"
       fx="78"
       fy="36"
       r="59"
       gradientTransform="matrix(1,0,0,0.28813559,0,905.98932)"
       gradientUnits="userSpaceOnUse" />
    <radialGradient
       inkscape:collect="always"
       xlink:href="#linearGradient5811"
       id="radialGradient4096"
       gradientUnits="userSpaceOnUse"
       gradientTransform="matrix(1,0,0,0.28813559,0,905.98932)"
       cx="78"
       cy="36"
       fx="78"
       fy="36"
       r="59" />
  </defs>
  <sodipodi:namedview
     id="base"
     pagecolor="#ffffff"
     bordercolor="#666666"
     borderopacity="1.0"
     inkscape:pageopacity="0.0"
     inkscape:pageshadow="2"
     inkscape:zoom="2.56"
     inkscape:cx="97.73437"
     inkscape:cy="83.007813"
     inkscape:document-units="px"
     inkscape:current-layer="layer1"
     showgrid="true"
     inkscape:window-width="1366"
     inkscape:window-height="706"
     inkscape:window-x="-8"
     inkscape:window-y="-8"
     inkscape:window-maximized="1">
    <inkscape:grid
       type="xygrid"
       id="grid2816"
       empspacing="2"
       visible="true"
       enabled="true"
       snapvisiblegridlinesonly="true" />
  </sodipodi:namedview>
  <metadata
     id="metadata7">
    <rdf:RDF>
      <cc:Work
         rdf:about="">
        <dc:format>image/svg+xml</dc:format>
        <dc:type
           rdf:resource="http://purl.org/dc/dcmitype/StillImage" />
        <dc:title></dc:title>
      </cc:Work>
    </rdf:RDF>
  </metadata>
  <g
     inkscape:label="Layer 1"
     inkscape:groupmode="layer"
     id="layer1"
     transform="translate(0,-892.3622)">
    <g
       id="g4086"
       transform="matrix(0,-1,1,0,-888.53074,1052.6107)">
      <path
         style="fill:none;stroke:#000000;stroke-width:6;stroke-linecap:butt;stroke-linejoin:miter;stroke-miterlimit:4;stroke-opacity:1;stroke-dasharray:none"
         d="m 14.459086,991.07859 66.409395,-0.18506 42.398779,-25.65111"
         id="path5108"
         sodipodi:nodetypes="ccc" />
      <path
         style="fill:none;stroke:#000000;stroke-width:6;stroke-linecap:butt;stroke-linejoin:miter;stroke-miterlimit:4;stroke-opacity:1;stroke-dasharray:none"
         d="m 82.397995,991.40337 48.160925,29.43813"
         id="path5110"
         sodipodi:nodetypes="cc" />
      <path
         transform="matrix(0.27832501,0,0,0.35544648,-54.798002,826.70134)"
         d="m 368.57141,459.50504 c 0,29.19219 -28.78169,52.85714 -64.2857,52.85714 -35.50402,0 -64.28571,-23.66495 -64.28571,-52.85714 0,-29.1922 28.78169,-52.85715 64.28571,-52.85715 35.50401,0 64.2857,23.66495 64.2857,52.85715 z"
         sodipodi:ry="52.857143"
         sodipodi:rx="64.285706"
         sodipodi:cy="459.50504"
         sodipodi:cx="304.28571"
         id="path4028-7-5"
         style="fill:#008000;fill-rule:evenodd;stroke:#000000;stroke-width:2.86140442;stroke-miterlimit:4;stroke-opacity:1;stroke-dasharray:none;filter:url(#filter5528)"
         sodipodi:type="arc" />
      <path
         transform="matrix(0.27832501,0,0,0.35544648,3.7399746,826.70134)"
         d="m 368.57141,459.50504 c 0,29.19219 -28.78169,52.85714 -64.2857,52.85714 -35.50402,0 -64.28571,-23.66495 -64.28571,-52.85714 0,-29.1922 28.78169,-52.85715 64.28571,-52.85715 35.50401,0 64.2857,23.66495 64.2857,52.85715 z"
         sodipodi:ry="52.857143"
         sodipodi:rx="64.285706"
         sodipodi:cy="459.50504"
         sodipodi:cx="304.28571"
         id="path4028-7-4-0-7"
         style="fill:#ff0000;fill-rule:evenodd;stroke:#000000;stroke-width:2.86140442;stroke-miterlimit:4;stroke-opacity:1;stroke-dasharray:none;filter:url(#filter5556)"
         sodipodi:type="arc" />
      <path
         transform="matrix(0.27832501,0,0,0.35544648,49.497355,794.54431)"
         d="m 368.57141,459.50504 c 0,29.19219 -28.78169,52.85714 -64.2857,52.85714 -35.50402,0 -64.28571,-23.66495 -64.28571,-52.85714 0,-29.1922 28.78169,-52.85715 64.28571,-52.85715 35.50401,0 64.2857,23.66495 64.2857,52.85715 z"
         sodipodi:ry="52.857143"
         sodipodi:rx="64.285706"
         sodipodi:cy="459.50504"
         sodipodi:cx="304.28571"
         id="path4028-7-4-0-8-5"
         style="fill:#ffff00;fill-rule:evenodd;stroke:#000000;stroke-width:2.86140442;stroke-miterlimit:4;stroke-opacity:1;stroke-dasharray:none;filter:url(#filter5584)"
         sodipodi:type="arc" />
      <path
         transform="matrix(0.27832501,0,0,0.35544648,49.497355,862.67648)"
         d="m 368.57141,459.50504 c 0,29.19219 -28.78169,52.85714 -64.2857,52.85714 -35.50402,0 -64.28571,-23.66495 -64.28571,-52.85714 0,-29.1922 28.78169,-52.85715 64.28571,-52.85715 35.50401,0 64.2857,23.66495 64.2857,52.85715 z"
         sodipodi:ry="52.857143"
         sodipodi:rx="64.285706"
         sodipodi:cy="459.50504"
         sodipodi:cx="304.28571"
         id="path4028-7-4-0-82-2"
         style="fill:#000080;fill-rule:evenodd;stroke:#000000;stroke-width:2.86140442;stroke-miterlimit:4;stroke-opacity:1;stroke-dasharray:none;filter:url(#filter5612)"
         sodipodi:type="arc" />
      <path
         sodipodi:nodetypes="cc"
         id="path3300"
         d="m 24,896.3622 c -20,12 16,19.66667 -8,36"
         style="fill:none;stroke:#000000;stroke-width:2;stroke-linecap:butt;stroke-linejoin:miter;stroke-miterlimit:4;stroke-opacity:1;stroke-dasharray:none" />
      <path
         sodipodi:nodetypes="cccccccc"
         id="path4076"
         d="m 20,908.3622 92,0 0,-8 24,16 -24,16 0,-8 -88,0 c 1.656817,-3.78797 -1.725803,-13.68616 -4,-16 z"
         style="fill:url(#radialGradient4096);fill-opacity:1;stroke:#000000;stroke-width:2;stroke-linecap:butt;stroke-linejoin:miter;stroke-miterlimit:4;stroke-opacity:1;stroke-dasharray:none" />
    </g>
  </g>
</svg>
