<?xml version="1.0" encoding="UTF-8" standalone="no"?>
<!-- Created with Inkscape (http://www.inkscape.org/) -->

<svg
   xmlns:dc="http://purl.org/dc/elements/1.1/"
   xmlns:cc="http://creativecommons.org/ns#"
   xmlns:rdf="http://www.w3.org/1999/02/22-rdf-syntax-ns#"
   xmlns:svg="http://www.w3.org/2000/svg"
   xmlns="http://www.w3.org/2000/svg"
   xmlns:xlink="http://www.w3.org/1999/xlink"
   xmlns:sodipodi="http://sodipodi.sourceforge.net/DTD/sodipodi-0.dtd"
   xmlns:inkscape="http://www.inkscape.org/namespaces/inkscape"
   width="160"
   height="160"
   id="svg2"
   version="1.1"
   inkscape:version="0.47 r22583"
   sodipodi:docname="New document 1">
  <defs
     id="defs4">
    <linearGradient
       inkscape:collect="always"
       id="linearGradient3857">
      <stop
         style="stop-color:#ffffff;stop-opacity:1;"
         offset="0"
         id="stop3859" />
      <stop
         style="stop-color:#ffffff;stop-opacity:0;"
         offset="1"
         id="stop3861" />
    </linearGradient>
    <linearGradient
       inkscape:collect="always"
       id="linearGradient3849">
      <stop
         style="stop-color:#ffffff;stop-opacity:1;"
         offset="0"
         id="stop3851" />
      <stop
         style="stop-color:#ffffff;stop-opacity:0;"
         offset="1"
         id="stop3853" />
    </linearGradient>
    <linearGradient
       inkscape:collect="always"
       id="linearGradient3841">
      <stop
         style="stop-color:#ffffff;stop-opacity:1;"
         offset="0"
         id="stop3843" />
      <stop
         style="stop-color:#ffffff;stop-opacity:0;"
         offset="1"
         id="stop3845" />
    </linearGradient>
    <linearGradient
       inkscape:collect="always"
       id="linearGradient3833">
      <stop
         style="stop-color:#ffffff;stop-opacity:1;"
         offset="0"
         id="stop3835" />
      <stop
         style="stop-color:#ffffff;stop-opacity:0;"
         offset="1"
         id="stop3837" />
    </linearGradient>
    <linearGradient
       id="linearGradient3825">
      <stop
         style="stop-color:#9fc4fe;stop-opacity:1;"
         offset="0"
         id="stop3827" />
      <stop
         style="stop-color:#fffffe;stop-opacity:1;"
         offset="1"
         id="stop3829" />
    </linearGradient>
    <inkscape:perspective
       sodipodi:type="inkscape:persp3d"
       inkscape:vp_x="0 : 526.18109 : 1"
       inkscape:vp_y="0 : 1000 : 0"
       inkscape:vp_z="744.09448 : 526.18109 : 1"
       inkscape:persp3d-origin="372.04724 : 350.78739 : 1"
       id="perspective10" />
    <inkscape:perspective
       id="perspective2830"
       inkscape:persp3d-origin="0.5 : 0.33333333 : 1"
       inkscape:vp_z="1 : 0.5 : 1"
       inkscape:vp_y="0 : 1000 : 0"
       inkscape:vp_x="0 : 0.5 : 1"
       sodipodi:type="inkscape:persp3d" />
    <inkscape:perspective
       id="perspective2852"
       inkscape:persp3d-origin="0.5 : 0.33333333 : 1"
       inkscape:vp_z="1 : 0.5 : 1"
       inkscape:vp_y="0 : 1000 : 0"
       inkscape:vp_x="0 : 0.5 : 1"
       sodipodi:type="inkscape:persp3d" />
    <inkscape:perspective
       id="perspective2874"
       inkscape:persp3d-origin="0.5 : 0.33333333 : 1"
       inkscape:vp_z="1 : 0.5 : 1"
       inkscape:vp_y="0 : 1000 : 0"
       inkscape:vp_x="0 : 0.5 : 1"
       sodipodi:type="inkscape:persp3d" />
    <inkscape:perspective
       id="perspective3685"
       inkscape:persp3d-origin="0.5 : 0.33333333 : 1"
       inkscape:vp_z="1 : 0.5 : 1"
       inkscape:vp_y="0 : 1000 : 0"
       inkscape:vp_x="0 : 0.5 : 1"
       sodipodi:type="inkscape:persp3d" />
    <inkscape:perspective
       id="perspective3707"
       inkscape:persp3d-origin="0.5 : 0.33333333 : 1"
       inkscape:vp_z="1 : 0.5 : 1"
       inkscape:vp_y="0 : 1000 : 0"
       inkscape:vp_x="0 : 0.5 : 1"
       sodipodi:type="inkscape:persp3d" />
    <inkscape:perspective
       id="perspective3729"
       inkscape:persp3d-origin="0.5 : 0.33333333 : 1"
       inkscape:vp_z="1 : 0.5 : 1"
       inkscape:vp_y="0 : 1000 : 0"
       inkscape:vp_x="0 : 0.5 : 1"
       sodipodi:type="inkscape:persp3d" />
    <inkscape:perspective
       id="perspective3751"
       inkscape:persp3d-origin="0.5 : 0.33333333 : 1"
       inkscape:vp_z="1 : 0.5 : 1"
       inkscape:vp_y="0 : 1000 : 0"
       inkscape:vp_x="0 : 0.5 : 1"
       sodipodi:type="inkscape:persp3d" />
    <inkscape:perspective
       id="perspective3773"
       inkscape:persp3d-origin="0.5 : 0.33333333 : 1"
       inkscape:vp_z="1 : 0.5 : 1"
       inkscape:vp_y="0 : 1000 : 0"
       inkscape:vp_x="0 : 0.5 : 1"
       sodipodi:type="inkscape:persp3d" />
    <filter
       id="filter3787"
       inkscape:label="Glow"
       inkscape:menu="Shadows and Glows"
       inkscape:menu-tooltip="Glow of object's own color at the edges"
       color-interpolation-filters="sRGB">
      <feGaussianBlur
         id="feGaussianBlur3789"
         stdDeviation="5"
         result="result91" />
      <feComposite
         id="feComposite3791"
         in2="result91"
         in="SourceGraphic"
         operator="over" />
    </filter>
    <radialGradient
       inkscape:collect="always"
       xlink:href="#linearGradient3825"
       id="radialGradient3799"
       cx="84.021782"
       cy="1020.3622"
       fx="84.021782"
       fy="1020.3622"
       r="68.497169"
       gradientTransform="matrix(1,0,0,0.14484314,0,872.5697)"
       gradientUnits="userSpaceOnUse" />
    <radialGradient
       inkscape:collect="always"
       xlink:href="#linearGradient3825"
       id="radialGradient3807"
       cx="84.017113"
       cy="1020.3622"
       fx="84.017113"
       fy="1020.3622"
       r="44.956482"
       gradientTransform="matrix(1,0,0,0.14458426,0,872.83388)"
       gradientUnits="userSpaceOnUse" />
    <radialGradient
       inkscape:collect="always"
       xlink:href="#linearGradient3825"
       id="radialGradient3815"
       cx="84.014008"
       cy="1020.3622"
       fx="84.014008"
       fy="1020.3622"
       r="36.873486"
       gradientTransform="matrix(1,0,0,0.14669314,0,870.68203)"
       gradientUnits="userSpaceOnUse" />
    <radialGradient
       inkscape:collect="always"
       xlink:href="#linearGradient3825"
       id="radialGradient3823"
       cx="86.00856"
       cy="1020.3622"
       fx="86.00856"
       fy="1020.3622"
       r="22.728241"
       gradientTransform="matrix(1,0,0,0.15399344,0,863.23312)"
       gradientUnits="userSpaceOnUse" />
    <radialGradient
       inkscape:collect="always"
       xlink:href="#linearGradient3825"
       id="radialGradient3831"
       cx="87.999992"
       cy="1018.8159"
       fx="87.999992"
       fy="1018.8159"
       r="16.5"
       gradientTransform="matrix(0.55470123,-0.83204961,0.72727273,0.48484978,-701.77074,595.60988)"
       gradientUnits="userSpaceOnUse" />
    <radialGradient
       inkscape:collect="always"
       xlink:href="#linearGradient3833"
       id="radialGradient3839"
       cx="86.008559"
       cy="1020.3622"
       fx="86.008559"
       fy="1020.3622"
       r="22.728241"
       gradientTransform="matrix(1,0,0,0.15399344,0,863.23312)"
       gradientUnits="userSpaceOnUse" />
    <radialGradient
       inkscape:collect="always"
       xlink:href="#linearGradient3841"
       id="radialGradient3847"
       cx="86"
       cy="1008.1626"
       fx="86"
       fy="1008.1626"
       r="16.5"
       gradientTransform="matrix(1,0,0,0.76967552,0,232.20452)"
       gradientUnits="userSpaceOnUse" />
    <radialGradient
       inkscape:collect="always"
       xlink:href="#linearGradient3849"
       id="radialGradient3855"
       cx="84.014004"
       cy="1020.3622"
       fx="84.014004"
       fy="1020.3622"
       r="36.873486"
       gradientTransform="matrix(1,0,0,0.14669314,0,870.68203)"
       gradientUnits="userSpaceOnUse" />
    <radialGradient
       inkscape:collect="always"
       xlink:href="#linearGradient3857"
       id="radialGradient3863"
       cx="84.021781"
       cy="1020.3622"
       fx="84.021781"
       fy="1020.3622"
       r="68.497166"
       gradientTransform="matrix(1,0,0,0.14484314,0,872.5697)"
       gradientUnits="userSpaceOnUse" />
    <filter
       id="filter3865"
       inkscape:label="Hole"
       x="0"
       y="0"
       width="1"
       height="1"
       inkscape:menu="Morphology"
       inkscape:menu-tooltip="Opens a smooth hole inside the shape"
       color-interpolation-filters="sRGB">
      <feGaussianBlur
         id="feGaussianBlur3867"
         in="SourceAlpha"
         stdDeviation="4.2" />
      <feOffset
         id="feOffset3869"
         dy="5"
         dx="5"
         result="result91" />
      <feComposite
         id="feComposite3871"
         in2="result91"
         operator="out"
         in="SourceGraphic"
         result="fbSourceGraphic" />
      <feColorMatrix
         result="fbSourceGraphicAlpha"
         in="fbSourceGraphic"
         values="0 0 0 -1 0 0 0 0 -1 0 0 0 0 -1 0 0 0 0 1 0"
         id="feColorMatrix3897" />
      <feGaussianBlur
         id="feGaussianBlur3899"
         stdDeviation="12"
         in="fbSourceGraphicAlpha"
         result="result1" />
      <feComposite
         id="feComposite3901"
         in2="result1"
         operator="arithmetic"
         k2="3.5"
         k4="-2"
         result="result2" />
      <feComposite
         id="feComposite3903"
         in2="result2"
         in="fbSourceGraphic"
         operator="out"
         result="result91" />
      <feBlend
         id="feBlend3905"
         in2="result91"
         mode="darken" />
    </filter>
    <filter
       id="filter3873"
       inkscape:label="Hole"
       x="0"
       y="0"
       width="1"
       height="1"
       inkscape:menu="Morphology"
       inkscape:menu-tooltip="Opens a smooth hole inside the shape"
       color-interpolation-filters="sRGB">
      <feGaussianBlur
         id="feGaussianBlur3875"
         in="SourceAlpha"
         stdDeviation="4.2" />
      <feOffset
         id="feOffset3877"
         dy="5"
         dx="5"
         result="result91" />
      <feComposite
         id="feComposite3879"
         in2="result91"
         operator="out"
         in="SourceGraphic"
         result="fbSourceGraphic" />
      <feColorMatrix
         result="fbSourceGraphicAlpha"
         in="fbSourceGraphic"
         values="0 0 0 -1 0 0 0 0 -1 0 0 0 0 -1 0 0 0 0 1 0"
         id="feColorMatrix3907" />
      <feGaussianBlur
         id="feGaussianBlur3909"
         stdDeviation="12"
         in="fbSourceGraphicAlpha"
         result="result1" />
      <feComposite
         id="feComposite3911"
         in2="result1"
         operator="arithmetic"
         k2="3.5"
         k4="-2"
         result="result2" />
      <feComposite
         id="feComposite3913"
         in2="result2"
         in="fbSourceGraphic"
         operator="out"
         result="result91" />
      <feBlend
         id="feBlend3915"
         in2="result91"
         mode="darken" />
    </filter>
    <filter
       id="filter3881"
       inkscape:label="Hole"
       x="0"
       y="0"
       width="1"
       height="1"
       inkscape:menu="Morphology"
       inkscape:menu-tooltip="Opens a smooth hole inside the shape"
       color-interpolation-filters="sRGB">
      <feGaussianBlur
         id="feGaussianBlur3883"
         in="SourceAlpha"
         stdDeviation="4.2" />
      <feOffset
         id="feOffset3885"
         dy="5"
         dx="5"
         result="result91" />
      <feComposite
         id="feComposite3887"
         in2="result91"
         operator="out"
         in="SourceGraphic"
         result="fbSourceGraphic" />
      <feColorMatrix
         result="fbSourceGraphicAlpha"
         in="fbSourceGraphic"
         values="0 0 0 -1 0 0 0 0 -1 0 0 0 0 -1 0 0 0 0 1 0"
         id="feColorMatrix3917" />
      <feGaussianBlur
         id="feGaussianBlur3919"
         stdDeviation="12"
         in="fbSourceGraphicAlpha"
         result="result1" />
      <feComposite
         id="feComposite3921"
         in2="result1"
         operator="arithmetic"
         k2="3.5"
         k4="-2"
         result="result2" />
      <feComposite
         id="feComposite3923"
         in2="result2"
         in="fbSourceGraphic"
         operator="out"
         result="result91" />
      <feBlend
         id="feBlend3925"
         in2="result91"
         mode="darken" />
    </filter>
    <filter
       id="filter3889"
       inkscape:label="Hole"
       x="0"
       y="0"
       width="1"
       height="1"
       inkscape:menu="Morphology"
       inkscape:menu-tooltip="Opens a smooth hole inside the shape"
       color-interpolation-filters="sRGB">
      <feGaussianBlur
         id="feGaussianBlur3891"
         in="SourceAlpha"
         stdDeviation="4.2" />
      <feOffset
         id="feOffset3893"
         dy="5"
         dx="5"
         result="result91" />
      <feComposite
         id="feComposite3895"
         in2="result91"
         operator="out"
         in="SourceGraphic"
         result="fbSourceGraphic" />
      <feColorMatrix
         result="fbSourceGraphicAlpha"
         in="fbSourceGraphic"
         values="0 0 0 -1 0 0 0 0 -1 0 0 0 0 -1 0 0 0 0 1 0"
         id="feColorMatrix3927" />
      <feGaussianBlur
         id="feGaussianBlur3929"
         stdDeviation="12"
         in="fbSourceGraphicAlpha"
         result="result1" />
      <feComposite
         id="feComposite3931"
         in2="result1"
         operator="arithmetic"
         k2="3.5"
         k4="-2"
         result="result2" />
      <feComposite
         id="feComposite3933"
         in2="result2"
         in="fbSourceGraphic"
         operator="out"
         result="result91" />
      <feBlend
         id="feBlend3935"
         in2="result91"
         mode="darken" />
    </filter>
  </defs>
  <sodipodi:namedview
     id="base"
     pagecolor="#ffffff"
     bordercolor="#666666"
     borderopacity="1.0"
     inkscape:pageopacity="0.0"
     inkscape:pageshadow="2"
     inkscape:zoom="3.959798"
     inkscape:cx="93.043213"
     inkscape:cy="58.908976"
     inkscape:document-units="px"
     inkscape:current-layer="layer1"
     showgrid="false"
     inkscape:window-width="1366"
     inkscape:window-height="706"
     inkscape:window-x="-8"
     inkscape:window-y="-8"
     inkscape:window-maximized="1">
    <inkscape:grid
       type="xygrid"
       id="grid2816"
       empspacing="2"
       visible="true"
       enabled="true"
       snapvisiblegridlinesonly="true" />
  </sodipodi:namedview>
  <metadata
     id="metadata7">
    <rdf:RDF>
      <cc:Work
         rdf:about="">
        <dc:format>image/svg+xml</dc:format>
        <dc:type
           rdf:resource="http://purl.org/dc/dcmitype/StillImage" />
        <dc:title></dc:title>
      </cc:Work>
    </rdf:RDF>
  </metadata>
  <g
     inkscape:label="Layer 1"
     inkscape:groupmode="layer"
     id="layer1"
     transform="translate(0,-892.36217)">
    <path
       style="fill:url(#radialGradient3799);stroke:url(#radialGradient3863);stroke-width:0.99999994000000003px;stroke-linecap:butt;stroke-linejoin:miter;stroke-opacity:1;fill-opacity:1.0;filter:url(#filter3787)"
       d="m 28,1020.3622 c 0,-10.3571 122.1818,-10.3571 111.99999,0 10.18181,10.357 -122.181806,10.357 -111.99999,0 z"
       id="path2820-1-7-4"
       sodipodi:nodetypes="ccc" />
    <path
       style="fill:url(#radialGradient3807);fill-opacity:1;stroke:#ffffff;stroke-width:0.99999987999999995px;stroke-linecap:butt;stroke-linejoin:miter;stroke-opacity:1;filter:url(#filter3889)"
       d="m 39.999997,1020.3622 c 0,-8 95.999993,-8 88.000003,0 7.99999,8 -96.000003,8 -88.000003,0 z"
       id="path2820-1-7-0"
       sodipodi:nodetypes="ccc" />
    <path
       style="fill:url(#radialGradient3815);fill-opacity:1;stroke:url(#radialGradient3855);stroke-width:0.99999994000000003px;stroke-linecap:butt;stroke-linejoin:miter;stroke-opacity:1;filter:url(#filter3881)"
       d="m 47.999998,1020.3622 c 0,-6.5455 78.545452,-6.5455 72.000002,0 6.54545,6.5454 -78.545457,6.5454 -72.000002,0 z"
       id="path2820-1-4"
       sodipodi:nodetypes="ccc" />
    <path
       style="fill:url(#radialGradient3823);fill-opacity:1;stroke:url(#radialGradient3839);stroke-width:1px;stroke-linecap:butt;stroke-linejoin:miter;stroke-opacity:1;filter:url(#filter3873)"
       d="m 64,1020.3622 c 0,-4 48,-4 44,0 4,4 -48,4 -44,0 z"
       id="path2820-8"
       sodipodi:nodetypes="ccc" />
    <path
       style="fill:url(#radialGradient3831);fill-opacity:1;stroke:url(#radialGradient3847);stroke-opacity:1;filter:url(#filter3865)"
       d="m 70,1020.3622 c 0.95483,-1.0423 10.64835,-1.2781 12,-4 4.11069,-8.2781 0.9898,-23.01023 4,-20.00003 0,-2.80054 0,12.00003 0,20.00003 0,4.0827 14.80054,2.8005 16,4 -12,0 -24,0 -32,0 z"
       id="path2890-8"
       sodipodi:nodetypes="cscscc" />
  </g>
</svg>
